%!PS-Adobe-2.0 EPSF-2.0
%%Title: 8UE-ss-800Mbps-10M-TCP-different.eps
%%Creator: gnuplot 5.0 patchlevel 3
%%CreationDate: Fri Jul 15 15:45:09 2016
%%DocumentFonts: (atend)
%%BoundingBox: 50 50 770 302
%%EndComments
%%BeginProlog
/gnudict 256 dict def
gnudict begin
%
% The following true/false flags may be edited by hand if desired.
% The unit line width and grayscale image gamma correction may also be changed.
%
/Color true def
/Blacktext false def
/Solid false def
/Dashlength 3 def
/Landscape false def
/Level1 false def
/Level3 false def
/Rounded false def
/ClipToBoundingBox false def
/SuppressPDFMark false def
/TransparentPatterns false def
/gnulinewidth 15.000 def
/userlinewidth gnulinewidth def
/Gamma 1.0 def
/BackgroundColor {-1.000 -1.000 -1.000} def
%
/vshift -66 def
/dl1 {
  10.0 Dashlength userlinewidth gnulinewidth div mul mul mul
  Rounded { currentlinewidth 0.75 mul sub dup 0 le { pop 0.01 } if } if
} def
/dl2 {
  10.0 Dashlength userlinewidth gnulinewidth div mul mul mul
  Rounded { currentlinewidth 0.75 mul add } if
} def
/hpt_ 31.5 def
/vpt_ 31.5 def
/hpt hpt_ def
/vpt vpt_ def
/doclip {
  ClipToBoundingBox {
    newpath 50 50 moveto 770 50 lineto 770 302 lineto 50 302 lineto closepath
    clip
  } if
} def
%
% Gnuplot Prolog Version 5.1 (Oct 2015)
%
%/SuppressPDFMark true def
%
/M {moveto} bind def
/L {lineto} bind def
/R {rmoveto} bind def
/V {rlineto} bind def
/N {newpath moveto} bind def
/Z {closepath} bind def
/C {setrgbcolor} bind def
/f {rlineto fill} bind def
/g {setgray} bind def
/Gshow {show} def   % May be redefined later in the file to support UTF-8
/vpt2 vpt 2 mul def
/hpt2 hpt 2 mul def
/Lshow {currentpoint stroke M 0 vshift R 
	Blacktext {gsave 0 setgray textshow grestore} {textshow} ifelse} def
/Rshow {currentpoint stroke M dup stringwidth pop neg vshift R
	Blacktext {gsave 0 setgray textshow grestore} {textshow} ifelse} def
/Cshow {currentpoint stroke M dup stringwidth pop -2 div vshift R 
	Blacktext {gsave 0 setgray textshow grestore} {textshow} ifelse} def
/UP {dup vpt_ mul /vpt exch def hpt_ mul /hpt exch def
  /hpt2 hpt 2 mul def /vpt2 vpt 2 mul def} def
/DL {Color {setrgbcolor Solid {pop []} if 0 setdash}
 {pop pop pop 0 setgray Solid {pop []} if 0 setdash} ifelse} def
/BL {stroke userlinewidth 2 mul setlinewidth
	Rounded {1 setlinejoin 1 setlinecap} if} def
/AL {stroke userlinewidth 2 div setlinewidth
	Rounded {1 setlinejoin 1 setlinecap} if} def
/UL {dup gnulinewidth mul /userlinewidth exch def
	dup 1 lt {pop 1} if 10 mul /udl exch def} def
/PL {stroke userlinewidth setlinewidth
	Rounded {1 setlinejoin 1 setlinecap} if} def
3.8 setmiterlimit
% Classic Line colors (version 5.0)
/LCw {1 1 1} def
/LCb {0 0 0} def
/LCa {0 0 0} def
/LC0 {1 0 0} def
/LC1 {0 1 0} def
/LC2 {0 0 1} def
/LC3 {1 0 1} def
/LC4 {0 1 1} def
/LC5 {1 1 0} def
/LC6 {0 0 0} def
/LC7 {1 0.3 0} def
/LC8 {0.5 0.5 0.5} def
% Default dash patterns (version 5.0)
/LTB {BL [] LCb DL} def
/LTw {PL [] 1 setgray} def
/LTb {PL [] LCb DL} def
/LTa {AL [1 udl mul 2 udl mul] 0 setdash LCa setrgbcolor} def
/LT0 {PL [] LC0 DL} def
/LT1 {PL [2 dl1 3 dl2] LC1 DL} def
/LT2 {PL [1 dl1 1.5 dl2] LC2 DL} def
/LT3 {PL [6 dl1 2 dl2 1 dl1 2 dl2] LC3 DL} def
/LT4 {PL [1 dl1 2 dl2 6 dl1 2 dl2 1 dl1 2 dl2] LC4 DL} def
/LT5 {PL [4 dl1 2 dl2] LC5 DL} def
/LT6 {PL [1.5 dl1 1.5 dl2 1.5 dl1 1.5 dl2 1.5 dl1 6 dl2] LC6 DL} def
/LT7 {PL [3 dl1 3 dl2 1 dl1 3 dl2] LC7 DL} def
/LT8 {PL [2 dl1 2 dl2 2 dl1 6 dl2] LC8 DL} def
/SL {[] 0 setdash} def
/Pnt {stroke [] 0 setdash gsave 1 setlinecap M 0 0 V stroke grestore} def
/Dia {stroke [] 0 setdash 2 copy vpt add M
  hpt neg vpt neg V hpt vpt neg V
  hpt vpt V hpt neg vpt V closepath stroke
  Pnt} def
/Pls {stroke [] 0 setdash vpt sub M 0 vpt2 V
  currentpoint stroke M
  hpt neg vpt neg R hpt2 0 V stroke
 } def
/Box {stroke [] 0 setdash 2 copy exch hpt sub exch vpt add M
  0 vpt2 neg V hpt2 0 V 0 vpt2 V
  hpt2 neg 0 V closepath stroke
  Pnt} def
/Crs {stroke [] 0 setdash exch hpt sub exch vpt add M
  hpt2 vpt2 neg V currentpoint stroke M
  hpt2 neg 0 R hpt2 vpt2 V stroke} def
/TriU {stroke [] 0 setdash 2 copy vpt 1.12 mul add M
  hpt neg vpt -1.62 mul V
  hpt 2 mul 0 V
  hpt neg vpt 1.62 mul V closepath stroke
  Pnt} def
/Star {2 copy Pls Crs} def
/BoxF {stroke [] 0 setdash exch hpt sub exch vpt add M
  0 vpt2 neg V hpt2 0 V 0 vpt2 V
  hpt2 neg 0 V closepath fill} def
/TriUF {stroke [] 0 setdash vpt 1.12 mul add M
  hpt neg vpt -1.62 mul V
  hpt 2 mul 0 V
  hpt neg vpt 1.62 mul V closepath fill} def
/TriD {stroke [] 0 setdash 2 copy vpt 1.12 mul sub M
  hpt neg vpt 1.62 mul V
  hpt 2 mul 0 V
  hpt neg vpt -1.62 mul V closepath stroke
  Pnt} def
/TriDF {stroke [] 0 setdash vpt 1.12 mul sub M
  hpt neg vpt 1.62 mul V
  hpt 2 mul 0 V
  hpt neg vpt -1.62 mul V closepath fill} def
/DiaF {stroke [] 0 setdash vpt add M
  hpt neg vpt neg V hpt vpt neg V
  hpt vpt V hpt neg vpt V closepath fill} def
/Pent {stroke [] 0 setdash 2 copy gsave
  translate 0 hpt M 4 {72 rotate 0 hpt L} repeat
  closepath stroke grestore Pnt} def
/PentF {stroke [] 0 setdash gsave
  translate 0 hpt M 4 {72 rotate 0 hpt L} repeat
  closepath fill grestore} def
/Circle {stroke [] 0 setdash 2 copy
  hpt 0 360 arc stroke Pnt} def
/CircleF {stroke [] 0 setdash hpt 0 360 arc fill} def
/C0 {BL [] 0 setdash 2 copy moveto vpt 90 450 arc} bind def
/C1 {BL [] 0 setdash 2 copy moveto
	2 copy vpt 0 90 arc closepath fill
	vpt 0 360 arc closepath} bind def
/C2 {BL [] 0 setdash 2 copy moveto
	2 copy vpt 90 180 arc closepath fill
	vpt 0 360 arc closepath} bind def
/C3 {BL [] 0 setdash 2 copy moveto
	2 copy vpt 0 180 arc closepath fill
	vpt 0 360 arc closepath} bind def
/C4 {BL [] 0 setdash 2 copy moveto
	2 copy vpt 180 270 arc closepath fill
	vpt 0 360 arc closepath} bind def
/C5 {BL [] 0 setdash 2 copy moveto
	2 copy vpt 0 90 arc
	2 copy moveto
	2 copy vpt 180 270 arc closepath fill
	vpt 0 360 arc} bind def
/C6 {BL [] 0 setdash 2 copy moveto
	2 copy vpt 90 270 arc closepath fill
	vpt 0 360 arc closepath} bind def
/C7 {BL [] 0 setdash 2 copy moveto
	2 copy vpt 0 270 arc closepath fill
	vpt 0 360 arc closepath} bind def
/C8 {BL [] 0 setdash 2 copy moveto
	2 copy vpt 270 360 arc closepath fill
	vpt 0 360 arc closepath} bind def
/C9 {BL [] 0 setdash 2 copy moveto
	2 copy vpt 270 450 arc closepath fill
	vpt 0 360 arc closepath} bind def
/C10 {BL [] 0 setdash 2 copy 2 copy moveto vpt 270 360 arc closepath fill
	2 copy moveto
	2 copy vpt 90 180 arc closepath fill
	vpt 0 360 arc closepath} bind def
/C11 {BL [] 0 setdash 2 copy moveto
	2 copy vpt 0 180 arc closepath fill
	2 copy moveto
	2 copy vpt 270 360 arc closepath fill
	vpt 0 360 arc closepath} bind def
/C12 {BL [] 0 setdash 2 copy moveto
	2 copy vpt 180 360 arc closepath fill
	vpt 0 360 arc closepath} bind def
/C13 {BL [] 0 setdash 2 copy moveto
	2 copy vpt 0 90 arc closepath fill
	2 copy moveto
	2 copy vpt 180 360 arc closepath fill
	vpt 0 360 arc closepath} bind def
/C14 {BL [] 0 setdash 2 copy moveto
	2 copy vpt 90 360 arc closepath fill
	vpt 0 360 arc} bind def
/C15 {BL [] 0 setdash 2 copy vpt 0 360 arc closepath fill
	vpt 0 360 arc closepath} bind def
/Rec {newpath 4 2 roll moveto 1 index 0 rlineto 0 exch rlineto
	neg 0 rlineto closepath} bind def
/Square {dup Rec} bind def
/Bsquare {vpt sub exch vpt sub exch vpt2 Square} bind def
/S0 {BL [] 0 setdash 2 copy moveto 0 vpt rlineto BL Bsquare} bind def
/S1 {BL [] 0 setdash 2 copy vpt Square fill Bsquare} bind def
/S2 {BL [] 0 setdash 2 copy exch vpt sub exch vpt Square fill Bsquare} bind def
/S3 {BL [] 0 setdash 2 copy exch vpt sub exch vpt2 vpt Rec fill Bsquare} bind def
/S4 {BL [] 0 setdash 2 copy exch vpt sub exch vpt sub vpt Square fill Bsquare} bind def
/S5 {BL [] 0 setdash 2 copy 2 copy vpt Square fill
	exch vpt sub exch vpt sub vpt Square fill Bsquare} bind def
/S6 {BL [] 0 setdash 2 copy exch vpt sub exch vpt sub vpt vpt2 Rec fill Bsquare} bind def
/S7 {BL [] 0 setdash 2 copy exch vpt sub exch vpt sub vpt vpt2 Rec fill
	2 copy vpt Square fill Bsquare} bind def
/S8 {BL [] 0 setdash 2 copy vpt sub vpt Square fill Bsquare} bind def
/S9 {BL [] 0 setdash 2 copy vpt sub vpt vpt2 Rec fill Bsquare} bind def
/S10 {BL [] 0 setdash 2 copy vpt sub vpt Square fill 2 copy exch vpt sub exch vpt Square fill
	Bsquare} bind def
/S11 {BL [] 0 setdash 2 copy vpt sub vpt Square fill 2 copy exch vpt sub exch vpt2 vpt Rec fill
	Bsquare} bind def
/S12 {BL [] 0 setdash 2 copy exch vpt sub exch vpt sub vpt2 vpt Rec fill Bsquare} bind def
/S13 {BL [] 0 setdash 2 copy exch vpt sub exch vpt sub vpt2 vpt Rec fill
	2 copy vpt Square fill Bsquare} bind def
/S14 {BL [] 0 setdash 2 copy exch vpt sub exch vpt sub vpt2 vpt Rec fill
	2 copy exch vpt sub exch vpt Square fill Bsquare} bind def
/S15 {BL [] 0 setdash 2 copy Bsquare fill Bsquare} bind def
/D0 {gsave translate 45 rotate 0 0 S0 stroke grestore} bind def
/D1 {gsave translate 45 rotate 0 0 S1 stroke grestore} bind def
/D2 {gsave translate 45 rotate 0 0 S2 stroke grestore} bind def
/D3 {gsave translate 45 rotate 0 0 S3 stroke grestore} bind def
/D4 {gsave translate 45 rotate 0 0 S4 stroke grestore} bind def
/D5 {gsave translate 45 rotate 0 0 S5 stroke grestore} bind def
/D6 {gsave translate 45 rotate 0 0 S6 stroke grestore} bind def
/D7 {gsave translate 45 rotate 0 0 S7 stroke grestore} bind def
/D8 {gsave translate 45 rotate 0 0 S8 stroke grestore} bind def
/D9 {gsave translate 45 rotate 0 0 S9 stroke grestore} bind def
/D10 {gsave translate 45 rotate 0 0 S10 stroke grestore} bind def
/D11 {gsave translate 45 rotate 0 0 S11 stroke grestore} bind def
/D12 {gsave translate 45 rotate 0 0 S12 stroke grestore} bind def
/D13 {gsave translate 45 rotate 0 0 S13 stroke grestore} bind def
/D14 {gsave translate 45 rotate 0 0 S14 stroke grestore} bind def
/D15 {gsave translate 45 rotate 0 0 S15 stroke grestore} bind def
/DiaE {stroke [] 0 setdash vpt add M
  hpt neg vpt neg V hpt vpt neg V
  hpt vpt V hpt neg vpt V closepath stroke} def
/BoxE {stroke [] 0 setdash exch hpt sub exch vpt add M
  0 vpt2 neg V hpt2 0 V 0 vpt2 V
  hpt2 neg 0 V closepath stroke} def
/TriUE {stroke [] 0 setdash vpt 1.12 mul add M
  hpt neg vpt -1.62 mul V
  hpt 2 mul 0 V
  hpt neg vpt 1.62 mul V closepath stroke} def
/TriDE {stroke [] 0 setdash vpt 1.12 mul sub M
  hpt neg vpt 1.62 mul V
  hpt 2 mul 0 V
  hpt neg vpt -1.62 mul V closepath stroke} def
/PentE {stroke [] 0 setdash gsave
  translate 0 hpt M 4 {72 rotate 0 hpt L} repeat
  closepath stroke grestore} def
/CircE {stroke [] 0 setdash 
  hpt 0 360 arc stroke} def
/Opaque {gsave closepath 1 setgray fill grestore 0 setgray closepath} def
/DiaW {stroke [] 0 setdash vpt add M
  hpt neg vpt neg V hpt vpt neg V
  hpt vpt V hpt neg vpt V Opaque stroke} def
/BoxW {stroke [] 0 setdash exch hpt sub exch vpt add M
  0 vpt2 neg V hpt2 0 V 0 vpt2 V
  hpt2 neg 0 V Opaque stroke} def
/TriUW {stroke [] 0 setdash vpt 1.12 mul add M
  hpt neg vpt -1.62 mul V
  hpt 2 mul 0 V
  hpt neg vpt 1.62 mul V Opaque stroke} def
/TriDW {stroke [] 0 setdash vpt 1.12 mul sub M
  hpt neg vpt 1.62 mul V
  hpt 2 mul 0 V
  hpt neg vpt -1.62 mul V Opaque stroke} def
/PentW {stroke [] 0 setdash gsave
  translate 0 hpt M 4 {72 rotate 0 hpt L} repeat
  Opaque stroke grestore} def
/CircW {stroke [] 0 setdash 
  hpt 0 360 arc Opaque stroke} def
/BoxFill {gsave Rec 1 setgray fill grestore} def
/Density {
  /Fillden exch def
  currentrgbcolor
  /ColB exch def /ColG exch def /ColR exch def
  /ColR ColR Fillden mul Fillden sub 1 add def
  /ColG ColG Fillden mul Fillden sub 1 add def
  /ColB ColB Fillden mul Fillden sub 1 add def
  ColR ColG ColB setrgbcolor} def
/BoxColFill {gsave Rec PolyFill} def
/PolyFill {gsave Density fill grestore grestore} def
/h {rlineto rlineto rlineto gsave closepath fill grestore} bind def
%
% PostScript Level 1 Pattern Fill routine for rectangles
% Usage: x y w h s a XX PatternFill
%	x,y = lower left corner of box to be filled
%	w,h = width and height of box
%	  a = angle in degrees between lines and x-axis
%	 XX = 0/1 for no/yes cross-hatch
%
/PatternFill {gsave /PFa [ 9 2 roll ] def
  PFa 0 get PFa 2 get 2 div add PFa 1 get PFa 3 get 2 div add translate
  PFa 2 get -2 div PFa 3 get -2 div PFa 2 get PFa 3 get Rec
  TransparentPatterns {} {gsave 1 setgray fill grestore} ifelse
  clip
  currentlinewidth 0.5 mul setlinewidth
  /PFs PFa 2 get dup mul PFa 3 get dup mul add sqrt def
  0 0 M PFa 5 get rotate PFs -2 div dup translate
  0 1 PFs PFa 4 get div 1 add floor cvi
	{PFa 4 get mul 0 M 0 PFs V} for
  0 PFa 6 get ne {
	0 1 PFs PFa 4 get div 1 add floor cvi
	{PFa 4 get mul 0 2 1 roll M PFs 0 V} for
 } if
  stroke grestore} def
%
/languagelevel where
 {pop languagelevel} {1} ifelse
dup 2 lt
	{/InterpretLevel1 true def
	 /InterpretLevel3 false def}
	{/InterpretLevel1 Level1 def
	 2 gt
	    {/InterpretLevel3 Level3 def}
	    {/InterpretLevel3 false def}
	 ifelse }
 ifelse
%
% PostScript level 2 pattern fill definitions
%
/Level2PatternFill {
/Tile8x8 {/PaintType 2 /PatternType 1 /TilingType 1 /BBox [0 0 8 8] /XStep 8 /YStep 8}
	bind def
/KeepColor {currentrgbcolor [/Pattern /DeviceRGB] setcolorspace} bind def
<< Tile8x8
 /PaintProc {0.5 setlinewidth pop 0 0 M 8 8 L 0 8 M 8 0 L stroke} 
>> matrix makepattern
/Pat1 exch def
<< Tile8x8
 /PaintProc {0.5 setlinewidth pop 0 0 M 8 8 L 0 8 M 8 0 L stroke
	0 4 M 4 8 L 8 4 L 4 0 L 0 4 L stroke}
>> matrix makepattern
/Pat2 exch def
<< Tile8x8
 /PaintProc {0.5 setlinewidth pop 0 0 M 0 8 L
	8 8 L 8 0 L 0 0 L fill}
>> matrix makepattern
/Pat3 exch def
<< Tile8x8
 /PaintProc {0.5 setlinewidth pop -4 8 M 8 -4 L
	0 12 M 12 0 L stroke}
>> matrix makepattern
/Pat4 exch def
<< Tile8x8
 /PaintProc {0.5 setlinewidth pop -4 0 M 8 12 L
	0 -4 M 12 8 L stroke}
>> matrix makepattern
/Pat5 exch def
<< Tile8x8
 /PaintProc {0.5 setlinewidth pop -2 8 M 4 -4 L
	0 12 M 8 -4 L 4 12 M 10 0 L stroke}
>> matrix makepattern
/Pat6 exch def
<< Tile8x8
 /PaintProc {0.5 setlinewidth pop -2 0 M 4 12 L
	0 -4 M 8 12 L 4 -4 M 10 8 L stroke}
>> matrix makepattern
/Pat7 exch def
<< Tile8x8
 /PaintProc {0.5 setlinewidth pop 8 -2 M -4 4 L
	12 0 M -4 8 L 12 4 M 0 10 L stroke}
>> matrix makepattern
/Pat8 exch def
<< Tile8x8
 /PaintProc {0.5 setlinewidth pop 0 -2 M 12 4 L
	-4 0 M 12 8 L -4 4 M 8 10 L stroke}
>> matrix makepattern
/Pat9 exch def
/Pattern1 {PatternBgnd KeepColor Pat1 setpattern} bind def
/Pattern2 {PatternBgnd KeepColor Pat2 setpattern} bind def
/Pattern3 {PatternBgnd KeepColor Pat3 setpattern} bind def
/Pattern4 {PatternBgnd KeepColor Landscape {Pat5} {Pat4} ifelse setpattern} bind def
/Pattern5 {PatternBgnd KeepColor Landscape {Pat4} {Pat5} ifelse setpattern} bind def
/Pattern6 {PatternBgnd KeepColor Landscape {Pat9} {Pat6} ifelse setpattern} bind def
/Pattern7 {PatternBgnd KeepColor Landscape {Pat8} {Pat7} ifelse setpattern} bind def
} def
%
%
%End of PostScript Level 2 code
%
/PatternBgnd {
  TransparentPatterns {} {gsave 1 setgray fill grestore} ifelse
} def
%
% Substitute for Level 2 pattern fill codes with
% grayscale if Level 2 support is not selected.
%
/Level1PatternFill {
/Pattern1 {0.250 Density} bind def
/Pattern2 {0.500 Density} bind def
/Pattern3 {0.750 Density} bind def
/Pattern4 {0.125 Density} bind def
/Pattern5 {0.375 Density} bind def
/Pattern6 {0.625 Density} bind def
/Pattern7 {0.875 Density} bind def
} def
%
% Now test for support of Level 2 code
%
Level1 {Level1PatternFill} {Level2PatternFill} ifelse
%
/Symbol-Oblique /Symbol findfont [1 0 .167 1 0 0] makefont
dup length dict begin {1 index /FID eq {pop pop} {def} ifelse} forall
currentdict end definefont pop
%
/MFshow {
   { dup 5 get 3 ge
     { 5 get 3 eq {gsave} {grestore} ifelse }
     {dup dup 0 get findfont exch 1 get scalefont setfont
     [ currentpoint ] exch dup 2 get 0 exch R dup 5 get 2 ne {dup dup 6
     get exch 4 get {textshow} {stringwidth pop 0 R} ifelse }if dup 5 get 0 eq
     {dup 3 get {2 get neg 0 exch R pop} {pop aload pop M} ifelse} {dup 5
     get 1 eq {dup 2 get exch dup 3 get exch 6 get stringwidth pop -2 div
     dup 0 R} {dup 6 get stringwidth pop -2 div 0 R 6 get
     textshow 2 index {aload pop M neg 3 -1 roll neg R pop pop} {pop pop pop
     pop aload pop M} ifelse }ifelse }ifelse }
     ifelse }
   forall} def
/Gswidth {dup type /stringtype eq {stringwidth} {pop (n) stringwidth} ifelse} def
/MFwidth {0 exch { dup 5 get 3 ge { 5 get 3 eq { 0 } { pop } ifelse }
 {dup 3 get{dup dup 0 get findfont exch 1 get scalefont setfont
     6 get Gswidth pop add} {pop} ifelse} ifelse} forall} def
/MLshow { currentpoint stroke M
  0 exch R
  Blacktext {gsave 0 setgray MFshow grestore} {MFshow} ifelse } bind def
/MRshow { currentpoint stroke M
  exch dup MFwidth neg 3 -1 roll R
  Blacktext {gsave 0 setgray MFshow grestore} {MFshow} ifelse } bind def
/MCshow { currentpoint stroke M
  exch dup MFwidth -2 div 3 -1 roll R
  Blacktext {gsave 0 setgray MFshow grestore} {MFshow} ifelse } bind def
/XYsave    { [( ) 1 2 true false 3 ()] } bind def
/XYrestore { [( ) 1 2 true false 4 ()] } bind def
Level1 SuppressPDFMark or 
{} {
/SDict 10 dict def
systemdict /pdfmark known not {
  userdict /pdfmark systemdict /cleartomark get put
} if
SDict begin [
  /Title (8UE-ss-800Mbps-10M-TCP-different.eps)
  /Subject (gnuplot plot)
  /Creator (gnuplot 5.0 patchlevel 3)
  /Author (nat)
%  /Producer (gnuplot)
%  /Keywords ()
  /CreationDate (Fri Jul 15 15:45:09 2016)
  /DOCINFO pdfmark
end
} ifelse
%
% Support for boxed text - Ethan A Merritt May 2005
%
/InitTextBox { userdict /TBy2 3 -1 roll put userdict /TBx2 3 -1 roll put
           userdict /TBy1 3 -1 roll put userdict /TBx1 3 -1 roll put
	   /Boxing true def } def
/ExtendTextBox { Boxing
    { gsave dup false charpath pathbbox
      dup TBy2 gt {userdict /TBy2 3 -1 roll put} {pop} ifelse
      dup TBx2 gt {userdict /TBx2 3 -1 roll put} {pop} ifelse
      dup TBy1 lt {userdict /TBy1 3 -1 roll put} {pop} ifelse
      dup TBx1 lt {userdict /TBx1 3 -1 roll put} {pop} ifelse
      grestore } if } def
/PopTextBox { newpath TBx1 TBxmargin sub TBy1 TBymargin sub M
               TBx1 TBxmargin sub TBy2 TBymargin add L
	       TBx2 TBxmargin add TBy2 TBymargin add L
	       TBx2 TBxmargin add TBy1 TBymargin sub L closepath } def
/DrawTextBox { PopTextBox stroke /Boxing false def} def
/FillTextBox { gsave PopTextBox 1 1 1 setrgbcolor fill grestore /Boxing false def} def
0 0 0 0 InitTextBox
/TBxmargin 20 def
/TBymargin 20 def
/Boxing false def
/textshow { ExtendTextBox Gshow } def
%
% redundant definitions for compatibility with prologue.ps older than 5.0.2
/LTB {BL [] LCb DL} def
/LTb {PL [] LCb DL} def
end
%%EndProlog
%%Page: 1 1
gnudict begin
gsave
doclip
50 50 translate
0.050 0.050 scale
0 setgray
newpath
(Arial) findfont 200 scalefont setfont
BackgroundColor 0 lt 3 1 roll 0 lt exch 0 lt or or not {BackgroundColor C 1.000 0 0 14400.00 5040.00 BoxColFill} if
1.000 UL
LTb
0.00 0.00 0.00 C 0.500 UL
LTa
0.50 0.50 0.50 C 1100 820 M
5739 0 V
stroke
1.000 UL
LTb
0.00 0.00 0.00 C 1100 820 M
63 0 V
5676 0 R
-63 0 V
stroke
980 820 M
[ [(Arial) 200.0 0.0 true true 0 ( 700)]
] -66.7 MRshow
1.000 UL
LTb
0.00 0.00 0.00 C 0.500 UL
LTa
0.50 0.50 0.50 C 1100 1222 M
5739 0 V
stroke
1.000 UL
LTb
0.00 0.00 0.00 C 1100 1222 M
63 0 V
5676 0 R
-63 0 V
stroke
980 1222 M
[ [(Arial) 200.0 0.0 true true 0 ( 750)]
] -66.7 MRshow
1.000 UL
LTb
0.00 0.00 0.00 C 0.500 UL
LTa
0.50 0.50 0.50 C 1100 1624 M
5739 0 V
stroke
1.000 UL
LTb
0.00 0.00 0.00 C 1100 1624 M
63 0 V
5676 0 R
-63 0 V
stroke
980 1624 M
[ [(Arial) 200.0 0.0 true true 0 ( 800)]
] -66.7 MRshow
1.000 UL
LTb
0.00 0.00 0.00 C 0.500 UL
LTa
0.50 0.50 0.50 C 1100 2026 M
5739 0 V
stroke
1.000 UL
LTb
0.00 0.00 0.00 C 1100 2026 M
63 0 V
5676 0 R
-63 0 V
stroke
980 2026 M
[ [(Arial) 200.0 0.0 true true 0 ( 850)]
] -66.7 MRshow
1.000 UL
LTb
0.00 0.00 0.00 C 0.500 UL
LTa
0.50 0.50 0.50 C 1100 2428 M
5739 0 V
stroke
1.000 UL
LTb
0.00 0.00 0.00 C 1100 2428 M
63 0 V
5676 0 R
-63 0 V
stroke
980 2428 M
[ [(Arial) 200.0 0.0 true true 0 ( 900)]
] -66.7 MRshow
1.000 UL
LTb
0.00 0.00 0.00 C 0.500 UL
LTa
0.50 0.50 0.50 C 1100 2831 M
5739 0 V
stroke
1.000 UL
LTb
0.00 0.00 0.00 C 1100 2831 M
63 0 V
5676 0 R
-63 0 V
stroke
980 2831 M
[ [(Arial) 200.0 0.0 true true 0 ( 950)]
] -66.7 MRshow
1.000 UL
LTb
0.00 0.00 0.00 C 0.500 UL
LTa
0.50 0.50 0.50 C 1100 3233 M
5739 0 V
stroke
1.000 UL
LTb
0.00 0.00 0.00 C 1100 3233 M
63 0 V
5676 0 R
-63 0 V
stroke
980 3233 M
[ [(Arial) 200.0 0.0 true true 0 ( 1000)]
] -66.7 MRshow
1.000 UL
LTb
0.00 0.00 0.00 C 0.500 UL
LTa
0.50 0.50 0.50 C 1100 3635 M
5739 0 V
stroke
1.000 UL
LTb
0.00 0.00 0.00 C 1100 3635 M
63 0 V
5676 0 R
-63 0 V
stroke
980 3635 M
[ [(Arial) 200.0 0.0 true true 0 ( 1050)]
] -66.7 MRshow
1.000 UL
LTb
0.00 0.00 0.00 C 0.500 UL
LTa
0.50 0.50 0.50 C 1100 4037 M
5739 0 V
stroke
1.000 UL
LTb
0.00 0.00 0.00 C 1100 4037 M
63 0 V
5676 0 R
-63 0 V
stroke
980 4037 M
[ [(Arial) 200.0 0.0 true true 0 ( 1100)]
] -66.7 MRshow
1.000 UL
LTb
0.00 0.00 0.00 C 0.500 UL
LTa
0.50 0.50 0.50 C 1100 4439 M
5739 0 V
stroke
1.000 UL
LTb
0.00 0.00 0.00 C 1100 4439 M
63 0 V
5676 0 R
-63 0 V
stroke
980 4439 M
[ [(Arial) 200.0 0.0 true true 0 ( 1150)]
] -66.7 MRshow
1.000 UL
LTb
0.00 0.00 0.00 C 0.500 UL
LTa
0.50 0.50 0.50 C 1817 820 M
0 3619 V
stroke
1.000 UL
LTb
0.00 0.00 0.00 C 1817 820 M
0 63 V
0 3556 R
0 -63 V
stroke
1817 620 M
[ [(Arial) 200.0 0.0 true true 0 (Cubic)]
] -66.7 MCshow
1.000 UL
LTb
0.00 0.00 0.00 C 0.500 UL
LTa
0.50 0.50 0.50 C 3970 820 M
0 3619 V
stroke
1.000 UL
LTb
0.00 0.00 0.00 C 3970 820 M
0 63 V
0 3556 R
0 -63 V
stroke
3970 620 M
[ [(Arial) 200.0 0.0 true true 0 (Hybla)]
] -66.7 MCshow
1.000 UL
LTb
0.00 0.00 0.00 C 0.500 UL
LTa
0.50 0.50 0.50 C 6122 820 M
0 3619 V
stroke
1.000 UL
LTb
0.00 0.00 0.00 C 6122 820 M
0 63 V
0 3556 R
0 -63 V
stroke
6122 620 M
[ [(Arial) 200.0 0.0 true true 0 (Vegas)]
] -66.7 MCshow
1.000 UL
LTb
0.00 0.00 0.00 C 1.000 UL
LTB
0.00 0.00 0.00 C 1100 4439 M
0 -3619 V
5739 0 V
0 3619 R
-5739 0 R
1.000 UP
stroke
LTb
0.00 0.00 0.00 C LCb setrgbcolor
160 2629 M
currentpoint gsave translate -270 rotate 0 0 moveto
[ [(Arial) 200.0 0.0 true true 0 (RTT \(ms\))]
] -66.7 MCshow
grestore
LTb
LCb setrgbcolor
3969 320 M
[ [(Arial) 200.0 0.0 true true 0 (TCP)]
] -66.7 MCshow
LTb
LCb setrgbcolor
3969 4739 M
[ [(Arial) 200.0 0.0 true true 0 (a\) RTT)]
] -66.7 MCshow
% Begin plot #1
1.000 UL
LTb
0.60 0.60 0.00 C LCb setrgbcolor
2714 153 M
[ [(Arial) 180.0 0.0 true true 0 (olsr)]
] -60.0 MRshow
1.000 UL
LTb
0.60 0.60 0.00 C 2822 108 333 90 80 -45 0 PatternFill
2822 108 N
333 0 V
0 90 V
-333 0 V
0 -90 V
Z stroke
1.000 UL
LTb
0.60 0.60 0.00 C 1315 1316 288 9 80 -45 0 PatternFill
1459 1307 M
0 9 V
0 9 R
0 47 V
stroke
1315 1316 N
288 0 V
0 9 V
-288 0 V
0 -9 V
Z stroke
1315 1372 M
288 0 V
-288 -65 R
288 0 V
stroke
3467 2909 288 496 80 -45 0 PatternFill
3611 2549 M
0 360 V
0 496 R
0 297 V
stroke
3467 2909 N
288 0 V
0 496 V
-288 0 V
0 -496 V
Z stroke
3467 3702 M
288 0 V
3467 2549 M
288 0 V
stroke
5619 1192 288 11 80 -45 0 PatternFill
5763 1190 M
0 2 V
0 11 R
0 48 V
stroke
5619 1192 N
288 0 V
0 11 V
-288 0 V
0 -11 V
Z stroke
5619 1251 M
288 0 V
-288 -61 R
288 0 V
% End plot #1
% Begin plot #2
stroke
LTb
LCb setrgbcolor

 /TransparentPatterns true def
1315 1322 288 0 40 30 0 PatternFill
1459 1322 M
stroke
1315 1322 N
288 0 V
-288 0 V
Z stroke
1315 1322 M
288 0 V
-288 0 R
288 0 V
stroke

 /TransparentPatterns true def
3467 3207 288 0 40 30 0 PatternFill
3611 3207 M
stroke
3467 3207 N
288 0 V
-288 0 V
Z stroke
3467 3207 M
288 0 V
-288 0 R
288 0 V
stroke

 /TransparentPatterns true def
5619 1200 288 0 40 30 0 PatternFill
5763 1200 M
stroke
5619 1200 N
288 0 V
-288 0 V
Z stroke
5619 1200 M
288 0 V
-288 0 R
288 0 V
% End plot #2
% Begin plot #3
stroke
LTb
0.00 0.00 0.63 C LCb setrgbcolor
4127 153 M
[ [(Arial) 180.0 0.0 true true 0 (per-packet)]
] -60.0 MRshow
1.000 UL
LTb
0.00 0.00 0.63 C 4235 108 333 90 80 45 0 PatternFill
4235 108 N
333 0 V
0 90 V
-333 0 V
0 -90 V
Z stroke
1.000 UL
LTb
0.00 0.00 0.63 C 1674 1879 288 319 80 45 0 PatternFill
1818 1666 M
0 213 V
0 319 R
0 316 V
stroke
1674 1879 N
288 0 V
0 319 V
-288 0 V
0 -319 V
Z stroke
1674 2514 M
288 0 V
1674 1666 M
288 0 V
stroke
3826 2968 288 135 80 45 0 PatternFill
3970 2933 M
0 35 V
0 135 R
stroke
3826 2968 N
288 0 V
0 135 V
-288 0 V
0 -135 V
Z stroke
3826 3103 M
288 0 V
3826 2933 M
288 0 V
stroke
5978 1973 288 400 80 45 0 PatternFill
6122 1702 M
0 271 V
0 400 R
0 338 V
stroke
5978 1973 N
288 0 V
0 400 V
-288 0 V
0 -400 V
Z stroke
5978 2711 M
288 0 V
5978 1702 M
288 0 V
% End plot #3
% Begin plot #4
stroke
LTb
LCb setrgbcolor

 /TransparentPatterns true def
1674 2040 288 0 80 -45 0 PatternFill
1818 2040 M
stroke
1674 2040 N
288 0 V
-288 0 V
Z stroke
1674 2040 M
288 0 V
-288 0 R
288 0 V
stroke

 /TransparentPatterns true def
3826 3028 288 0 80 -45 0 PatternFill
3970 3028 M
stroke
3826 3028 N
288 0 V
-288 0 V
Z stroke
3826 3028 M
288 0 V
-288 0 R
288 0 V
stroke

 /TransparentPatterns true def
5978 2173 288 0 80 -45 0 PatternFill
6122 2173 M
stroke
5978 2173 N
288 0 V
-288 0 V
Z stroke
5978 2173 M
288 0 V
-288 0 R
288 0 V
% End plot #4
% Begin plot #5
stroke
LTb
0.00 0.38 0.82 C LCb setrgbcolor
5540 153 M
[ [(Arial) 180.0 0.0 true true 0 (per-flow)]
] -60.0 MRshow
1.000 UL
LTb
0.00 0.38 0.82 C 5648 108 333 90 40 30 0 PatternFill
5648 108 N
333 0 V
0 90 V
-333 0 V
0 -90 V
Z stroke
1.000 UL
LTb
0.00 0.38 0.82 C 2033 1535 288 1263 40 30 0 PatternFill
2177 1280 M
0 255 V
0 1263 R
0 1505 V
stroke
2033 1535 N
288 0 V
0 1263 V
-288 0 V
0 -1263 V
Z stroke
2033 4303 M
288 0 V
2033 1280 M
288 0 V
stroke
4185 1846 288 1493 40 30 0 PatternFill
4329 1282 M
0 564 V
0 1493 R
0 485 V
stroke
4185 1846 N
288 0 V
0 1493 V
-288 0 V
0 -1493 V
Z stroke
4185 3824 M
288 0 V
4185 1282 M
288 0 V
stroke
6337 1560 288 286 40 30 0 PatternFill
6481 1273 M
0 287 V
0 286 R
0 254 V
stroke
6337 1560 N
288 0 V
0 286 V
-288 0 V
0 -286 V
Z stroke
6337 2100 M
288 0 V
6337 1273 M
288 0 V
% End plot #5
% Begin plot #6
stroke
LTb
LCb setrgbcolor

 /TransparentPatterns true def
2033 2129 288 0 40 -30 0 PatternFill
2177 2129 M
stroke
2033 2129 N
288 0 V
-288 0 V
Z stroke
2033 2129 M
288 0 V
-288 0 R
288 0 V
stroke

 /TransparentPatterns true def
4185 2612 288 0 40 -30 0 PatternFill
4329 2612 M
stroke
4185 2612 N
288 0 V
-288 0 V
Z stroke
4185 2612 M
288 0 V
-288 0 R
288 0 V
stroke

 /TransparentPatterns true def
6337 1702 288 0 40 -30 0 PatternFill
6481 1702 M
stroke
6337 1702 N
288 0 V
-288 0 V
Z stroke
6337 1702 M
288 0 V
-288 0 R
288 0 V
% End plot #6
stroke
2.000 UL
LTb
LCb setrgbcolor
1.000 UP
1.000 UL
LTb
0.00 0.00 0.00 C 1.000 UL
LTb
0.00 0.00 0.00 C 0.500 UL
LTa
0.50 0.50 0.50 C 8300 820 M
5739 0 V
stroke
1.000 UL
LTb
0.00 0.00 0.00 C 8300 820 M
63 0 V
5676 0 R
-63 0 V
stroke
8180 820 M
[ [(Arial) 200.0 0.0 true true 0 ( 0)]
] -66.7 MRshow
1.000 UL
LTb
0.00 0.00 0.00 C 0.500 UL
LTa
0.50 0.50 0.50 C 8300 1182 M
5739 0 V
stroke
1.000 UL
LTb
0.00 0.00 0.00 C 8300 1182 M
63 0 V
5676 0 R
-63 0 V
stroke
8180 1182 M
[ [(Arial) 200.0 0.0 true true 0 ( 100)]
] -66.7 MRshow
1.000 UL
LTb
0.00 0.00 0.00 C 0.500 UL
LTa
0.50 0.50 0.50 C 8300 1544 M
5739 0 V
stroke
1.000 UL
LTb
0.00 0.00 0.00 C 8300 1544 M
63 0 V
5676 0 R
-63 0 V
stroke
8180 1544 M
[ [(Arial) 200.0 0.0 true true 0 ( 200)]
] -66.7 MRshow
1.000 UL
LTb
0.00 0.00 0.00 C 0.500 UL
LTa
0.50 0.50 0.50 C 8300 1906 M
5739 0 V
stroke
1.000 UL
LTb
0.00 0.00 0.00 C 8300 1906 M
63 0 V
5676 0 R
-63 0 V
stroke
8180 1906 M
[ [(Arial) 200.0 0.0 true true 0 ( 300)]
] -66.7 MRshow
1.000 UL
LTb
0.00 0.00 0.00 C 0.500 UL
LTa
0.50 0.50 0.50 C 8300 2268 M
5739 0 V
stroke
1.000 UL
LTb
0.00 0.00 0.00 C 8300 2268 M
63 0 V
5676 0 R
-63 0 V
stroke
8180 2268 M
[ [(Arial) 200.0 0.0 true true 0 ( 400)]
] -66.7 MRshow
1.000 UL
LTb
0.00 0.00 0.00 C 0.500 UL
LTa
0.50 0.50 0.50 C 8300 2630 M
5739 0 V
stroke
1.000 UL
LTb
0.00 0.00 0.00 C 8300 2630 M
63 0 V
5676 0 R
-63 0 V
stroke
8180 2630 M
[ [(Arial) 200.0 0.0 true true 0 ( 500)]
] -66.7 MRshow
1.000 UL
LTb
0.00 0.00 0.00 C 0.500 UL
LTa
0.50 0.50 0.50 C 8300 2991 M
5739 0 V
stroke
1.000 UL
LTb
0.00 0.00 0.00 C 8300 2991 M
63 0 V
5676 0 R
-63 0 V
stroke
8180 2991 M
[ [(Arial) 200.0 0.0 true true 0 ( 600)]
] -66.7 MRshow
1.000 UL
LTb
0.00 0.00 0.00 C 0.500 UL
LTa
0.50 0.50 0.50 C 8300 3353 M
5739 0 V
stroke
1.000 UL
LTb
0.00 0.00 0.00 C 8300 3353 M
63 0 V
5676 0 R
-63 0 V
stroke
8180 3353 M
[ [(Arial) 200.0 0.0 true true 0 ( 700)]
] -66.7 MRshow
1.000 UL
LTb
0.00 0.00 0.00 C 0.500 UL
LTa
0.50 0.50 0.50 C 8300 3715 M
5739 0 V
stroke
1.000 UL
LTb
0.00 0.00 0.00 C 8300 3715 M
63 0 V
5676 0 R
-63 0 V
stroke
8180 3715 M
[ [(Arial) 200.0 0.0 true true 0 ( 800)]
] -66.7 MRshow
1.000 UL
LTb
0.00 0.00 0.00 C 0.500 UL
LTa
0.50 0.50 0.50 C 8300 4077 M
5739 0 V
stroke
1.000 UL
LTb
0.00 0.00 0.00 C 8300 4077 M
63 0 V
5676 0 R
-63 0 V
stroke
8180 4077 M
[ [(Arial) 200.0 0.0 true true 0 ( 900)]
] -66.7 MRshow
1.000 UL
LTb
0.00 0.00 0.00 C 0.500 UL
LTa
0.50 0.50 0.50 C 8300 4439 M
5739 0 V
stroke
1.000 UL
LTb
0.00 0.00 0.00 C 8300 4439 M
63 0 V
5676 0 R
-63 0 V
stroke
8180 4439 M
[ [(Arial) 200.0 0.0 true true 0 ( 1000)]
] -66.7 MRshow
1.000 UL
LTb
0.00 0.00 0.00 C 0.500 UL
LTa
0.50 0.50 0.50 C 9017 820 M
0 3619 V
stroke
1.000 UL
LTb
0.00 0.00 0.00 C 9017 820 M
0 63 V
0 3556 R
0 -63 V
stroke
9017 620 M
[ [(Arial) 200.0 0.0 true true 0 (Cubic)]
] -66.7 MCshow
1.000 UL
LTb
0.00 0.00 0.00 C 0.500 UL
LTa
0.50 0.50 0.50 C 11170 820 M
0 3619 V
stroke
1.000 UL
LTb
0.00 0.00 0.00 C 11170 820 M
0 63 V
0 3556 R
0 -63 V
stroke
11170 620 M
[ [(Arial) 200.0 0.0 true true 0 (Hybla)]
] -66.7 MCshow
1.000 UL
LTb
0.00 0.00 0.00 C 0.500 UL
LTa
0.50 0.50 0.50 C 13322 820 M
0 3619 V
stroke
1.000 UL
LTb
0.00 0.00 0.00 C 13322 820 M
0 63 V
0 3556 R
0 -63 V
stroke
13322 620 M
[ [(Arial) 200.0 0.0 true true 0 (Vegas)]
] -66.7 MCshow
1.000 UL
LTb
0.00 0.00 0.00 C 1.000 UL
LTB
0.00 0.00 0.00 C 8300 4439 M
0 -3619 V
5739 0 V
0 3619 R
-5739 0 R
1.000 UP
stroke
LTb
0.00 0.00 0.00 C LCb setrgbcolor
7360 2629 M
currentpoint gsave translate -270 rotate 0 0 moveto
[ [(Arial) 200.0 0.0 true true 0 (File download time \(s\))]
] -66.7 MCshow
grestore
LTb
LCb setrgbcolor
11169 320 M
[ [(Arial) 200.0 0.0 true true 0 (TCP)]
] -66.7 MCshow
LTb
LCb setrgbcolor
11169 4739 M
[ [(Arial) 200.0 0.0 true true 0 (b\) File download time)]
] -66.7 MCshow
% Begin plot #1
1.000 UL
LTb
0.60 0.60 0.00 C LCb setrgbcolor
9914 153 M
[ [(Arial) 180.0 0.0 true true 0 (olsr)]
] -60.0 MRshow
1.000 UL
LTb
0.60 0.60 0.00 C 10022 108 333 90 80 -45 0 PatternFill
10022 108 N
333 0 V
0 90 V
-333 0 V
0 -90 V
Z stroke
1.000 UL
LTb
0.60 0.60 0.00 C 8515 1032 288 581 80 -45 0 PatternFill
8659 885 M
0 147 V
0 581 R
0 379 V
stroke
8515 1032 N
288 0 V
0 581 V
-288 0 V
0 -581 V
Z stroke
8515 1992 M
288 0 V
8515 885 M
288 0 V
stroke
10667 1505 288 855 80 -45 0 PatternFill
10811 874 M
0 631 V
0 855 R
0 25 V
stroke
10667 1505 N
288 0 V
0 855 V
-288 0 V
0 -855 V
Z stroke
10667 2385 M
288 0 V
10667 874 M
288 0 V
stroke
12819 962 288 325 80 -45 0 PatternFill
12963 908 M
0 54 V
0 325 R
0 763 V
stroke
12819 962 N
288 0 V
0 325 V
-288 0 V
0 -325 V
Z stroke
12819 2050 M
288 0 V
12819 908 M
288 0 V
% End plot #1
% Begin plot #2
stroke
LTb
LCb setrgbcolor

 /TransparentPatterns true def
8515 1340 288 0 40 30 0 PatternFill
8659 1340 M
stroke
8515 1340 N
288 0 V
-288 0 V
Z stroke
8515 1340 M
288 0 V
-288 0 R
288 0 V
stroke

 /TransparentPatterns true def
10667 1830 288 0 40 30 0 PatternFill
10811 1830 M
stroke
10667 1830 N
288 0 V
-288 0 V
Z stroke
10667 1830 M
288 0 V
-288 0 R
288 0 V
stroke

 /TransparentPatterns true def
12819 1282 288 0 40 30 0 PatternFill
12963 1282 M
stroke
12819 1282 N
288 0 V
-288 0 V
Z stroke
12819 1282 M
288 0 V
-288 0 R
288 0 V
% End plot #2
% Begin plot #3
stroke
LTb
0.00 0.00 0.63 C LCb setrgbcolor
11327 153 M
[ [(Arial) 180.0 0.0 true true 0 (per-packet)]
] -60.0 MRshow
1.000 UL
LTb
0.00 0.00 0.63 C 11435 108 333 90 80 45 0 PatternFill
11435 108 N
333 0 V
0 90 V
-333 0 V
0 -90 V
Z stroke
1.000 UL
LTb
0.00 0.00 0.63 C 8874 2992 288 1429 80 45 0 PatternFill
9018 1401 M
0 1591 V
0 1429 R
0 1 V
stroke
8874 2992 N
288 0 V
0 1429 V
-288 0 V
0 -1429 V
Z stroke
8874 4422 M
288 0 V
8874 1401 M
288 0 V
stroke
11026 1616 288 328 80 45 0 PatternFill
11170 1496 M
0 120 V
0 328 R
0 322 V
stroke
11026 1616 N
288 0 V
0 328 V
-288 0 V
0 -328 V
Z stroke
11026 2266 M
288 0 V
-288 -770 R
288 0 V
stroke
13178 4099 288 322 80 45 0 PatternFill
13322 2825 M
0 1274 V
0 322 R
0 2 V
stroke
13178 4099 N
288 0 V
0 322 V
-288 0 V
0 -322 V
Z stroke
13178 4423 M
288 0 V
13178 2825 M
288 0 V
% End plot #3
% Begin plot #4
stroke
LTb
LCb setrgbcolor

 /TransparentPatterns true def
8874 3720 288 0 80 -45 0 PatternFill
9018 3720 M
stroke
8874 3720 N
288 0 V
-288 0 V
Z stroke
8874 3720 M
288 0 V
-288 0 R
288 0 V
stroke

 /TransparentPatterns true def
11026 1801 288 0 80 -45 0 PatternFill
11170 1801 M
stroke
11026 1801 N
288 0 V
-288 0 V
Z stroke
11026 1801 M
288 0 V
-288 0 R
288 0 V
stroke

 /TransparentPatterns true def
13178 4148 288 0 80 -45 0 PatternFill
13322 4148 M
stroke
13178 4148 N
288 0 V
-288 0 V
Z stroke
13178 4148 M
288 0 V
-288 0 R
288 0 V
% End plot #4
% Begin plot #5
stroke
LTb
0.00 0.38 0.82 C LCb setrgbcolor
12740 153 M
[ [(Arial) 180.0 0.0 true true 0 (per-flow)]
] -60.0 MRshow
1.000 UL
LTb
0.00 0.38 0.82 C 12848 108 333 90 40 30 0 PatternFill
12848 108 N
333 0 V
0 90 V
-333 0 V
0 -90 V
Z stroke
1.000 UL
LTb
0.00 0.38 0.82 C 9233 976 288 3447 40 30 0 PatternFill
9377 939 M
0 37 V
0 3447 R
0 1 V
stroke
9233 976 N
288 0 V
0 3447 V
-288 0 V
0 -3447 V
Z stroke
9233 4424 M
288 0 V
9233 939 M
288 0 V
stroke
11385 1060 288 841 40 30 0 PatternFill
11529 1032 M
0 28 V
0 841 R
0 121 V
stroke
11385 1060 N
288 0 V
0 841 V
-288 0 V
0 -841 V
Z stroke
11385 2022 M
288 0 V
-288 -990 R
288 0 V
stroke
13537 994 288 3416 40 30 0 PatternFill
13681 970 M
0 24 V
0 3416 R
0 14 V
stroke
13537 994 N
288 0 V
0 3416 V
-288 0 V
0 -3416 V
Z stroke
13537 4424 M
288 0 V
13537 970 M
288 0 V
% End plot #5
% Begin plot #6
stroke
LTb
LCb setrgbcolor

 /TransparentPatterns true def
9233 2740 288 0 40 -30 0 PatternFill
9377 2740 M
stroke
9233 2740 N
288 0 V
-288 0 V
Z stroke
9233 2740 M
288 0 V
-288 0 R
288 0 V
stroke

 /TransparentPatterns true def
11385 1517 288 0 40 -30 0 PatternFill
11529 1517 M
stroke
11385 1517 N
288 0 V
-288 0 V
Z stroke
11385 1517 M
288 0 V
-288 0 R
288 0 V
stroke

 /TransparentPatterns true def
13537 2543 288 0 40 -30 0 PatternFill
13681 2543 M
stroke
13537 2543 N
288 0 V
-288 0 V
Z stroke
13537 2543 M
288 0 V
-288 0 R
288 0 V
% End plot #6
stroke
2.000 UL
LTb
LCb setrgbcolor
1.000 UP
1.000 UL
LTb
0.00 0.00 0.00 C stroke
grestore
end
showpage
%%Trailer
%%DocumentFonts: Arial
