%!PS-Adobe-2.0 EPSF-2.0
%%Title: TcpCubic-2M-ss-400Mbps-UE-increase.eps
%%Creator: gnuplot 5.0 patchlevel 3
%%CreationDate: Fri Jul 15 15:45:05 2016
%%DocumentFonts: (atend)
%%BoundingBox: 50 50 770 302
%%EndComments
%%BeginProlog
/gnudict 256 dict def
gnudict begin
%
% The following true/false flags may be edited by hand if desired.
% The unit line width and grayscale image gamma correction may also be changed.
%
/Color true def
/Blacktext false def
/Solid false def
/Dashlength 3 def
/Landscape false def
/Level1 false def
/Level3 false def
/Rounded false def
/ClipToBoundingBox false def
/SuppressPDFMark false def
/TransparentPatterns false def
/gnulinewidth 15.000 def
/userlinewidth gnulinewidth def
/Gamma 1.0 def
/BackgroundColor {-1.000 -1.000 -1.000} def
%
/vshift -66 def
/dl1 {
  10.0 Dashlength userlinewidth gnulinewidth div mul mul mul
  Rounded { currentlinewidth 0.75 mul sub dup 0 le { pop 0.01 } if } if
} def
/dl2 {
  10.0 Dashlength userlinewidth gnulinewidth div mul mul mul
  Rounded { currentlinewidth 0.75 mul add } if
} def
/hpt_ 31.5 def
/vpt_ 31.5 def
/hpt hpt_ def
/vpt vpt_ def
/doclip {
  ClipToBoundingBox {
    newpath 50 50 moveto 770 50 lineto 770 302 lineto 50 302 lineto closepath
    clip
  } if
} def
%
% Gnuplot Prolog Version 5.1 (Oct 2015)
%
%/SuppressPDFMark true def
%
/M {moveto} bind def
/L {lineto} bind def
/R {rmoveto} bind def
/V {rlineto} bind def
/N {newpath moveto} bind def
/Z {closepath} bind def
/C {setrgbcolor} bind def
/f {rlineto fill} bind def
/g {setgray} bind def
/Gshow {show} def   % May be redefined later in the file to support UTF-8
/vpt2 vpt 2 mul def
/hpt2 hpt 2 mul def
/Lshow {currentpoint stroke M 0 vshift R 
	Blacktext {gsave 0 setgray textshow grestore} {textshow} ifelse} def
/Rshow {currentpoint stroke M dup stringwidth pop neg vshift R
	Blacktext {gsave 0 setgray textshow grestore} {textshow} ifelse} def
/Cshow {currentpoint stroke M dup stringwidth pop -2 div vshift R 
	Blacktext {gsave 0 setgray textshow grestore} {textshow} ifelse} def
/UP {dup vpt_ mul /vpt exch def hpt_ mul /hpt exch def
  /hpt2 hpt 2 mul def /vpt2 vpt 2 mul def} def
/DL {Color {setrgbcolor Solid {pop []} if 0 setdash}
 {pop pop pop 0 setgray Solid {pop []} if 0 setdash} ifelse} def
/BL {stroke userlinewidth 2 mul setlinewidth
	Rounded {1 setlinejoin 1 setlinecap} if} def
/AL {stroke userlinewidth 2 div setlinewidth
	Rounded {1 setlinejoin 1 setlinecap} if} def
/UL {dup gnulinewidth mul /userlinewidth exch def
	dup 1 lt {pop 1} if 10 mul /udl exch def} def
/PL {stroke userlinewidth setlinewidth
	Rounded {1 setlinejoin 1 setlinecap} if} def
3.8 setmiterlimit
% Classic Line colors (version 5.0)
/LCw {1 1 1} def
/LCb {0 0 0} def
/LCa {0 0 0} def
/LC0 {1 0 0} def
/LC1 {0 1 0} def
/LC2 {0 0 1} def
/LC3 {1 0 1} def
/LC4 {0 1 1} def
/LC5 {1 1 0} def
/LC6 {0 0 0} def
/LC7 {1 0.3 0} def
/LC8 {0.5 0.5 0.5} def
% Default dash patterns (version 5.0)
/LTB {BL [] LCb DL} def
/LTw {PL [] 1 setgray} def
/LTb {PL [] LCb DL} def
/LTa {AL [1 udl mul 2 udl mul] 0 setdash LCa setrgbcolor} def
/LT0 {PL [] LC0 DL} def
/LT1 {PL [2 dl1 3 dl2] LC1 DL} def
/LT2 {PL [1 dl1 1.5 dl2] LC2 DL} def
/LT3 {PL [6 dl1 2 dl2 1 dl1 2 dl2] LC3 DL} def
/LT4 {PL [1 dl1 2 dl2 6 dl1 2 dl2 1 dl1 2 dl2] LC4 DL} def
/LT5 {PL [4 dl1 2 dl2] LC5 DL} def
/LT6 {PL [1.5 dl1 1.5 dl2 1.5 dl1 1.5 dl2 1.5 dl1 6 dl2] LC6 DL} def
/LT7 {PL [3 dl1 3 dl2 1 dl1 3 dl2] LC7 DL} def
/LT8 {PL [2 dl1 2 dl2 2 dl1 6 dl2] LC8 DL} def
/SL {[] 0 setdash} def
/Pnt {stroke [] 0 setdash gsave 1 setlinecap M 0 0 V stroke grestore} def
/Dia {stroke [] 0 setdash 2 copy vpt add M
  hpt neg vpt neg V hpt vpt neg V
  hpt vpt V hpt neg vpt V closepath stroke
  Pnt} def
/Pls {stroke [] 0 setdash vpt sub M 0 vpt2 V
  currentpoint stroke M
  hpt neg vpt neg R hpt2 0 V stroke
 } def
/Box {stroke [] 0 setdash 2 copy exch hpt sub exch vpt add M
  0 vpt2 neg V hpt2 0 V 0 vpt2 V
  hpt2 neg 0 V closepath stroke
  Pnt} def
/Crs {stroke [] 0 setdash exch hpt sub exch vpt add M
  hpt2 vpt2 neg V currentpoint stroke M
  hpt2 neg 0 R hpt2 vpt2 V stroke} def
/TriU {stroke [] 0 setdash 2 copy vpt 1.12 mul add M
  hpt neg vpt -1.62 mul V
  hpt 2 mul 0 V
  hpt neg vpt 1.62 mul V closepath stroke
  Pnt} def
/Star {2 copy Pls Crs} def
/BoxF {stroke [] 0 setdash exch hpt sub exch vpt add M
  0 vpt2 neg V hpt2 0 V 0 vpt2 V
  hpt2 neg 0 V closepath fill} def
/TriUF {stroke [] 0 setdash vpt 1.12 mul add M
  hpt neg vpt -1.62 mul V
  hpt 2 mul 0 V
  hpt neg vpt 1.62 mul V closepath fill} def
/TriD {stroke [] 0 setdash 2 copy vpt 1.12 mul sub M
  hpt neg vpt 1.62 mul V
  hpt 2 mul 0 V
  hpt neg vpt -1.62 mul V closepath stroke
  Pnt} def
/TriDF {stroke [] 0 setdash vpt 1.12 mul sub M
  hpt neg vpt 1.62 mul V
  hpt 2 mul 0 V
  hpt neg vpt -1.62 mul V closepath fill} def
/DiaF {stroke [] 0 setdash vpt add M
  hpt neg vpt neg V hpt vpt neg V
  hpt vpt V hpt neg vpt V closepath fill} def
/Pent {stroke [] 0 setdash 2 copy gsave
  translate 0 hpt M 4 {72 rotate 0 hpt L} repeat
  closepath stroke grestore Pnt} def
/PentF {stroke [] 0 setdash gsave
  translate 0 hpt M 4 {72 rotate 0 hpt L} repeat
  closepath fill grestore} def
/Circle {stroke [] 0 setdash 2 copy
  hpt 0 360 arc stroke Pnt} def
/CircleF {stroke [] 0 setdash hpt 0 360 arc fill} def
/C0 {BL [] 0 setdash 2 copy moveto vpt 90 450 arc} bind def
/C1 {BL [] 0 setdash 2 copy moveto
	2 copy vpt 0 90 arc closepath fill
	vpt 0 360 arc closepath} bind def
/C2 {BL [] 0 setdash 2 copy moveto
	2 copy vpt 90 180 arc closepath fill
	vpt 0 360 arc closepath} bind def
/C3 {BL [] 0 setdash 2 copy moveto
	2 copy vpt 0 180 arc closepath fill
	vpt 0 360 arc closepath} bind def
/C4 {BL [] 0 setdash 2 copy moveto
	2 copy vpt 180 270 arc closepath fill
	vpt 0 360 arc closepath} bind def
/C5 {BL [] 0 setdash 2 copy moveto
	2 copy vpt 0 90 arc
	2 copy moveto
	2 copy vpt 180 270 arc closepath fill
	vpt 0 360 arc} bind def
/C6 {BL [] 0 setdash 2 copy moveto
	2 copy vpt 90 270 arc closepath fill
	vpt 0 360 arc closepath} bind def
/C7 {BL [] 0 setdash 2 copy moveto
	2 copy vpt 0 270 arc closepath fill
	vpt 0 360 arc closepath} bind def
/C8 {BL [] 0 setdash 2 copy moveto
	2 copy vpt 270 360 arc closepath fill
	vpt 0 360 arc closepath} bind def
/C9 {BL [] 0 setdash 2 copy moveto
	2 copy vpt 270 450 arc closepath fill
	vpt 0 360 arc closepath} bind def
/C10 {BL [] 0 setdash 2 copy 2 copy moveto vpt 270 360 arc closepath fill
	2 copy moveto
	2 copy vpt 90 180 arc closepath fill
	vpt 0 360 arc closepath} bind def
/C11 {BL [] 0 setdash 2 copy moveto
	2 copy vpt 0 180 arc closepath fill
	2 copy moveto
	2 copy vpt 270 360 arc closepath fill
	vpt 0 360 arc closepath} bind def
/C12 {BL [] 0 setdash 2 copy moveto
	2 copy vpt 180 360 arc closepath fill
	vpt 0 360 arc closepath} bind def
/C13 {BL [] 0 setdash 2 copy moveto
	2 copy vpt 0 90 arc closepath fill
	2 copy moveto
	2 copy vpt 180 360 arc closepath fill
	vpt 0 360 arc closepath} bind def
/C14 {BL [] 0 setdash 2 copy moveto
	2 copy vpt 90 360 arc closepath fill
	vpt 0 360 arc} bind def
/C15 {BL [] 0 setdash 2 copy vpt 0 360 arc closepath fill
	vpt 0 360 arc closepath} bind def
/Rec {newpath 4 2 roll moveto 1 index 0 rlineto 0 exch rlineto
	neg 0 rlineto closepath} bind def
/Square {dup Rec} bind def
/Bsquare {vpt sub exch vpt sub exch vpt2 Square} bind def
/S0 {BL [] 0 setdash 2 copy moveto 0 vpt rlineto BL Bsquare} bind def
/S1 {BL [] 0 setdash 2 copy vpt Square fill Bsquare} bind def
/S2 {BL [] 0 setdash 2 copy exch vpt sub exch vpt Square fill Bsquare} bind def
/S3 {BL [] 0 setdash 2 copy exch vpt sub exch vpt2 vpt Rec fill Bsquare} bind def
/S4 {BL [] 0 setdash 2 copy exch vpt sub exch vpt sub vpt Square fill Bsquare} bind def
/S5 {BL [] 0 setdash 2 copy 2 copy vpt Square fill
	exch vpt sub exch vpt sub vpt Square fill Bsquare} bind def
/S6 {BL [] 0 setdash 2 copy exch vpt sub exch vpt sub vpt vpt2 Rec fill Bsquare} bind def
/S7 {BL [] 0 setdash 2 copy exch vpt sub exch vpt sub vpt vpt2 Rec fill
	2 copy vpt Square fill Bsquare} bind def
/S8 {BL [] 0 setdash 2 copy vpt sub vpt Square fill Bsquare} bind def
/S9 {BL [] 0 setdash 2 copy vpt sub vpt vpt2 Rec fill Bsquare} bind def
/S10 {BL [] 0 setdash 2 copy vpt sub vpt Square fill 2 copy exch vpt sub exch vpt Square fill
	Bsquare} bind def
/S11 {BL [] 0 setdash 2 copy vpt sub vpt Square fill 2 copy exch vpt sub exch vpt2 vpt Rec fill
	Bsquare} bind def
/S12 {BL [] 0 setdash 2 copy exch vpt sub exch vpt sub vpt2 vpt Rec fill Bsquare} bind def
/S13 {BL [] 0 setdash 2 copy exch vpt sub exch vpt sub vpt2 vpt Rec fill
	2 copy vpt Square fill Bsquare} bind def
/S14 {BL [] 0 setdash 2 copy exch vpt sub exch vpt sub vpt2 vpt Rec fill
	2 copy exch vpt sub exch vpt Square fill Bsquare} bind def
/S15 {BL [] 0 setdash 2 copy Bsquare fill Bsquare} bind def
/D0 {gsave translate 45 rotate 0 0 S0 stroke grestore} bind def
/D1 {gsave translate 45 rotate 0 0 S1 stroke grestore} bind def
/D2 {gsave translate 45 rotate 0 0 S2 stroke grestore} bind def
/D3 {gsave translate 45 rotate 0 0 S3 stroke grestore} bind def
/D4 {gsave translate 45 rotate 0 0 S4 stroke grestore} bind def
/D5 {gsave translate 45 rotate 0 0 S5 stroke grestore} bind def
/D6 {gsave translate 45 rotate 0 0 S6 stroke grestore} bind def
/D7 {gsave translate 45 rotate 0 0 S7 stroke grestore} bind def
/D8 {gsave translate 45 rotate 0 0 S8 stroke grestore} bind def
/D9 {gsave translate 45 rotate 0 0 S9 stroke grestore} bind def
/D10 {gsave translate 45 rotate 0 0 S10 stroke grestore} bind def
/D11 {gsave translate 45 rotate 0 0 S11 stroke grestore} bind def
/D12 {gsave translate 45 rotate 0 0 S12 stroke grestore} bind def
/D13 {gsave translate 45 rotate 0 0 S13 stroke grestore} bind def
/D14 {gsave translate 45 rotate 0 0 S14 stroke grestore} bind def
/D15 {gsave translate 45 rotate 0 0 S15 stroke grestore} bind def
/DiaE {stroke [] 0 setdash vpt add M
  hpt neg vpt neg V hpt vpt neg V
  hpt vpt V hpt neg vpt V closepath stroke} def
/BoxE {stroke [] 0 setdash exch hpt sub exch vpt add M
  0 vpt2 neg V hpt2 0 V 0 vpt2 V
  hpt2 neg 0 V closepath stroke} def
/TriUE {stroke [] 0 setdash vpt 1.12 mul add M
  hpt neg vpt -1.62 mul V
  hpt 2 mul 0 V
  hpt neg vpt 1.62 mul V closepath stroke} def
/TriDE {stroke [] 0 setdash vpt 1.12 mul sub M
  hpt neg vpt 1.62 mul V
  hpt 2 mul 0 V
  hpt neg vpt -1.62 mul V closepath stroke} def
/PentE {stroke [] 0 setdash gsave
  translate 0 hpt M 4 {72 rotate 0 hpt L} repeat
  closepath stroke grestore} def
/CircE {stroke [] 0 setdash 
  hpt 0 360 arc stroke} def
/Opaque {gsave closepath 1 setgray fill grestore 0 setgray closepath} def
/DiaW {stroke [] 0 setdash vpt add M
  hpt neg vpt neg V hpt vpt neg V
  hpt vpt V hpt neg vpt V Opaque stroke} def
/BoxW {stroke [] 0 setdash exch hpt sub exch vpt add M
  0 vpt2 neg V hpt2 0 V 0 vpt2 V
  hpt2 neg 0 V Opaque stroke} def
/TriUW {stroke [] 0 setdash vpt 1.12 mul add M
  hpt neg vpt -1.62 mul V
  hpt 2 mul 0 V
  hpt neg vpt 1.62 mul V Opaque stroke} def
/TriDW {stroke [] 0 setdash vpt 1.12 mul sub M
  hpt neg vpt 1.62 mul V
  hpt 2 mul 0 V
  hpt neg vpt -1.62 mul V Opaque stroke} def
/PentW {stroke [] 0 setdash gsave
  translate 0 hpt M 4 {72 rotate 0 hpt L} repeat
  Opaque stroke grestore} def
/CircW {stroke [] 0 setdash 
  hpt 0 360 arc Opaque stroke} def
/BoxFill {gsave Rec 1 setgray fill grestore} def
/Density {
  /Fillden exch def
  currentrgbcolor
  /ColB exch def /ColG exch def /ColR exch def
  /ColR ColR Fillden mul Fillden sub 1 add def
  /ColG ColG Fillden mul Fillden sub 1 add def
  /ColB ColB Fillden mul Fillden sub 1 add def
  ColR ColG ColB setrgbcolor} def
/BoxColFill {gsave Rec PolyFill} def
/PolyFill {gsave Density fill grestore grestore} def
/h {rlineto rlineto rlineto gsave closepath fill grestore} bind def
%
% PostScript Level 1 Pattern Fill routine for rectangles
% Usage: x y w h s a XX PatternFill
%	x,y = lower left corner of box to be filled
%	w,h = width and height of box
%	  a = angle in degrees between lines and x-axis
%	 XX = 0/1 for no/yes cross-hatch
%
/PatternFill {gsave /PFa [ 9 2 roll ] def
  PFa 0 get PFa 2 get 2 div add PFa 1 get PFa 3 get 2 div add translate
  PFa 2 get -2 div PFa 3 get -2 div PFa 2 get PFa 3 get Rec
  TransparentPatterns {} {gsave 1 setgray fill grestore} ifelse
  clip
  currentlinewidth 0.5 mul setlinewidth
  /PFs PFa 2 get dup mul PFa 3 get dup mul add sqrt def
  0 0 M PFa 5 get rotate PFs -2 div dup translate
  0 1 PFs PFa 4 get div 1 add floor cvi
	{PFa 4 get mul 0 M 0 PFs V} for
  0 PFa 6 get ne {
	0 1 PFs PFa 4 get div 1 add floor cvi
	{PFa 4 get mul 0 2 1 roll M PFs 0 V} for
 } if
  stroke grestore} def
%
/languagelevel where
 {pop languagelevel} {1} ifelse
dup 2 lt
	{/InterpretLevel1 true def
	 /InterpretLevel3 false def}
	{/InterpretLevel1 Level1 def
	 2 gt
	    {/InterpretLevel3 Level3 def}
	    {/InterpretLevel3 false def}
	 ifelse }
 ifelse
%
% PostScript level 2 pattern fill definitions
%
/Level2PatternFill {
/Tile8x8 {/PaintType 2 /PatternType 1 /TilingType 1 /BBox [0 0 8 8] /XStep 8 /YStep 8}
	bind def
/KeepColor {currentrgbcolor [/Pattern /DeviceRGB] setcolorspace} bind def
<< Tile8x8
 /PaintProc {0.5 setlinewidth pop 0 0 M 8 8 L 0 8 M 8 0 L stroke} 
>> matrix makepattern
/Pat1 exch def
<< Tile8x8
 /PaintProc {0.5 setlinewidth pop 0 0 M 8 8 L 0 8 M 8 0 L stroke
	0 4 M 4 8 L 8 4 L 4 0 L 0 4 L stroke}
>> matrix makepattern
/Pat2 exch def
<< Tile8x8
 /PaintProc {0.5 setlinewidth pop 0 0 M 0 8 L
	8 8 L 8 0 L 0 0 L fill}
>> matrix makepattern
/Pat3 exch def
<< Tile8x8
 /PaintProc {0.5 setlinewidth pop -4 8 M 8 -4 L
	0 12 M 12 0 L stroke}
>> matrix makepattern
/Pat4 exch def
<< Tile8x8
 /PaintProc {0.5 setlinewidth pop -4 0 M 8 12 L
	0 -4 M 12 8 L stroke}
>> matrix makepattern
/Pat5 exch def
<< Tile8x8
 /PaintProc {0.5 setlinewidth pop -2 8 M 4 -4 L
	0 12 M 8 -4 L 4 12 M 10 0 L stroke}
>> matrix makepattern
/Pat6 exch def
<< Tile8x8
 /PaintProc {0.5 setlinewidth pop -2 0 M 4 12 L
	0 -4 M 8 12 L 4 -4 M 10 8 L stroke}
>> matrix makepattern
/Pat7 exch def
<< Tile8x8
 /PaintProc {0.5 setlinewidth pop 8 -2 M -4 4 L
	12 0 M -4 8 L 12 4 M 0 10 L stroke}
>> matrix makepattern
/Pat8 exch def
<< Tile8x8
 /PaintProc {0.5 setlinewidth pop 0 -2 M 12 4 L
	-4 0 M 12 8 L -4 4 M 8 10 L stroke}
>> matrix makepattern
/Pat9 exch def
/Pattern1 {PatternBgnd KeepColor Pat1 setpattern} bind def
/Pattern2 {PatternBgnd KeepColor Pat2 setpattern} bind def
/Pattern3 {PatternBgnd KeepColor Pat3 setpattern} bind def
/Pattern4 {PatternBgnd KeepColor Landscape {Pat5} {Pat4} ifelse setpattern} bind def
/Pattern5 {PatternBgnd KeepColor Landscape {Pat4} {Pat5} ifelse setpattern} bind def
/Pattern6 {PatternBgnd KeepColor Landscape {Pat9} {Pat6} ifelse setpattern} bind def
/Pattern7 {PatternBgnd KeepColor Landscape {Pat8} {Pat7} ifelse setpattern} bind def
} def
%
%
%End of PostScript Level 2 code
%
/PatternBgnd {
  TransparentPatterns {} {gsave 1 setgray fill grestore} ifelse
} def
%
% Substitute for Level 2 pattern fill codes with
% grayscale if Level 2 support is not selected.
%
/Level1PatternFill {
/Pattern1 {0.250 Density} bind def
/Pattern2 {0.500 Density} bind def
/Pattern3 {0.750 Density} bind def
/Pattern4 {0.125 Density} bind def
/Pattern5 {0.375 Density} bind def
/Pattern6 {0.625 Density} bind def
/Pattern7 {0.875 Density} bind def
} def
%
% Now test for support of Level 2 code
%
Level1 {Level1PatternFill} {Level2PatternFill} ifelse
%
/Symbol-Oblique /Symbol findfont [1 0 .167 1 0 0] makefont
dup length dict begin {1 index /FID eq {pop pop} {def} ifelse} forall
currentdict end definefont pop
%
/MFshow {
   { dup 5 get 3 ge
     { 5 get 3 eq {gsave} {grestore} ifelse }
     {dup dup 0 get findfont exch 1 get scalefont setfont
     [ currentpoint ] exch dup 2 get 0 exch R dup 5 get 2 ne {dup dup 6
     get exch 4 get {textshow} {stringwidth pop 0 R} ifelse }if dup 5 get 0 eq
     {dup 3 get {2 get neg 0 exch R pop} {pop aload pop M} ifelse} {dup 5
     get 1 eq {dup 2 get exch dup 3 get exch 6 get stringwidth pop -2 div
     dup 0 R} {dup 6 get stringwidth pop -2 div 0 R 6 get
     textshow 2 index {aload pop M neg 3 -1 roll neg R pop pop} {pop pop pop
     pop aload pop M} ifelse }ifelse }ifelse }
     ifelse }
   forall} def
/Gswidth {dup type /stringtype eq {stringwidth} {pop (n) stringwidth} ifelse} def
/MFwidth {0 exch { dup 5 get 3 ge { 5 get 3 eq { 0 } { pop } ifelse }
 {dup 3 get{dup dup 0 get findfont exch 1 get scalefont setfont
     6 get Gswidth pop add} {pop} ifelse} ifelse} forall} def
/MLshow { currentpoint stroke M
  0 exch R
  Blacktext {gsave 0 setgray MFshow grestore} {MFshow} ifelse } bind def
/MRshow { currentpoint stroke M
  exch dup MFwidth neg 3 -1 roll R
  Blacktext {gsave 0 setgray MFshow grestore} {MFshow} ifelse } bind def
/MCshow { currentpoint stroke M
  exch dup MFwidth -2 div 3 -1 roll R
  Blacktext {gsave 0 setgray MFshow grestore} {MFshow} ifelse } bind def
/XYsave    { [( ) 1 2 true false 3 ()] } bind def
/XYrestore { [( ) 1 2 true false 4 ()] } bind def
Level1 SuppressPDFMark or 
{} {
/SDict 10 dict def
systemdict /pdfmark known not {
  userdict /pdfmark systemdict /cleartomark get put
} if
SDict begin [
  /Title (TcpCubic-2M-ss-400Mbps-UE-increase.eps)
  /Subject (gnuplot plot)
  /Creator (gnuplot 5.0 patchlevel 3)
  /Author (nat)
%  /Producer (gnuplot)
%  /Keywords ()
  /CreationDate (Fri Jul 15 15:45:05 2016)
  /DOCINFO pdfmark
end
} ifelse
%
% Support for boxed text - Ethan A Merritt May 2005
%
/InitTextBox { userdict /TBy2 3 -1 roll put userdict /TBx2 3 -1 roll put
           userdict /TBy1 3 -1 roll put userdict /TBx1 3 -1 roll put
	   /Boxing true def } def
/ExtendTextBox { Boxing
    { gsave dup false charpath pathbbox
      dup TBy2 gt {userdict /TBy2 3 -1 roll put} {pop} ifelse
      dup TBx2 gt {userdict /TBx2 3 -1 roll put} {pop} ifelse
      dup TBy1 lt {userdict /TBy1 3 -1 roll put} {pop} ifelse
      dup TBx1 lt {userdict /TBx1 3 -1 roll put} {pop} ifelse
      grestore } if } def
/PopTextBox { newpath TBx1 TBxmargin sub TBy1 TBymargin sub M
               TBx1 TBxmargin sub TBy2 TBymargin add L
	       TBx2 TBxmargin add TBy2 TBymargin add L
	       TBx2 TBxmargin add TBy1 TBymargin sub L closepath } def
/DrawTextBox { PopTextBox stroke /Boxing false def} def
/FillTextBox { gsave PopTextBox 1 1 1 setrgbcolor fill grestore /Boxing false def} def
0 0 0 0 InitTextBox
/TBxmargin 20 def
/TBymargin 20 def
/Boxing false def
/textshow { ExtendTextBox Gshow } def
%
% redundant definitions for compatibility with prologue.ps older than 5.0.2
/LTB {BL [] LCb DL} def
/LTb {PL [] LCb DL} def
end
%%EndProlog
%%Page: 1 1
gnudict begin
gsave
doclip
50 50 translate
0.050 0.050 scale
0 setgray
newpath
(Arial) findfont 200 scalefont setfont
BackgroundColor 0 lt 3 1 roll 0 lt exch 0 lt or or not {BackgroundColor C 1.000 0 0 14400.00 5040.00 BoxColFill} if
1.000 UL
LTb
0.00 0.00 0.00 C 0.500 UL
LTa
0.50 0.50 0.50 C 1100 820 M
5739 0 V
stroke
1.000 UL
LTb
0.00 0.00 0.00 C 1100 820 M
63 0 V
5676 0 R
-63 0 V
stroke
980 820 M
[ [(Arial) 200.0 0.0 true true 0 ( 700)]
] -66.7 MRshow
1.000 UL
LTb
0.00 0.00 0.00 C 0.500 UL
LTa
0.50 0.50 0.50 C 1100 1337 M
5739 0 V
stroke
1.000 UL
LTb
0.00 0.00 0.00 C 1100 1337 M
63 0 V
5676 0 R
-63 0 V
stroke
980 1337 M
[ [(Arial) 200.0 0.0 true true 0 ( 800)]
] -66.7 MRshow
1.000 UL
LTb
0.00 0.00 0.00 C 0.500 UL
LTa
0.50 0.50 0.50 C 1100 1854 M
5739 0 V
stroke
1.000 UL
LTb
0.00 0.00 0.00 C 1100 1854 M
63 0 V
5676 0 R
-63 0 V
stroke
980 1854 M
[ [(Arial) 200.0 0.0 true true 0 ( 900)]
] -66.7 MRshow
1.000 UL
LTb
0.00 0.00 0.00 C 0.500 UL
LTa
0.50 0.50 0.50 C 1100 2371 M
5739 0 V
stroke
1.000 UL
LTb
0.00 0.00 0.00 C 1100 2371 M
63 0 V
5676 0 R
-63 0 V
stroke
980 2371 M
[ [(Arial) 200.0 0.0 true true 0 ( 1000)]
] -66.7 MRshow
1.000 UL
LTb
0.00 0.00 0.00 C 0.500 UL
LTa
0.50 0.50 0.50 C 1100 2888 M
5739 0 V
stroke
1.000 UL
LTb
0.00 0.00 0.00 C 1100 2888 M
63 0 V
5676 0 R
-63 0 V
stroke
980 2888 M
[ [(Arial) 200.0 0.0 true true 0 ( 1100)]
] -66.7 MRshow
1.000 UL
LTb
0.00 0.00 0.00 C 0.500 UL
LTa
0.50 0.50 0.50 C 1100 3405 M
5739 0 V
stroke
1.000 UL
LTb
0.00 0.00 0.00 C 1100 3405 M
63 0 V
5676 0 R
-63 0 V
stroke
980 3405 M
[ [(Arial) 200.0 0.0 true true 0 ( 1200)]
] -66.7 MRshow
1.000 UL
LTb
0.00 0.00 0.00 C 0.500 UL
LTa
0.50 0.50 0.50 C 1100 3922 M
5739 0 V
stroke
1.000 UL
LTb
0.00 0.00 0.00 C 1100 3922 M
63 0 V
5676 0 R
-63 0 V
stroke
980 3922 M
[ [(Arial) 200.0 0.0 true true 0 ( 1300)]
] -66.7 MRshow
1.000 UL
LTb
0.00 0.00 0.00 C 0.500 UL
LTa
0.50 0.50 0.50 C 1100 4439 M
5739 0 V
stroke
1.000 UL
LTb
0.00 0.00 0.00 C 1100 4439 M
63 0 V
5676 0 R
-63 0 V
stroke
980 4439 M
[ [(Arial) 200.0 0.0 true true 0 ( 1400)]
] -66.7 MRshow
1.000 UL
LTb
0.00 0.00 0.00 C 0.500 UL
LTa
0.50 0.50 0.50 C 1674 820 M
0 3619 V
stroke
1.000 UL
LTb
0.00 0.00 0.00 C 1674 820 M
0 63 V
0 3556 R
0 -63 V
stroke
1674 620 M
[ [(Arial) 200.0 0.0 true true 0 (1)]
] -66.7 MCshow
1.000 UL
LTb
0.00 0.00 0.00 C 0.500 UL
LTa
0.50 0.50 0.50 C 2822 820 M
0 3619 V
stroke
1.000 UL
LTb
0.00 0.00 0.00 C 2822 820 M
0 63 V
0 3556 R
0 -63 V
stroke
2822 620 M
[ [(Arial) 200.0 0.0 true true 0 (2)]
] -66.7 MCshow
1.000 UL
LTb
0.00 0.00 0.00 C 0.500 UL
LTa
0.50 0.50 0.50 C 3970 820 M
0 3619 V
stroke
1.000 UL
LTb
0.00 0.00 0.00 C 3970 820 M
0 63 V
0 3556 R
0 -63 V
stroke
3970 620 M
[ [(Arial) 200.0 0.0 true true 0 (4)]
] -66.7 MCshow
1.000 UL
LTb
0.00 0.00 0.00 C 0.500 UL
LTa
0.50 0.50 0.50 C 5117 820 M
0 3619 V
stroke
1.000 UL
LTb
0.00 0.00 0.00 C 5117 820 M
0 63 V
0 3556 R
0 -63 V
stroke
5117 620 M
[ [(Arial) 200.0 0.0 true true 0 (8)]
] -66.7 MCshow
1.000 UL
LTb
0.00 0.00 0.00 C 0.500 UL
LTa
0.50 0.50 0.50 C 6265 820 M
0 3619 V
stroke
1.000 UL
LTb
0.00 0.00 0.00 C 6265 820 M
0 63 V
0 3556 R
0 -63 V
stroke
6265 620 M
[ [(Arial) 200.0 0.0 true true 0 (16)]
] -66.7 MCshow
1.000 UL
LTb
0.00 0.00 0.00 C 1.000 UL
LTB
0.00 0.00 0.00 C 1100 4439 M
0 -3619 V
5739 0 V
0 3619 R
-5739 0 R
1.000 UP
stroke
LTb
0.00 0.00 0.00 C LCb setrgbcolor
160 2629 M
currentpoint gsave translate -270 rotate 0 0 moveto
[ [(Arial) 200.0 0.0 true true 0 (RTT \(ms\))]
] -66.7 MCshow
grestore
LTb
LCb setrgbcolor
3969 320 M
[ [(Arial) 200.0 0.0 true true 0 (Flows #)]
] -66.7 MCshow
LTb
LCb setrgbcolor
3969 4739 M
[ [(Arial) 200.0 0.0 true true 0 (a\) RTT)]
] -66.7 MCshow
% Begin plot #1
1.000 UL
LTb
0.60 0.60 0.00 C LCb setrgbcolor
2714 153 M
[ [(Arial) 180.0 0.0 true true 0 (olsr)]
] -60.0 MRshow
1.000 UL
LTb
0.60 0.60 0.00 C 2822 108 333 90 80 -45 0 PatternFill
2822 108 N
333 0 V
0 90 V
-333 0 V
0 -90 V
Z stroke
1.000 UL
LTb
0.60 0.60 0.00 C 1215 1140 230 174 80 -45 0 PatternFill
1330 1075 M
0 65 V
0 174 R
0 150 V
stroke
1215 1140 N
230 0 V
0 174 V
-230 0 V
0 -174 V
Z stroke
1215 1464 M
230 0 V
1215 1075 M
230 0 V
stroke
2363 1126 230 357 80 -45 0 PatternFill
2478 1069 M
0 57 V
0 357 R
0 364 V
stroke
2363 1126 N
230 0 V
0 357 V
-230 0 V
0 -357 V
Z stroke
2363 1847 M
230 0 V
2363 1069 M
230 0 V
stroke
3510 1320 230 2061 80 -45 0 PatternFill
3625 1012 M
0 308 V
0 2061 R
0 801 V
stroke
3510 1320 N
230 0 V
0 2061 V
-230 0 V
0 -2061 V
Z stroke
3510 4182 M
230 0 V
3510 1012 M
230 0 V
stroke
4658 1170 230 1620 80 -45 0 PatternFill
4773 1022 M
0 148 V
0 1620 R
0 934 V
stroke
4658 1170 N
230 0 V
0 1620 V
-230 0 V
0 -1620 V
Z stroke
4658 3724 M
230 0 V
4658 1022 M
230 0 V
stroke
5806 1331 230 1825 80 -45 0 PatternFill
5921 1050 M
0 281 V
0 1825 R
0 1247 V
stroke
5806 1331 N
230 0 V
0 1825 V
-230 0 V
0 -1825 V
Z stroke
5806 4403 M
230 0 V
5806 1050 M
230 0 V
% End plot #1
% Begin plot #2
stroke
LTb
LCb setrgbcolor

 /TransparentPatterns true def
1215 1219 230 0 40 30 0 PatternFill
1330 1219 M
stroke
1215 1219 N
230 0 V
-230 0 V
Z stroke
1215 1219 M
230 0 V
-230 0 R
230 0 V
stroke

 /TransparentPatterns true def
2363 1307 230 0 40 30 0 PatternFill
2478 1307 M
stroke
2363 1307 N
230 0 V
-230 0 V
Z stroke
2363 1307 M
230 0 V
-230 0 R
230 0 V
stroke

 /TransparentPatterns true def
3510 2230 230 0 40 30 0 PatternFill
3625 2230 M
stroke
3510 2230 N
230 0 V
-230 0 V
Z stroke
3510 2230 M
230 0 V
-230 0 R
230 0 V
stroke

 /TransparentPatterns true def
4658 1834 230 0 40 30 0 PatternFill
4773 1834 M
stroke
4658 1834 N
230 0 V
-230 0 V
Z stroke
4658 1834 M
230 0 V
-230 0 R
230 0 V
stroke

 /TransparentPatterns true def
5806 2246 230 0 40 30 0 PatternFill
5921 2246 M
stroke
5806 2246 N
230 0 V
-230 0 V
Z stroke
5806 2246 M
230 0 V
-230 0 R
230 0 V
% End plot #2
% Begin plot #3
stroke
LTb
0.00 0.00 0.63 C LCb setrgbcolor
4127 153 M
[ [(Arial) 180.0 0.0 true true 0 (per-packet)]
] -60.0 MRshow
1.000 UL
LTb
0.00 0.00 0.63 C 4235 108 333 90 80 45 0 PatternFill
4235 108 N
333 0 V
0 90 V
-333 0 V
0 -90 V
Z stroke
1.000 UL
LTb
0.00 0.00 0.63 C 1559 1137 230 173 80 45 0 PatternFill
1674 1075 M
0 62 V
0 173 R
0 154 V
stroke
1559 1137 N
230 0 V
0 173 V
-230 0 V
0 -173 V
Z stroke
1559 1464 M
230 0 V
1559 1075 M
230 0 V
stroke
2707 1219 230 484 80 45 0 PatternFill
2822 1056 M
0 163 V
0 484 R
0 401 V
stroke
2707 1219 N
230 0 V
0 484 V
-230 0 V
0 -484 V
Z stroke
2707 2104 M
230 0 V
2707 1056 M
230 0 V
stroke
3855 1268 230 1670 80 45 0 PatternFill
3970 1013 M
0 255 V
0 1670 R
0 1398 V
stroke
3855 1268 N
230 0 V
0 1670 V
-230 0 V
0 -1670 V
Z stroke
3855 4336 M
230 0 V
3855 1013 M
230 0 V
stroke
5003 1161 230 1627 80 45 0 PatternFill
5118 1026 M
0 135 V
0 1627 R
0 1408 V
stroke
5003 1161 N
230 0 V
0 1627 V
-230 0 V
0 -1627 V
Z stroke
5003 4196 M
230 0 V
5003 1026 M
230 0 V
stroke
6150 1390 230 1354 80 45 0 PatternFill
6265 1020 M
0 370 V
0 1354 R
0 1545 V
stroke
6150 1390 N
230 0 V
0 1354 V
-230 0 V
0 -1354 V
Z stroke
6150 4289 M
230 0 V
6150 1020 M
230 0 V
% End plot #3
% Begin plot #4
stroke
LTb
LCb setrgbcolor

 /TransparentPatterns true def
1559 1217 230 0 80 -45 0 PatternFill
1674 1217 M
stroke
1559 1217 N
230 0 V
-230 0 V
Z stroke
1559 1217 M
230 0 V
-230 0 R
230 0 V
stroke

 /TransparentPatterns true def
2707 1468 230 0 80 -45 0 PatternFill
2822 1468 M
stroke
2707 1468 N
230 0 V
-230 0 V
Z stroke
2707 1468 M
230 0 V
-230 0 R
230 0 V
stroke

 /TransparentPatterns true def
3855 1996 230 0 80 -45 0 PatternFill
3970 1996 M
stroke
3855 1996 N
230 0 V
-230 0 V
Z stroke
3855 1996 M
230 0 V
-230 0 R
230 0 V
stroke

 /TransparentPatterns true def
5003 1862 230 0 80 -45 0 PatternFill
5118 1862 M
stroke
5003 1862 N
230 0 V
-230 0 V
Z stroke
5003 1862 M
230 0 V
-230 0 R
230 0 V
stroke

 /TransparentPatterns true def
6150 2142 230 0 80 -45 0 PatternFill
6265 2142 M
stroke
6150 2142 N
230 0 V
-230 0 V
Z stroke
6150 2142 M
230 0 V
-230 0 R
230 0 V
% End plot #4
% Begin plot #5
stroke
LTb
0.00 0.38 0.82 C LCb setrgbcolor
5540 153 M
[ [(Arial) 180.0 0.0 true true 0 (per-flow)]
] -60.0 MRshow
1.000 UL
LTb
0.00 0.38 0.82 C 5648 108 333 90 40 30 0 PatternFill
5648 108 N
333 0 V
0 90 V
-333 0 V
0 -90 V
Z stroke
1.000 UL
LTb
0.00 0.38 0.82 C 1903 1137 230 173 40 30 0 PatternFill
2018 1075 M
0 62 V
0 173 R
0 154 V
stroke
1903 1137 N
230 0 V
0 173 V
-230 0 V
0 -173 V
Z stroke
1903 1464 M
230 0 V
1903 1075 M
230 0 V
stroke
3051 1219 230 484 40 30 0 PatternFill
3166 1056 M
0 163 V
0 484 R
0 401 V
stroke
3051 1219 N
230 0 V
0 484 V
-230 0 V
0 -484 V
Z stroke
3051 2104 M
230 0 V
3051 1056 M
230 0 V
stroke
4199 1268 230 1670 40 30 0 PatternFill
4314 1013 M
0 255 V
0 1670 R
0 1398 V
stroke
4199 1268 N
230 0 V
0 1670 V
-230 0 V
0 -1670 V
Z stroke
4199 4336 M
230 0 V
4199 1013 M
230 0 V
stroke
5347 1259 230 1453 40 30 0 PatternFill
5462 1022 M
0 237 V
0 1453 R
0 1573 V
stroke
5347 1259 N
230 0 V
0 1453 V
-230 0 V
0 -1453 V
Z stroke
5347 4285 M
230 0 V
5347 1022 M
230 0 V
stroke
6495 1734 230 1950 40 30 0 PatternFill
6610 1016 M
0 718 V
0 1950 R
0 748 V
stroke
6495 1734 N
230 0 V
0 1950 V
-230 0 V
0 -1950 V
Z stroke
6495 4432 M
230 0 V
6495 1016 M
230 0 V
% End plot #5
% Begin plot #6
stroke
LTb
LCb setrgbcolor

 /TransparentPatterns true def
1903 1217 230 0 40 -30 0 PatternFill
2018 1217 M
stroke
1903 1217 N
230 0 V
-230 0 V
Z stroke
1903 1217 M
230 0 V
-230 0 R
230 0 V
stroke

 /TransparentPatterns true def
3051 1468 230 0 40 -30 0 PatternFill
3166 1468 M
stroke
3051 1468 N
230 0 V
-230 0 V
Z stroke
3051 1468 M
230 0 V
-230 0 R
230 0 V
stroke

 /TransparentPatterns true def
4199 1996 230 0 40 -30 0 PatternFill
4314 1996 M
stroke
4199 1996 N
230 0 V
-230 0 V
Z stroke
4199 1996 M
230 0 V
-230 0 R
230 0 V
stroke

 /TransparentPatterns true def
5347 2046 230 0 40 -30 0 PatternFill
5462 2046 M
stroke
5347 2046 N
230 0 V
-230 0 V
Z stroke
5347 2046 M
230 0 V
-230 0 R
230 0 V
stroke

 /TransparentPatterns true def
6495 2794 230 0 40 -30 0 PatternFill
6610 2794 M
stroke
6495 2794 N
230 0 V
-230 0 V
Z stroke
6495 2794 M
230 0 V
-230 0 R
230 0 V
% End plot #6
stroke
2.000 UL
LTb
LCb setrgbcolor
1.000 UP
1.000 UL
LTb
0.00 0.00 0.00 C 1.000 UL
LTb
0.00 0.00 0.00 C 0.500 UL
LTa
0.50 0.50 0.50 C 8060 820 M
5979 0 V
stroke
1.000 UL
LTb
0.00 0.00 0.00 C 8060 820 M
63 0 V
5916 0 R
-63 0 V
stroke
7940 820 M
[ [(Arial) 200.0 0.0 true true 0 ( 5)]
] -66.7 MRshow
1.000 UL
LTb
0.00 0.00 0.00 C 0.500 UL
LTa
0.50 0.50 0.50 C 8060 1222 M
5979 0 V
stroke
1.000 UL
LTb
0.00 0.00 0.00 C 8060 1222 M
63 0 V
5916 0 R
-63 0 V
stroke
7940 1222 M
[ [(Arial) 200.0 0.0 true true 0 ( 10)]
] -66.7 MRshow
1.000 UL
LTb
0.00 0.00 0.00 C 0.500 UL
LTa
0.50 0.50 0.50 C 8060 1624 M
5979 0 V
stroke
1.000 UL
LTb
0.00 0.00 0.00 C 8060 1624 M
63 0 V
5916 0 R
-63 0 V
stroke
7940 1624 M
[ [(Arial) 200.0 0.0 true true 0 ( 15)]
] -66.7 MRshow
1.000 UL
LTb
0.00 0.00 0.00 C 0.500 UL
LTa
0.50 0.50 0.50 C 8060 2026 M
5979 0 V
stroke
1.000 UL
LTb
0.00 0.00 0.00 C 8060 2026 M
63 0 V
5916 0 R
-63 0 V
stroke
7940 2026 M
[ [(Arial) 200.0 0.0 true true 0 ( 20)]
] -66.7 MRshow
1.000 UL
LTb
0.00 0.00 0.00 C 0.500 UL
LTa
0.50 0.50 0.50 C 8060 2428 M
5979 0 V
stroke
1.000 UL
LTb
0.00 0.00 0.00 C 8060 2428 M
63 0 V
5916 0 R
-63 0 V
stroke
7940 2428 M
[ [(Arial) 200.0 0.0 true true 0 ( 25)]
] -66.7 MRshow
1.000 UL
LTb
0.00 0.00 0.00 C 0.500 UL
LTa
0.50 0.50 0.50 C 8060 2831 M
5979 0 V
stroke
1.000 UL
LTb
0.00 0.00 0.00 C 8060 2831 M
63 0 V
5916 0 R
-63 0 V
stroke
7940 2831 M
[ [(Arial) 200.0 0.0 true true 0 ( 30)]
] -66.7 MRshow
1.000 UL
LTb
0.00 0.00 0.00 C 0.500 UL
LTa
0.50 0.50 0.50 C 8060 3233 M
5979 0 V
stroke
1.000 UL
LTb
0.00 0.00 0.00 C 8060 3233 M
63 0 V
5916 0 R
-63 0 V
stroke
7940 3233 M
[ [(Arial) 200.0 0.0 true true 0 ( 35)]
] -66.7 MRshow
1.000 UL
LTb
0.00 0.00 0.00 C 0.500 UL
LTa
0.50 0.50 0.50 C 8060 3635 M
5979 0 V
stroke
1.000 UL
LTb
0.00 0.00 0.00 C 8060 3635 M
63 0 V
5916 0 R
-63 0 V
stroke
7940 3635 M
[ [(Arial) 200.0 0.0 true true 0 ( 40)]
] -66.7 MRshow
1.000 UL
LTb
0.00 0.00 0.00 C 0.500 UL
LTa
0.50 0.50 0.50 C 8060 4037 M
5979 0 V
stroke
1.000 UL
LTb
0.00 0.00 0.00 C 8060 4037 M
63 0 V
5916 0 R
-63 0 V
stroke
7940 4037 M
[ [(Arial) 200.0 0.0 true true 0 ( 45)]
] -66.7 MRshow
1.000 UL
LTb
0.00 0.00 0.00 C 0.500 UL
LTa
0.50 0.50 0.50 C 8060 4439 M
5979 0 V
stroke
1.000 UL
LTb
0.00 0.00 0.00 C 8060 4439 M
63 0 V
5916 0 R
-63 0 V
stroke
7940 4439 M
[ [(Arial) 200.0 0.0 true true 0 ( 50)]
] -66.7 MRshow
1.000 UL
LTb
0.00 0.00 0.00 C 0.500 UL
LTa
0.50 0.50 0.50 C 8658 820 M
0 3619 V
stroke
1.000 UL
LTb
0.00 0.00 0.00 C 8658 820 M
0 63 V
0 3556 R
0 -63 V
stroke
8658 620 M
[ [(Arial) 200.0 0.0 true true 0 (1)]
] -66.7 MCshow
1.000 UL
LTb
0.00 0.00 0.00 C 0.500 UL
LTa
0.50 0.50 0.50 C 9854 820 M
0 3619 V
stroke
1.000 UL
LTb
0.00 0.00 0.00 C 9854 820 M
0 63 V
0 3556 R
0 -63 V
stroke
9854 620 M
[ [(Arial) 200.0 0.0 true true 0 (2)]
] -66.7 MCshow
1.000 UL
LTb
0.00 0.00 0.00 C 0.500 UL
LTa
0.50 0.50 0.50 C 11050 820 M
0 3619 V
stroke
1.000 UL
LTb
0.00 0.00 0.00 C 11050 820 M
0 63 V
0 3556 R
0 -63 V
stroke
11050 620 M
[ [(Arial) 200.0 0.0 true true 0 (4)]
] -66.7 MCshow
1.000 UL
LTb
0.00 0.00 0.00 C 0.500 UL
LTa
0.50 0.50 0.50 C 12245 820 M
0 3619 V
stroke
1.000 UL
LTb
0.00 0.00 0.00 C 12245 820 M
0 63 V
0 3556 R
0 -63 V
stroke
12245 620 M
[ [(Arial) 200.0 0.0 true true 0 (8)]
] -66.7 MCshow
1.000 UL
LTb
0.00 0.00 0.00 C 0.500 UL
LTa
0.50 0.50 0.50 C 13441 820 M
0 3619 V
stroke
1.000 UL
LTb
0.00 0.00 0.00 C 13441 820 M
0 63 V
0 3556 R
0 -63 V
stroke
13441 620 M
[ [(Arial) 200.0 0.0 true true 0 (16)]
] -66.7 MCshow
1.000 UL
LTb
0.00 0.00 0.00 C 1.000 UL
LTB
0.00 0.00 0.00 C 8060 4439 M
0 -3619 V
5979 0 V
0 3619 R
-5979 0 R
1.000 UP
stroke
LTb
0.00 0.00 0.00 C LCb setrgbcolor
7360 2629 M
currentpoint gsave translate -270 rotate 0 0 moveto
[ [(Arial) 200.0 0.0 true true 0 (File download time \(s\))]
] -66.7 MCshow
grestore
LTb
LCb setrgbcolor
11049 320 M
[ [(Arial) 200.0 0.0 true true 0 (Flows #)]
] -66.7 MCshow
LTb
LCb setrgbcolor
11049 4739 M
[ [(Arial) 200.0 0.0 true true 0 (b\) File download time)]
] -66.7 MCshow
% Begin plot #1
1.000 UL
LTb
0.60 0.60 0.00 C LCb setrgbcolor
9794 153 M
[ [(Arial) 180.0 0.0 true true 0 (olsr)]
] -60.0 MRshow
1.000 UL
LTb
0.60 0.60 0.00 C 9902 108 333 90 80 -45 0 PatternFill
9902 108 N
333 0 V
0 90 V
-333 0 V
0 -90 V
Z stroke
1.000 UL
LTb
0.60 0.60 0.00 C 8180 1866 240 0 80 -45 0 PatternFill
8300 1866 M
stroke
8180 1866 N
240 0 V
-240 0 V
Z stroke
8180 1866 M
240 0 V
-240 0 R
240 0 V
stroke
9375 1896 240 108 80 -45 0 PatternFill
9495 1861 M
0 35 V
0 108 R
0 35 V
stroke
9375 1896 N
240 0 V
0 108 V
-240 0 V
0 -108 V
Z stroke
9375 2039 M
240 0 V
9375 1861 M
240 0 V
stroke
10571 2235 240 221 80 -45 0 PatternFill
10691 2046 M
0 189 V
0 221 R
0 49 V
stroke
10571 2235 N
240 0 V
0 221 V
-240 0 V
0 -221 V
Z stroke
10571 2505 M
240 0 V
-240 -459 R
240 0 V
stroke
11767 2439 240 455 80 -45 0 PatternFill
11887 1110 M
0 1329 V
0 455 R
0 62 V
stroke
11767 2439 N
240 0 V
0 455 V
-240 0 V
0 -455 V
Z stroke
11767 2956 M
240 0 V
11767 1110 M
240 0 V
stroke
12963 2536 240 901 80 -45 0 PatternFill
13083 1131 M
0 1405 V
0 901 R
0 358 V
stroke
12963 2536 N
240 0 V
0 901 V
-240 0 V
0 -901 V
Z stroke
12963 3795 M
240 0 V
12963 1131 M
240 0 V
% End plot #1
% Begin plot #2
stroke
LTb
LCb setrgbcolor

 /TransparentPatterns true def
8180 1866 240 0 40 30 0 PatternFill
8300 1866 M
stroke
8180 1866 N
240 0 V
-240 0 V
Z stroke
8180 1866 M
240 0 V
-240 0 R
240 0 V
stroke

 /TransparentPatterns true def
9375 1950 240 0 40 30 0 PatternFill
9495 1950 M
stroke
9375 1950 N
240 0 V
-240 0 V
Z stroke
9375 1950 M
240 0 V
-240 0 R
240 0 V
stroke

 /TransparentPatterns true def
10571 2334 240 0 40 30 0 PatternFill
10691 2334 M
stroke
10571 2334 N
240 0 V
-240 0 V
Z stroke
10571 2334 M
240 0 V
-240 0 R
240 0 V
stroke

 /TransparentPatterns true def
11767 2550 240 0 40 30 0 PatternFill
11887 2550 M
stroke
11767 2550 N
240 0 V
-240 0 V
Z stroke
11767 2550 M
240 0 V
-240 0 R
240 0 V
stroke

 /TransparentPatterns true def
12963 2835 240 0 40 30 0 PatternFill
13083 2835 M
stroke
12963 2835 N
240 0 V
-240 0 V
Z stroke
12963 2835 M
240 0 V
-240 0 R
240 0 V
% End plot #2
% Begin plot #3
stroke
LTb
0.00 0.00 0.63 C LCb setrgbcolor
11207 153 M
[ [(Arial) 180.0 0.0 true true 0 (per-packet)]
] -60.0 MRshow
1.000 UL
LTb
0.00 0.00 0.63 C 11315 108 333 90 80 45 0 PatternFill
11315 108 N
333 0 V
0 90 V
-333 0 V
0 -90 V
Z stroke
1.000 UL
LTb
0.00 0.00 0.63 C 8538 1137 240 0 80 45 0 PatternFill
8658 1137 M
stroke
8538 1137 N
240 0 V
-240 0 V
Z stroke
8538 1137 M
240 0 V
-240 0 R
240 0 V
stroke
9734 1155 240 12 80 45 0 PatternFill
9854 1150 M
0 5 V
0 12 R
0 4 V
stroke
9734 1155 N
240 0 V
0 12 V
-240 0 V
0 -12 V
Z stroke
9734 1171 M
240 0 V
-240 -21 R
240 0 V
stroke
10930 1661 240 255 80 45 0 PatternFill
11050 1634 M
0 27 V
0 255 R
0 239 V
stroke
10930 1661 N
240 0 V
0 255 V
-240 0 V
0 -255 V
Z stroke
10930 2155 M
240 0 V
-240 -521 R
240 0 V
stroke
12126 1786 240 409 80 45 0 PatternFill
12246 1572 M
0 214 V
0 409 R
0 437 V
stroke
12126 1786 N
240 0 V
0 409 V
-240 0 V
0 -409 V
Z stroke
12126 2632 M
240 0 V
12126 1572 M
240 0 V
stroke
13322 2278 240 565 80 45 0 PatternFill
13442 1851 M
0 427 V
0 565 R
0 294 V
stroke
13322 2278 N
240 0 V
0 565 V
-240 0 V
0 -565 V
Z stroke
13322 3137 M
240 0 V
13322 1851 M
240 0 V
% End plot #3
% Begin plot #4
stroke
LTb
LCb setrgbcolor

 /TransparentPatterns true def
8538 1137 240 0 80 -45 0 PatternFill
8658 1137 M
stroke
8538 1137 N
240 0 V
-240 0 V
Z stroke
8538 1137 M
240 0 V
-240 0 R
240 0 V
stroke

 /TransparentPatterns true def
9734 1161 240 0 80 -45 0 PatternFill
9854 1161 M
stroke
9734 1161 N
240 0 V
-240 0 V
Z stroke
9734 1161 M
240 0 V
-240 0 R
240 0 V
stroke

 /TransparentPatterns true def
10930 1806 240 0 80 -45 0 PatternFill
11050 1806 M
stroke
10930 1806 N
240 0 V
-240 0 V
Z stroke
10930 1806 M
240 0 V
-240 0 R
240 0 V
stroke

 /TransparentPatterns true def
12126 2030 240 0 80 -45 0 PatternFill
12246 2030 M
stroke
12126 2030 N
240 0 V
-240 0 V
Z stroke
12126 2030 M
240 0 V
-240 0 R
240 0 V
stroke

 /TransparentPatterns true def
13322 2571 240 0 80 -45 0 PatternFill
13442 2571 M
stroke
13322 2571 N
240 0 V
-240 0 V
Z stroke
13322 2571 M
240 0 V
-240 0 R
240 0 V
% End plot #4
% Begin plot #5
stroke
LTb
0.00 0.38 0.82 C LCb setrgbcolor
12620 153 M
[ [(Arial) 180.0 0.0 true true 0 (per-flow)]
] -60.0 MRshow
1.000 UL
LTb
0.00 0.38 0.82 C 12728 108 333 90 40 30 0 PatternFill
12728 108 N
333 0 V
0 90 V
-333 0 V
0 -90 V
Z stroke
1.000 UL
LTb
0.00 0.38 0.82 C 8897 1137 240 0 40 30 0 PatternFill
9017 1137 M
stroke
8897 1137 N
240 0 V
-240 0 V
Z stroke
8897 1137 M
240 0 V
-240 0 R
240 0 V
stroke
10093 1155 240 12 40 30 0 PatternFill
10213 1150 M
0 5 V
0 12 R
0 4 V
stroke
10093 1155 N
240 0 V
0 12 V
-240 0 V
0 -12 V
Z stroke
10093 1171 M
240 0 V
-240 -21 R
240 0 V
stroke
11289 1661 240 255 40 30 0 PatternFill
11409 1634 M
0 27 V
0 255 R
0 239 V
stroke
11289 1661 N
240 0 V
0 255 V
-240 0 V
0 -255 V
Z stroke
11289 2155 M
240 0 V
-240 -521 R
240 0 V
stroke
12484 2125 240 150 40 30 0 PatternFill
12604 1496 M
0 629 V
0 150 R
0 105 V
stroke
12484 2125 N
240 0 V
0 150 V
-240 0 V
0 -150 V
Z stroke
12484 2380 M
240 0 V
-240 -884 R
240 0 V
stroke
13680 2225 240 1080 40 30 0 PatternFill
13800 1989 M
0 236 V
0 1080 R
0 825 V
stroke
13680 2225 N
240 0 V
0 1080 V
-240 0 V
0 -1080 V
Z stroke
13680 4130 M
240 0 V
13680 1989 M
240 0 V
% End plot #5
% Begin plot #6
stroke
LTb
LCb setrgbcolor

 /TransparentPatterns true def
8897 1137 240 0 40 -30 0 PatternFill
9017 1137 M
stroke
8897 1137 N
240 0 V
-240 0 V
Z stroke
8897 1137 M
240 0 V
-240 0 R
240 0 V
stroke

 /TransparentPatterns true def
10093 1161 240 0 40 -30 0 PatternFill
10213 1161 M
stroke
10093 1161 N
240 0 V
-240 0 V
Z stroke
10093 1161 M
240 0 V
-240 0 R
240 0 V
stroke

 /TransparentPatterns true def
11289 1806 240 0 40 -30 0 PatternFill
11409 1806 M
stroke
11289 1806 N
240 0 V
-240 0 V
Z stroke
11289 1806 M
240 0 V
-240 0 R
240 0 V
stroke

 /TransparentPatterns true def
12484 2122 240 0 40 -30 0 PatternFill
12604 2122 M
stroke
12484 2122 N
240 0 V
-240 0 V
Z stroke
12484 2122 M
240 0 V
-240 0 R
240 0 V
stroke

 /TransparentPatterns true def
13680 2905 240 0 40 -30 0 PatternFill
13800 2905 M
stroke
13680 2905 N
240 0 V
-240 0 V
Z stroke
13680 2905 M
240 0 V
-240 0 R
240 0 V
% End plot #6
stroke
2.000 UL
LTb
LCb setrgbcolor
1.000 UP
1.000 UL
LTb
0.00 0.00 0.00 C stroke
grestore
end
showpage
%%Trailer
%%DocumentFonts: Arial
