%!PS-Adobe-2.0 EPSF-2.0
%%Title: TcpCubic-10M-ss-1Mbps-UE-increase.eps
%%Creator: gnuplot 5.0 patchlevel 3
%%CreationDate: Fri Jul 15 15:45:04 2016
%%DocumentFonts: (atend)
%%BoundingBox: 50 50 770 302
%%EndComments
%%BeginProlog
/gnudict 256 dict def
gnudict begin
%
% The following true/false flags may be edited by hand if desired.
% The unit line width and grayscale image gamma correction may also be changed.
%
/Color true def
/Blacktext false def
/Solid false def
/Dashlength 3 def
/Landscape false def
/Level1 false def
/Level3 false def
/Rounded false def
/ClipToBoundingBox false def
/SuppressPDFMark false def
/TransparentPatterns false def
/gnulinewidth 15.000 def
/userlinewidth gnulinewidth def
/Gamma 1.0 def
/BackgroundColor {-1.000 -1.000 -1.000} def
%
/vshift -66 def
/dl1 {
  10.0 Dashlength userlinewidth gnulinewidth div mul mul mul
  Rounded { currentlinewidth 0.75 mul sub dup 0 le { pop 0.01 } if } if
} def
/dl2 {
  10.0 Dashlength userlinewidth gnulinewidth div mul mul mul
  Rounded { currentlinewidth 0.75 mul add } if
} def
/hpt_ 31.5 def
/vpt_ 31.5 def
/hpt hpt_ def
/vpt vpt_ def
/doclip {
  ClipToBoundingBox {
    newpath 50 50 moveto 770 50 lineto 770 302 lineto 50 302 lineto closepath
    clip
  } if
} def
%
% Gnuplot Prolog Version 5.1 (Oct 2015)
%
%/SuppressPDFMark true def
%
/M {moveto} bind def
/L {lineto} bind def
/R {rmoveto} bind def
/V {rlineto} bind def
/N {newpath moveto} bind def
/Z {closepath} bind def
/C {setrgbcolor} bind def
/f {rlineto fill} bind def
/g {setgray} bind def
/Gshow {show} def   % May be redefined later in the file to support UTF-8
/vpt2 vpt 2 mul def
/hpt2 hpt 2 mul def
/Lshow {currentpoint stroke M 0 vshift R 
	Blacktext {gsave 0 setgray textshow grestore} {textshow} ifelse} def
/Rshow {currentpoint stroke M dup stringwidth pop neg vshift R
	Blacktext {gsave 0 setgray textshow grestore} {textshow} ifelse} def
/Cshow {currentpoint stroke M dup stringwidth pop -2 div vshift R 
	Blacktext {gsave 0 setgray textshow grestore} {textshow} ifelse} def
/UP {dup vpt_ mul /vpt exch def hpt_ mul /hpt exch def
  /hpt2 hpt 2 mul def /vpt2 vpt 2 mul def} def
/DL {Color {setrgbcolor Solid {pop []} if 0 setdash}
 {pop pop pop 0 setgray Solid {pop []} if 0 setdash} ifelse} def
/BL {stroke userlinewidth 2 mul setlinewidth
	Rounded {1 setlinejoin 1 setlinecap} if} def
/AL {stroke userlinewidth 2 div setlinewidth
	Rounded {1 setlinejoin 1 setlinecap} if} def
/UL {dup gnulinewidth mul /userlinewidth exch def
	dup 1 lt {pop 1} if 10 mul /udl exch def} def
/PL {stroke userlinewidth setlinewidth
	Rounded {1 setlinejoin 1 setlinecap} if} def
3.8 setmiterlimit
% Classic Line colors (version 5.0)
/LCw {1 1 1} def
/LCb {0 0 0} def
/LCa {0 0 0} def
/LC0 {1 0 0} def
/LC1 {0 1 0} def
/LC2 {0 0 1} def
/LC3 {1 0 1} def
/LC4 {0 1 1} def
/LC5 {1 1 0} def
/LC6 {0 0 0} def
/LC7 {1 0.3 0} def
/LC8 {0.5 0.5 0.5} def
% Default dash patterns (version 5.0)
/LTB {BL [] LCb DL} def
/LTw {PL [] 1 setgray} def
/LTb {PL [] LCb DL} def
/LTa {AL [1 udl mul 2 udl mul] 0 setdash LCa setrgbcolor} def
/LT0 {PL [] LC0 DL} def
/LT1 {PL [2 dl1 3 dl2] LC1 DL} def
/LT2 {PL [1 dl1 1.5 dl2] LC2 DL} def
/LT3 {PL [6 dl1 2 dl2 1 dl1 2 dl2] LC3 DL} def
/LT4 {PL [1 dl1 2 dl2 6 dl1 2 dl2 1 dl1 2 dl2] LC4 DL} def
/LT5 {PL [4 dl1 2 dl2] LC5 DL} def
/LT6 {PL [1.5 dl1 1.5 dl2 1.5 dl1 1.5 dl2 1.5 dl1 6 dl2] LC6 DL} def
/LT7 {PL [3 dl1 3 dl2 1 dl1 3 dl2] LC7 DL} def
/LT8 {PL [2 dl1 2 dl2 2 dl1 6 dl2] LC8 DL} def
/SL {[] 0 setdash} def
/Pnt {stroke [] 0 setdash gsave 1 setlinecap M 0 0 V stroke grestore} def
/Dia {stroke [] 0 setdash 2 copy vpt add M
  hpt neg vpt neg V hpt vpt neg V
  hpt vpt V hpt neg vpt V closepath stroke
  Pnt} def
/Pls {stroke [] 0 setdash vpt sub M 0 vpt2 V
  currentpoint stroke M
  hpt neg vpt neg R hpt2 0 V stroke
 } def
/Box {stroke [] 0 setdash 2 copy exch hpt sub exch vpt add M
  0 vpt2 neg V hpt2 0 V 0 vpt2 V
  hpt2 neg 0 V closepath stroke
  Pnt} def
/Crs {stroke [] 0 setdash exch hpt sub exch vpt add M
  hpt2 vpt2 neg V currentpoint stroke M
  hpt2 neg 0 R hpt2 vpt2 V stroke} def
/TriU {stroke [] 0 setdash 2 copy vpt 1.12 mul add M
  hpt neg vpt -1.62 mul V
  hpt 2 mul 0 V
  hpt neg vpt 1.62 mul V closepath stroke
  Pnt} def
/Star {2 copy Pls Crs} def
/BoxF {stroke [] 0 setdash exch hpt sub exch vpt add M
  0 vpt2 neg V hpt2 0 V 0 vpt2 V
  hpt2 neg 0 V closepath fill} def
/TriUF {stroke [] 0 setdash vpt 1.12 mul add M
  hpt neg vpt -1.62 mul V
  hpt 2 mul 0 V
  hpt neg vpt 1.62 mul V closepath fill} def
/TriD {stroke [] 0 setdash 2 copy vpt 1.12 mul sub M
  hpt neg vpt 1.62 mul V
  hpt 2 mul 0 V
  hpt neg vpt -1.62 mul V closepath stroke
  Pnt} def
/TriDF {stroke [] 0 setdash vpt 1.12 mul sub M
  hpt neg vpt 1.62 mul V
  hpt 2 mul 0 V
  hpt neg vpt -1.62 mul V closepath fill} def
/DiaF {stroke [] 0 setdash vpt add M
  hpt neg vpt neg V hpt vpt neg V
  hpt vpt V hpt neg vpt V closepath fill} def
/Pent {stroke [] 0 setdash 2 copy gsave
  translate 0 hpt M 4 {72 rotate 0 hpt L} repeat
  closepath stroke grestore Pnt} def
/PentF {stroke [] 0 setdash gsave
  translate 0 hpt M 4 {72 rotate 0 hpt L} repeat
  closepath fill grestore} def
/Circle {stroke [] 0 setdash 2 copy
  hpt 0 360 arc stroke Pnt} def
/CircleF {stroke [] 0 setdash hpt 0 360 arc fill} def
/C0 {BL [] 0 setdash 2 copy moveto vpt 90 450 arc} bind def
/C1 {BL [] 0 setdash 2 copy moveto
	2 copy vpt 0 90 arc closepath fill
	vpt 0 360 arc closepath} bind def
/C2 {BL [] 0 setdash 2 copy moveto
	2 copy vpt 90 180 arc closepath fill
	vpt 0 360 arc closepath} bind def
/C3 {BL [] 0 setdash 2 copy moveto
	2 copy vpt 0 180 arc closepath fill
	vpt 0 360 arc closepath} bind def
/C4 {BL [] 0 setdash 2 copy moveto
	2 copy vpt 180 270 arc closepath fill
	vpt 0 360 arc closepath} bind def
/C5 {BL [] 0 setdash 2 copy moveto
	2 copy vpt 0 90 arc
	2 copy moveto
	2 copy vpt 180 270 arc closepath fill
	vpt 0 360 arc} bind def
/C6 {BL [] 0 setdash 2 copy moveto
	2 copy vpt 90 270 arc closepath fill
	vpt 0 360 arc closepath} bind def
/C7 {BL [] 0 setdash 2 copy moveto
	2 copy vpt 0 270 arc closepath fill
	vpt 0 360 arc closepath} bind def
/C8 {BL [] 0 setdash 2 copy moveto
	2 copy vpt 270 360 arc closepath fill
	vpt 0 360 arc closepath} bind def
/C9 {BL [] 0 setdash 2 copy moveto
	2 copy vpt 270 450 arc closepath fill
	vpt 0 360 arc closepath} bind def
/C10 {BL [] 0 setdash 2 copy 2 copy moveto vpt 270 360 arc closepath fill
	2 copy moveto
	2 copy vpt 90 180 arc closepath fill
	vpt 0 360 arc closepath} bind def
/C11 {BL [] 0 setdash 2 copy moveto
	2 copy vpt 0 180 arc closepath fill
	2 copy moveto
	2 copy vpt 270 360 arc closepath fill
	vpt 0 360 arc closepath} bind def
/C12 {BL [] 0 setdash 2 copy moveto
	2 copy vpt 180 360 arc closepath fill
	vpt 0 360 arc closepath} bind def
/C13 {BL [] 0 setdash 2 copy moveto
	2 copy vpt 0 90 arc closepath fill
	2 copy moveto
	2 copy vpt 180 360 arc closepath fill
	vpt 0 360 arc closepath} bind def
/C14 {BL [] 0 setdash 2 copy moveto
	2 copy vpt 90 360 arc closepath fill
	vpt 0 360 arc} bind def
/C15 {BL [] 0 setdash 2 copy vpt 0 360 arc closepath fill
	vpt 0 360 arc closepath} bind def
/Rec {newpath 4 2 roll moveto 1 index 0 rlineto 0 exch rlineto
	neg 0 rlineto closepath} bind def
/Square {dup Rec} bind def
/Bsquare {vpt sub exch vpt sub exch vpt2 Square} bind def
/S0 {BL [] 0 setdash 2 copy moveto 0 vpt rlineto BL Bsquare} bind def
/S1 {BL [] 0 setdash 2 copy vpt Square fill Bsquare} bind def
/S2 {BL [] 0 setdash 2 copy exch vpt sub exch vpt Square fill Bsquare} bind def
/S3 {BL [] 0 setdash 2 copy exch vpt sub exch vpt2 vpt Rec fill Bsquare} bind def
/S4 {BL [] 0 setdash 2 copy exch vpt sub exch vpt sub vpt Square fill Bsquare} bind def
/S5 {BL [] 0 setdash 2 copy 2 copy vpt Square fill
	exch vpt sub exch vpt sub vpt Square fill Bsquare} bind def
/S6 {BL [] 0 setdash 2 copy exch vpt sub exch vpt sub vpt vpt2 Rec fill Bsquare} bind def
/S7 {BL [] 0 setdash 2 copy exch vpt sub exch vpt sub vpt vpt2 Rec fill
	2 copy vpt Square fill Bsquare} bind def
/S8 {BL [] 0 setdash 2 copy vpt sub vpt Square fill Bsquare} bind def
/S9 {BL [] 0 setdash 2 copy vpt sub vpt vpt2 Rec fill Bsquare} bind def
/S10 {BL [] 0 setdash 2 copy vpt sub vpt Square fill 2 copy exch vpt sub exch vpt Square fill
	Bsquare} bind def
/S11 {BL [] 0 setdash 2 copy vpt sub vpt Square fill 2 copy exch vpt sub exch vpt2 vpt Rec fill
	Bsquare} bind def
/S12 {BL [] 0 setdash 2 copy exch vpt sub exch vpt sub vpt2 vpt Rec fill Bsquare} bind def
/S13 {BL [] 0 setdash 2 copy exch vpt sub exch vpt sub vpt2 vpt Rec fill
	2 copy vpt Square fill Bsquare} bind def
/S14 {BL [] 0 setdash 2 copy exch vpt sub exch vpt sub vpt2 vpt Rec fill
	2 copy exch vpt sub exch vpt Square fill Bsquare} bind def
/S15 {BL [] 0 setdash 2 copy Bsquare fill Bsquare} bind def
/D0 {gsave translate 45 rotate 0 0 S0 stroke grestore} bind def
/D1 {gsave translate 45 rotate 0 0 S1 stroke grestore} bind def
/D2 {gsave translate 45 rotate 0 0 S2 stroke grestore} bind def
/D3 {gsave translate 45 rotate 0 0 S3 stroke grestore} bind def
/D4 {gsave translate 45 rotate 0 0 S4 stroke grestore} bind def
/D5 {gsave translate 45 rotate 0 0 S5 stroke grestore} bind def
/D6 {gsave translate 45 rotate 0 0 S6 stroke grestore} bind def
/D7 {gsave translate 45 rotate 0 0 S7 stroke grestore} bind def
/D8 {gsave translate 45 rotate 0 0 S8 stroke grestore} bind def
/D9 {gsave translate 45 rotate 0 0 S9 stroke grestore} bind def
/D10 {gsave translate 45 rotate 0 0 S10 stroke grestore} bind def
/D11 {gsave translate 45 rotate 0 0 S11 stroke grestore} bind def
/D12 {gsave translate 45 rotate 0 0 S12 stroke grestore} bind def
/D13 {gsave translate 45 rotate 0 0 S13 stroke grestore} bind def
/D14 {gsave translate 45 rotate 0 0 S14 stroke grestore} bind def
/D15 {gsave translate 45 rotate 0 0 S15 stroke grestore} bind def
/DiaE {stroke [] 0 setdash vpt add M
  hpt neg vpt neg V hpt vpt neg V
  hpt vpt V hpt neg vpt V closepath stroke} def
/BoxE {stroke [] 0 setdash exch hpt sub exch vpt add M
  0 vpt2 neg V hpt2 0 V 0 vpt2 V
  hpt2 neg 0 V closepath stroke} def
/TriUE {stroke [] 0 setdash vpt 1.12 mul add M
  hpt neg vpt -1.62 mul V
  hpt 2 mul 0 V
  hpt neg vpt 1.62 mul V closepath stroke} def
/TriDE {stroke [] 0 setdash vpt 1.12 mul sub M
  hpt neg vpt 1.62 mul V
  hpt 2 mul 0 V
  hpt neg vpt -1.62 mul V closepath stroke} def
/PentE {stroke [] 0 setdash gsave
  translate 0 hpt M 4 {72 rotate 0 hpt L} repeat
  closepath stroke grestore} def
/CircE {stroke [] 0 setdash 
  hpt 0 360 arc stroke} def
/Opaque {gsave closepath 1 setgray fill grestore 0 setgray closepath} def
/DiaW {stroke [] 0 setdash vpt add M
  hpt neg vpt neg V hpt vpt neg V
  hpt vpt V hpt neg vpt V Opaque stroke} def
/BoxW {stroke [] 0 setdash exch hpt sub exch vpt add M
  0 vpt2 neg V hpt2 0 V 0 vpt2 V
  hpt2 neg 0 V Opaque stroke} def
/TriUW {stroke [] 0 setdash vpt 1.12 mul add M
  hpt neg vpt -1.62 mul V
  hpt 2 mul 0 V
  hpt neg vpt 1.62 mul V Opaque stroke} def
/TriDW {stroke [] 0 setdash vpt 1.12 mul sub M
  hpt neg vpt 1.62 mul V
  hpt 2 mul 0 V
  hpt neg vpt -1.62 mul V Opaque stroke} def
/PentW {stroke [] 0 setdash gsave
  translate 0 hpt M 4 {72 rotate 0 hpt L} repeat
  Opaque stroke grestore} def
/CircW {stroke [] 0 setdash 
  hpt 0 360 arc Opaque stroke} def
/BoxFill {gsave Rec 1 setgray fill grestore} def
/Density {
  /Fillden exch def
  currentrgbcolor
  /ColB exch def /ColG exch def /ColR exch def
  /ColR ColR Fillden mul Fillden sub 1 add def
  /ColG ColG Fillden mul Fillden sub 1 add def
  /ColB ColB Fillden mul Fillden sub 1 add def
  ColR ColG ColB setrgbcolor} def
/BoxColFill {gsave Rec PolyFill} def
/PolyFill {gsave Density fill grestore grestore} def
/h {rlineto rlineto rlineto gsave closepath fill grestore} bind def
%
% PostScript Level 1 Pattern Fill routine for rectangles
% Usage: x y w h s a XX PatternFill
%	x,y = lower left corner of box to be filled
%	w,h = width and height of box
%	  a = angle in degrees between lines and x-axis
%	 XX = 0/1 for no/yes cross-hatch
%
/PatternFill {gsave /PFa [ 9 2 roll ] def
  PFa 0 get PFa 2 get 2 div add PFa 1 get PFa 3 get 2 div add translate
  PFa 2 get -2 div PFa 3 get -2 div PFa 2 get PFa 3 get Rec
  TransparentPatterns {} {gsave 1 setgray fill grestore} ifelse
  clip
  currentlinewidth 0.5 mul setlinewidth
  /PFs PFa 2 get dup mul PFa 3 get dup mul add sqrt def
  0 0 M PFa 5 get rotate PFs -2 div dup translate
  0 1 PFs PFa 4 get div 1 add floor cvi
	{PFa 4 get mul 0 M 0 PFs V} for
  0 PFa 6 get ne {
	0 1 PFs PFa 4 get div 1 add floor cvi
	{PFa 4 get mul 0 2 1 roll M PFs 0 V} for
 } if
  stroke grestore} def
%
/languagelevel where
 {pop languagelevel} {1} ifelse
dup 2 lt
	{/InterpretLevel1 true def
	 /InterpretLevel3 false def}
	{/InterpretLevel1 Level1 def
	 2 gt
	    {/InterpretLevel3 Level3 def}
	    {/InterpretLevel3 false def}
	 ifelse }
 ifelse
%
% PostScript level 2 pattern fill definitions
%
/Level2PatternFill {
/Tile8x8 {/PaintType 2 /PatternType 1 /TilingType 1 /BBox [0 0 8 8] /XStep 8 /YStep 8}
	bind def
/KeepColor {currentrgbcolor [/Pattern /DeviceRGB] setcolorspace} bind def
<< Tile8x8
 /PaintProc {0.5 setlinewidth pop 0 0 M 8 8 L 0 8 M 8 0 L stroke} 
>> matrix makepattern
/Pat1 exch def
<< Tile8x8
 /PaintProc {0.5 setlinewidth pop 0 0 M 8 8 L 0 8 M 8 0 L stroke
	0 4 M 4 8 L 8 4 L 4 0 L 0 4 L stroke}
>> matrix makepattern
/Pat2 exch def
<< Tile8x8
 /PaintProc {0.5 setlinewidth pop 0 0 M 0 8 L
	8 8 L 8 0 L 0 0 L fill}
>> matrix makepattern
/Pat3 exch def
<< Tile8x8
 /PaintProc {0.5 setlinewidth pop -4 8 M 8 -4 L
	0 12 M 12 0 L stroke}
>> matrix makepattern
/Pat4 exch def
<< Tile8x8
 /PaintProc {0.5 setlinewidth pop -4 0 M 8 12 L
	0 -4 M 12 8 L stroke}
>> matrix makepattern
/Pat5 exch def
<< Tile8x8
 /PaintProc {0.5 setlinewidth pop -2 8 M 4 -4 L
	0 12 M 8 -4 L 4 12 M 10 0 L stroke}
>> matrix makepattern
/Pat6 exch def
<< Tile8x8
 /PaintProc {0.5 setlinewidth pop -2 0 M 4 12 L
	0 -4 M 8 12 L 4 -4 M 10 8 L stroke}
>> matrix makepattern
/Pat7 exch def
<< Tile8x8
 /PaintProc {0.5 setlinewidth pop 8 -2 M -4 4 L
	12 0 M -4 8 L 12 4 M 0 10 L stroke}
>> matrix makepattern
/Pat8 exch def
<< Tile8x8
 /PaintProc {0.5 setlinewidth pop 0 -2 M 12 4 L
	-4 0 M 12 8 L -4 4 M 8 10 L stroke}
>> matrix makepattern
/Pat9 exch def
/Pattern1 {PatternBgnd KeepColor Pat1 setpattern} bind def
/Pattern2 {PatternBgnd KeepColor Pat2 setpattern} bind def
/Pattern3 {PatternBgnd KeepColor Pat3 setpattern} bind def
/Pattern4 {PatternBgnd KeepColor Landscape {Pat5} {Pat4} ifelse setpattern} bind def
/Pattern5 {PatternBgnd KeepColor Landscape {Pat4} {Pat5} ifelse setpattern} bind def
/Pattern6 {PatternBgnd KeepColor Landscape {Pat9} {Pat6} ifelse setpattern} bind def
/Pattern7 {PatternBgnd KeepColor Landscape {Pat8} {Pat7} ifelse setpattern} bind def
} def
%
%
%End of PostScript Level 2 code
%
/PatternBgnd {
  TransparentPatterns {} {gsave 1 setgray fill grestore} ifelse
} def
%
% Substitute for Level 2 pattern fill codes with
% grayscale if Level 2 support is not selected.
%
/Level1PatternFill {
/Pattern1 {0.250 Density} bind def
/Pattern2 {0.500 Density} bind def
/Pattern3 {0.750 Density} bind def
/Pattern4 {0.125 Density} bind def
/Pattern5 {0.375 Density} bind def
/Pattern6 {0.625 Density} bind def
/Pattern7 {0.875 Density} bind def
} def
%
% Now test for support of Level 2 code
%
Level1 {Level1PatternFill} {Level2PatternFill} ifelse
%
/Symbol-Oblique /Symbol findfont [1 0 .167 1 0 0] makefont
dup length dict begin {1 index /FID eq {pop pop} {def} ifelse} forall
currentdict end definefont pop
%
/MFshow {
   { dup 5 get 3 ge
     { 5 get 3 eq {gsave} {grestore} ifelse }
     {dup dup 0 get findfont exch 1 get scalefont setfont
     [ currentpoint ] exch dup 2 get 0 exch R dup 5 get 2 ne {dup dup 6
     get exch 4 get {textshow} {stringwidth pop 0 R} ifelse }if dup 5 get 0 eq
     {dup 3 get {2 get neg 0 exch R pop} {pop aload pop M} ifelse} {dup 5
     get 1 eq {dup 2 get exch dup 3 get exch 6 get stringwidth pop -2 div
     dup 0 R} {dup 6 get stringwidth pop -2 div 0 R 6 get
     textshow 2 index {aload pop M neg 3 -1 roll neg R pop pop} {pop pop pop
     pop aload pop M} ifelse }ifelse }ifelse }
     ifelse }
   forall} def
/Gswidth {dup type /stringtype eq {stringwidth} {pop (n) stringwidth} ifelse} def
/MFwidth {0 exch { dup 5 get 3 ge { 5 get 3 eq { 0 } { pop } ifelse }
 {dup 3 get{dup dup 0 get findfont exch 1 get scalefont setfont
     6 get Gswidth pop add} {pop} ifelse} ifelse} forall} def
/MLshow { currentpoint stroke M
  0 exch R
  Blacktext {gsave 0 setgray MFshow grestore} {MFshow} ifelse } bind def
/MRshow { currentpoint stroke M
  exch dup MFwidth neg 3 -1 roll R
  Blacktext {gsave 0 setgray MFshow grestore} {MFshow} ifelse } bind def
/MCshow { currentpoint stroke M
  exch dup MFwidth -2 div 3 -1 roll R
  Blacktext {gsave 0 setgray MFshow grestore} {MFshow} ifelse } bind def
/XYsave    { [( ) 1 2 true false 3 ()] } bind def
/XYrestore { [( ) 1 2 true false 4 ()] } bind def
Level1 SuppressPDFMark or 
{} {
/SDict 10 dict def
systemdict /pdfmark known not {
  userdict /pdfmark systemdict /cleartomark get put
} if
SDict begin [
  /Title (TcpCubic-10M-ss-1Mbps-UE-increase.eps)
  /Subject (gnuplot plot)
  /Creator (gnuplot 5.0 patchlevel 3)
  /Author (nat)
%  /Producer (gnuplot)
%  /Keywords ()
  /CreationDate (Fri Jul 15 15:45:04 2016)
  /DOCINFO pdfmark
end
} ifelse
%
% Support for boxed text - Ethan A Merritt May 2005
%
/InitTextBox { userdict /TBy2 3 -1 roll put userdict /TBx2 3 -1 roll put
           userdict /TBy1 3 -1 roll put userdict /TBx1 3 -1 roll put
	   /Boxing true def } def
/ExtendTextBox { Boxing
    { gsave dup false charpath pathbbox
      dup TBy2 gt {userdict /TBy2 3 -1 roll put} {pop} ifelse
      dup TBx2 gt {userdict /TBx2 3 -1 roll put} {pop} ifelse
      dup TBy1 lt {userdict /TBy1 3 -1 roll put} {pop} ifelse
      dup TBx1 lt {userdict /TBx1 3 -1 roll put} {pop} ifelse
      grestore } if } def
/PopTextBox { newpath TBx1 TBxmargin sub TBy1 TBymargin sub M
               TBx1 TBxmargin sub TBy2 TBymargin add L
	       TBx2 TBxmargin add TBy2 TBymargin add L
	       TBx2 TBxmargin add TBy1 TBymargin sub L closepath } def
/DrawTextBox { PopTextBox stroke /Boxing false def} def
/FillTextBox { gsave PopTextBox 1 1 1 setrgbcolor fill grestore /Boxing false def} def
0 0 0 0 InitTextBox
/TBxmargin 20 def
/TBymargin 20 def
/Boxing false def
/textshow { ExtendTextBox Gshow } def
%
% redundant definitions for compatibility with prologue.ps older than 5.0.2
/LTB {BL [] LCb DL} def
/LTb {PL [] LCb DL} def
end
%%EndProlog
%%Page: 1 1
gnudict begin
gsave
doclip
50 50 translate
0.050 0.050 scale
0 setgray
newpath
(Arial) findfont 200 scalefont setfont
BackgroundColor 0 lt 3 1 roll 0 lt exch 0 lt or or not {BackgroundColor C 1.000 0 0 14400.00 5040.00 BoxColFill} if
1.000 UL
LTb
0.00 0.00 0.00 C 0.500 UL
LTa
0.50 0.50 0.50 C 1100 820 M
5739 0 V
stroke
1.000 UL
LTb
0.00 0.00 0.00 C 1100 820 M
63 0 V
5676 0 R
-63 0 V
stroke
980 820 M
[ [(Arial) 200.0 0.0 true true 0 ( 700)]
] -66.7 MRshow
1.000 UL
LTb
0.00 0.00 0.00 C 0.500 UL
LTa
0.50 0.50 0.50 C 1100 1272 M
5739 0 V
stroke
1.000 UL
LTb
0.00 0.00 0.00 C 1100 1272 M
63 0 V
5676 0 R
-63 0 V
stroke
980 1272 M
[ [(Arial) 200.0 0.0 true true 0 ( 800)]
] -66.7 MRshow
1.000 UL
LTb
0.00 0.00 0.00 C 0.500 UL
LTa
0.50 0.50 0.50 C 1100 1725 M
5739 0 V
stroke
1.000 UL
LTb
0.00 0.00 0.00 C 1100 1725 M
63 0 V
5676 0 R
-63 0 V
stroke
980 1725 M
[ [(Arial) 200.0 0.0 true true 0 ( 900)]
] -66.7 MRshow
1.000 UL
LTb
0.00 0.00 0.00 C 0.500 UL
LTa
0.50 0.50 0.50 C 1100 2177 M
5739 0 V
stroke
1.000 UL
LTb
0.00 0.00 0.00 C 1100 2177 M
63 0 V
5676 0 R
-63 0 V
stroke
980 2177 M
[ [(Arial) 200.0 0.0 true true 0 ( 1000)]
] -66.7 MRshow
1.000 UL
LTb
0.00 0.00 0.00 C 0.500 UL
LTa
0.50 0.50 0.50 C 1100 2630 M
5739 0 V
stroke
1.000 UL
LTb
0.00 0.00 0.00 C 1100 2630 M
63 0 V
5676 0 R
-63 0 V
stroke
980 2630 M
[ [(Arial) 200.0 0.0 true true 0 ( 1100)]
] -66.7 MRshow
1.000 UL
LTb
0.00 0.00 0.00 C 0.500 UL
LTa
0.50 0.50 0.50 C 1100 3082 M
5739 0 V
stroke
1.000 UL
LTb
0.00 0.00 0.00 C 1100 3082 M
63 0 V
5676 0 R
-63 0 V
stroke
980 3082 M
[ [(Arial) 200.0 0.0 true true 0 ( 1200)]
] -66.7 MRshow
1.000 UL
LTb
0.00 0.00 0.00 C 0.500 UL
LTa
0.50 0.50 0.50 C 1100 3534 M
5739 0 V
stroke
1.000 UL
LTb
0.00 0.00 0.00 C 1100 3534 M
63 0 V
5676 0 R
-63 0 V
stroke
980 3534 M
[ [(Arial) 200.0 0.0 true true 0 ( 1300)]
] -66.7 MRshow
1.000 UL
LTb
0.00 0.00 0.00 C 0.500 UL
LTa
0.50 0.50 0.50 C 1100 3987 M
5739 0 V
stroke
1.000 UL
LTb
0.00 0.00 0.00 C 1100 3987 M
63 0 V
5676 0 R
-63 0 V
stroke
980 3987 M
[ [(Arial) 200.0 0.0 true true 0 ( 1400)]
] -66.7 MRshow
1.000 UL
LTb
0.00 0.00 0.00 C 0.500 UL
LTa
0.50 0.50 0.50 C 1100 4439 M
5739 0 V
stroke
1.000 UL
LTb
0.00 0.00 0.00 C 1100 4439 M
63 0 V
5676 0 R
-63 0 V
stroke
980 4439 M
[ [(Arial) 200.0 0.0 true true 0 ( 1500)]
] -66.7 MRshow
1.000 UL
LTb
0.00 0.00 0.00 C 0.500 UL
LTa
0.50 0.50 0.50 C 1674 820 M
0 3619 V
stroke
1.000 UL
LTb
0.00 0.00 0.00 C 1674 820 M
0 63 V
0 3556 R
0 -63 V
stroke
1674 620 M
[ [(Arial) 200.0 0.0 true true 0 (1)]
] -66.7 MCshow
1.000 UL
LTb
0.00 0.00 0.00 C 0.500 UL
LTa
0.50 0.50 0.50 C 2822 820 M
0 3619 V
stroke
1.000 UL
LTb
0.00 0.00 0.00 C 2822 820 M
0 63 V
0 3556 R
0 -63 V
stroke
2822 620 M
[ [(Arial) 200.0 0.0 true true 0 (2)]
] -66.7 MCshow
1.000 UL
LTb
0.00 0.00 0.00 C 0.500 UL
LTa
0.50 0.50 0.50 C 3970 820 M
0 3619 V
stroke
1.000 UL
LTb
0.00 0.00 0.00 C 3970 820 M
0 63 V
0 3556 R
0 -63 V
stroke
3970 620 M
[ [(Arial) 200.0 0.0 true true 0 (4)]
] -66.7 MCshow
1.000 UL
LTb
0.00 0.00 0.00 C 0.500 UL
LTa
0.50 0.50 0.50 C 5117 820 M
0 3619 V
stroke
1.000 UL
LTb
0.00 0.00 0.00 C 5117 820 M
0 63 V
0 3556 R
0 -63 V
stroke
5117 620 M
[ [(Arial) 200.0 0.0 true true 0 (8)]
] -66.7 MCshow
1.000 UL
LTb
0.00 0.00 0.00 C 0.500 UL
LTa
0.50 0.50 0.50 C 6265 820 M
0 3619 V
stroke
1.000 UL
LTb
0.00 0.00 0.00 C 6265 820 M
0 63 V
0 3556 R
0 -63 V
stroke
6265 620 M
[ [(Arial) 200.0 0.0 true true 0 (16)]
] -66.7 MCshow
1.000 UL
LTb
0.00 0.00 0.00 C 1.000 UL
LTB
0.00 0.00 0.00 C 1100 4439 M
0 -3619 V
5739 0 V
0 3619 R
-5739 0 R
1.000 UP
stroke
LTb
0.00 0.00 0.00 C LCb setrgbcolor
160 2629 M
currentpoint gsave translate -270 rotate 0 0 moveto
[ [(Arial) 200.0 0.0 true true 0 (RTT \(ms\))]
] -66.7 MCshow
grestore
LTb
LCb setrgbcolor
3969 320 M
[ [(Arial) 200.0 0.0 true true 0 (Flows #)]
] -66.7 MCshow
LTb
LCb setrgbcolor
3969 4739 M
[ [(Arial) 200.0 0.0 true true 0 (a\) RTT)]
] -66.7 MCshow
% Begin plot #1
1.000 UL
LTb
0.60 0.60 0.00 C LCb setrgbcolor
2714 153 M
[ [(Arial) 180.0 0.0 true true 0 (olsr)]
] -60.0 MRshow
1.000 UL
LTb
0.60 0.60 0.00 C 2822 108 333 90 80 -45 0 PatternFill
2822 108 N
333 0 V
0 90 V
-333 0 V
0 -90 V
Z stroke
1.000 UL
LTb
0.60 0.60 0.00 C 1215 1056 230 43 80 -45 0 PatternFill
1330 1023 M
0 33 V
0 43 R
0 216 V
stroke
1215 1056 N
230 0 V
0 43 V
-230 0 V
0 -43 V
Z stroke
1215 1315 M
230 0 V
1215 1023 M
230 0 V
stroke
2363 1134 230 1692 80 -45 0 PatternFill
2478 1052 M
0 82 V
0 1692 R
0 1050 V
stroke
2363 1134 N
230 0 V
0 1692 V
-230 0 V
0 -1692 V
Z stroke
2363 3876 M
230 0 V
2363 1052 M
230 0 V
stroke
3510 1468 230 1302 80 -45 0 PatternFill
3625 1060 M
0 408 V
0 1302 R
0 1191 V
stroke
3510 1468 N
230 0 V
0 1302 V
-230 0 V
0 -1302 V
Z stroke
3510 3961 M
230 0 V
3510 1060 M
230 0 V
stroke
4658 1230 230 1651 80 -45 0 PatternFill
4773 1029 M
0 201 V
0 1651 R
0 1214 V
stroke
4658 1230 N
230 0 V
0 1651 V
-230 0 V
0 -1651 V
Z stroke
4658 4095 M
230 0 V
4658 1029 M
230 0 V
stroke
5806 1673 230 1720 80 -45 0 PatternFill
5921 1123 M
0 550 V
0 1720 R
0 733 V
stroke
5806 1673 N
230 0 V
0 1720 V
-230 0 V
0 -1720 V
Z stroke
5806 4126 M
230 0 V
5806 1123 M
230 0 V
% End plot #1
% Begin plot #2
stroke
LTb
LCb setrgbcolor

 /TransparentPatterns true def
1215 1081 230 0 40 30 0 PatternFill
1330 1081 M
stroke
1215 1081 N
230 0 V
-230 0 V
Z stroke
1215 1081 M
230 0 V
-230 0 R
230 0 V
stroke

 /TransparentPatterns true def
2363 1895 230 0 40 30 0 PatternFill
2478 1895 M
stroke
2363 1895 N
230 0 V
-230 0 V
Z stroke
2363 1895 M
230 0 V
-230 0 R
230 0 V
stroke

 /TransparentPatterns true def
3510 2075 230 0 40 30 0 PatternFill
3625 2075 M
stroke
3510 2075 N
230 0 V
-230 0 V
Z stroke
3510 2075 M
230 0 V
-230 0 R
230 0 V
stroke

 /TransparentPatterns true def
4658 1996 230 0 40 30 0 PatternFill
4773 1996 M
stroke
4658 1996 N
230 0 V
-230 0 V
Z stroke
4658 1996 M
230 0 V
-230 0 R
230 0 V
stroke

 /TransparentPatterns true def
5806 2536 230 0 40 30 0 PatternFill
5921 2536 M
stroke
5806 2536 N
230 0 V
-230 0 V
Z stroke
5806 2536 M
230 0 V
-230 0 R
230 0 V
% End plot #2
% Begin plot #3
stroke
LTb
0.00 0.00 0.63 C LCb setrgbcolor
4127 153 M
[ [(Arial) 180.0 0.0 true true 0 (per-packet)]
] -60.0 MRshow
1.000 UL
LTb
0.00 0.00 0.63 C 4235 108 333 90 80 45 0 PatternFill
4235 108 N
333 0 V
0 90 V
-333 0 V
0 -90 V
Z stroke
1.000 UL
LTb
0.00 0.00 0.63 C 1559 1056 230 81 80 45 0 PatternFill
1674 1051 M
0 5 V
0 81 R
0 244 V
stroke
1559 1056 N
230 0 V
0 81 V
-230 0 V
0 -81 V
Z stroke
1559 1381 M
230 0 V
1559 1051 M
230 0 V
stroke
2707 1267 230 1869 80 45 0 PatternFill
2822 1040 M
0 227 V
0 1869 R
0 970 V
stroke
2707 1267 N
230 0 V
0 1869 V
-230 0 V
0 -1869 V
Z stroke
2707 4106 M
230 0 V
2707 1040 M
230 0 V
stroke
3855 1163 230 1596 80 45 0 PatternFill
3970 1026 M
0 137 V
0 1596 R
0 1179 V
stroke
3855 1163 N
230 0 V
0 1596 V
-230 0 V
0 -1596 V
Z stroke
3855 3938 M
230 0 V
3855 1026 M
230 0 V
stroke
5003 1592 230 1733 80 45 0 PatternFill
5118 1037 M
0 555 V
0 1733 R
0 761 V
stroke
5003 1592 N
230 0 V
0 1733 V
-230 0 V
0 -1733 V
Z stroke
5003 4086 M
230 0 V
5003 1037 M
230 0 V
stroke
6150 1744 230 1878 80 45 0 PatternFill
6265 1044 M
0 700 V
0 1878 R
0 543 V
stroke
6150 1744 N
230 0 V
0 1878 V
-230 0 V
0 -1878 V
Z stroke
6150 4165 M
230 0 V
6150 1044 M
230 0 V
% End plot #3
% Begin plot #4
stroke
LTb
LCb setrgbcolor

 /TransparentPatterns true def
1559 1104 230 0 80 -45 0 PatternFill
1674 1104 M
stroke
1559 1104 N
230 0 V
-230 0 V
Z stroke
1559 1104 M
230 0 V
-230 0 R
230 0 V
stroke

 /TransparentPatterns true def
2707 2224 230 0 80 -45 0 PatternFill
2822 2224 M
stroke
2707 2224 N
230 0 V
-230 0 V
Z stroke
2707 2224 M
230 0 V
-230 0 R
230 0 V
stroke

 /TransparentPatterns true def
3855 1928 230 0 80 -45 0 PatternFill
3970 1928 M
stroke
3855 1928 N
230 0 V
-230 0 V
Z stroke
3855 1928 M
230 0 V
-230 0 R
230 0 V
stroke

 /TransparentPatterns true def
5003 2560 230 0 80 -45 0 PatternFill
5118 2560 M
stroke
5003 2560 N
230 0 V
-230 0 V
Z stroke
5003 2560 M
230 0 V
-230 0 R
230 0 V
stroke

 /TransparentPatterns true def
6150 2663 230 0 80 -45 0 PatternFill
6265 2663 M
stroke
6150 2663 N
230 0 V
-230 0 V
Z stroke
6150 2663 M
230 0 V
-230 0 R
230 0 V
% End plot #4
% Begin plot #5
stroke
LTb
0.00 0.38 0.82 C LCb setrgbcolor
5540 153 M
[ [(Arial) 180.0 0.0 true true 0 (per-flow)]
] -60.0 MRshow
1.000 UL
LTb
0.00 0.38 0.82 C 5648 108 333 90 40 30 0 PatternFill
5648 108 N
333 0 V
0 90 V
-333 0 V
0 -90 V
Z stroke
1.000 UL
LTb
0.00 0.38 0.82 C 1903 1056 230 81 40 30 0 PatternFill
2018 1051 M
0 5 V
0 81 R
0 244 V
stroke
1903 1056 N
230 0 V
0 81 V
-230 0 V
0 -81 V
Z stroke
1903 1381 M
230 0 V
1903 1051 M
230 0 V
stroke
3051 1267 230 1869 40 30 0 PatternFill
3166 1040 M
0 227 V
0 1869 R
0 970 V
stroke
3051 1267 N
230 0 V
0 1869 V
-230 0 V
0 -1869 V
Z stroke
3051 4106 M
230 0 V
3051 1040 M
230 0 V
stroke
4199 1163 230 1596 40 30 0 PatternFill
4314 1026 M
0 137 V
0 1596 R
0 1179 V
stroke
4199 1163 N
230 0 V
0 1596 V
-230 0 V
0 -1596 V
Z stroke
4199 3938 M
230 0 V
4199 1026 M
230 0 V
stroke
5347 1309 230 1644 40 30 0 PatternFill
5462 1035 M
0 274 V
0 1644 R
0 1113 V
stroke
5347 1309 N
230 0 V
0 1644 V
-230 0 V
0 -1644 V
Z stroke
5347 4066 M
230 0 V
5347 1035 M
230 0 V
stroke
6495 1648 230 1854 40 30 0 PatternFill
6610 1036 M
0 612 V
0 1854 R
0 630 V
stroke
6495 1648 N
230 0 V
0 1854 V
-230 0 V
0 -1854 V
Z stroke
6495 4132 M
230 0 V
6495 1036 M
230 0 V
% End plot #5
% Begin plot #6
stroke
LTb
LCb setrgbcolor

 /TransparentPatterns true def
1903 1104 230 0 40 -30 0 PatternFill
2018 1104 M
stroke
1903 1104 N
230 0 V
-230 0 V
Z stroke
1903 1104 M
230 0 V
-230 0 R
230 0 V
stroke

 /TransparentPatterns true def
3051 2224 230 0 40 -30 0 PatternFill
3166 2224 M
stroke
3051 2224 N
230 0 V
-230 0 V
Z stroke
3051 2224 M
230 0 V
-230 0 R
230 0 V
stroke

 /TransparentPatterns true def
4199 1928 230 0 40 -30 0 PatternFill
4314 1928 M
stroke
4199 1928 N
230 0 V
-230 0 V
Z stroke
4199 1928 M
230 0 V
-230 0 R
230 0 V
stroke

 /TransparentPatterns true def
5347 2179 230 0 40 -30 0 PatternFill
5462 2179 M
stroke
5347 2179 N
230 0 V
-230 0 V
Z stroke
5347 2179 M
230 0 V
-230 0 R
230 0 V
stroke

 /TransparentPatterns true def
6495 2574 230 0 40 -30 0 PatternFill
6610 2574 M
stroke
6495 2574 N
230 0 V
-230 0 V
Z stroke
6495 2574 M
230 0 V
-230 0 R
230 0 V
% End plot #6
stroke
2.000 UL
LTb
LCb setrgbcolor
1.000 UP
1.000 UL
LTb
0.00 0.00 0.00 C 1.000 UL
LTb
0.00 0.00 0.00 C 0.500 UL
LTa
0.50 0.50 0.50 C 8180 820 M
5859 0 V
stroke
1.000 UL
LTb
0.00 0.00 0.00 C 8180 820 M
63 0 V
5796 0 R
-63 0 V
stroke
8060 820 M
[ [(Arial) 200.0 0.0 true true 0 ( 0)]
] -66.7 MRshow
1.000 UL
LTb
0.00 0.00 0.00 C 0.500 UL
LTa
0.50 0.50 0.50 C 8180 1182 M
5859 0 V
stroke
1.000 UL
LTb
0.00 0.00 0.00 C 8180 1182 M
63 0 V
5796 0 R
-63 0 V
stroke
8060 1182 M
[ [(Arial) 200.0 0.0 true true 0 ( 20)]
] -66.7 MRshow
1.000 UL
LTb
0.00 0.00 0.00 C 0.500 UL
LTa
0.50 0.50 0.50 C 8180 1544 M
5859 0 V
stroke
1.000 UL
LTb
0.00 0.00 0.00 C 8180 1544 M
63 0 V
5796 0 R
-63 0 V
stroke
8060 1544 M
[ [(Arial) 200.0 0.0 true true 0 ( 40)]
] -66.7 MRshow
1.000 UL
LTb
0.00 0.00 0.00 C 0.500 UL
LTa
0.50 0.50 0.50 C 8180 1906 M
5859 0 V
stroke
1.000 UL
LTb
0.00 0.00 0.00 C 8180 1906 M
63 0 V
5796 0 R
-63 0 V
stroke
8060 1906 M
[ [(Arial) 200.0 0.0 true true 0 ( 60)]
] -66.7 MRshow
1.000 UL
LTb
0.00 0.00 0.00 C 0.500 UL
LTa
0.50 0.50 0.50 C 8180 2268 M
5859 0 V
stroke
1.000 UL
LTb
0.00 0.00 0.00 C 8180 2268 M
63 0 V
5796 0 R
-63 0 V
stroke
8060 2268 M
[ [(Arial) 200.0 0.0 true true 0 ( 80)]
] -66.7 MRshow
1.000 UL
LTb
0.00 0.00 0.00 C 0.500 UL
LTa
0.50 0.50 0.50 C 8180 2630 M
5859 0 V
stroke
1.000 UL
LTb
0.00 0.00 0.00 C 8180 2630 M
63 0 V
5796 0 R
-63 0 V
stroke
8060 2630 M
[ [(Arial) 200.0 0.0 true true 0 ( 100)]
] -66.7 MRshow
1.000 UL
LTb
0.00 0.00 0.00 C 0.500 UL
LTa
0.50 0.50 0.50 C 8180 2991 M
5859 0 V
stroke
1.000 UL
LTb
0.00 0.00 0.00 C 8180 2991 M
63 0 V
5796 0 R
-63 0 V
stroke
8060 2991 M
[ [(Arial) 200.0 0.0 true true 0 ( 120)]
] -66.7 MRshow
1.000 UL
LTb
0.00 0.00 0.00 C 0.500 UL
LTa
0.50 0.50 0.50 C 8180 3353 M
5859 0 V
stroke
1.000 UL
LTb
0.00 0.00 0.00 C 8180 3353 M
63 0 V
5796 0 R
-63 0 V
stroke
8060 3353 M
[ [(Arial) 200.0 0.0 true true 0 ( 140)]
] -66.7 MRshow
1.000 UL
LTb
0.00 0.00 0.00 C 0.500 UL
LTa
0.50 0.50 0.50 C 8180 3715 M
5859 0 V
stroke
1.000 UL
LTb
0.00 0.00 0.00 C 8180 3715 M
63 0 V
5796 0 R
-63 0 V
stroke
8060 3715 M
[ [(Arial) 200.0 0.0 true true 0 ( 160)]
] -66.7 MRshow
1.000 UL
LTb
0.00 0.00 0.00 C 0.500 UL
LTa
0.50 0.50 0.50 C 8180 4077 M
5859 0 V
stroke
1.000 UL
LTb
0.00 0.00 0.00 C 8180 4077 M
63 0 V
5796 0 R
-63 0 V
stroke
8060 4077 M
[ [(Arial) 200.0 0.0 true true 0 ( 180)]
] -66.7 MRshow
1.000 UL
LTb
0.00 0.00 0.00 C 0.500 UL
LTa
0.50 0.50 0.50 C 8180 4439 M
5859 0 V
stroke
1.000 UL
LTb
0.00 0.00 0.00 C 8180 4439 M
63 0 V
5796 0 R
-63 0 V
stroke
8060 4439 M
[ [(Arial) 200.0 0.0 true true 0 ( 200)]
] -66.7 MRshow
1.000 UL
LTb
0.00 0.00 0.00 C 0.500 UL
LTa
0.50 0.50 0.50 C 8766 820 M
0 3619 V
stroke
1.000 UL
LTb
0.00 0.00 0.00 C 8766 820 M
0 63 V
0 3556 R
0 -63 V
stroke
8766 620 M
[ [(Arial) 200.0 0.0 true true 0 (1)]
] -66.7 MCshow
1.000 UL
LTb
0.00 0.00 0.00 C 0.500 UL
LTa
0.50 0.50 0.50 C 9938 820 M
0 3619 V
stroke
1.000 UL
LTb
0.00 0.00 0.00 C 9938 820 M
0 63 V
0 3556 R
0 -63 V
stroke
9938 620 M
[ [(Arial) 200.0 0.0 true true 0 (2)]
] -66.7 MCshow
1.000 UL
LTb
0.00 0.00 0.00 C 0.500 UL
LTa
0.50 0.50 0.50 C 11110 820 M
0 3619 V
stroke
1.000 UL
LTb
0.00 0.00 0.00 C 11110 820 M
0 63 V
0 3556 R
0 -63 V
stroke
11110 620 M
[ [(Arial) 200.0 0.0 true true 0 (4)]
] -66.7 MCshow
1.000 UL
LTb
0.00 0.00 0.00 C 0.500 UL
LTa
0.50 0.50 0.50 C 12281 820 M
0 3619 V
stroke
1.000 UL
LTb
0.00 0.00 0.00 C 12281 820 M
0 63 V
0 3556 R
0 -63 V
stroke
12281 620 M
[ [(Arial) 200.0 0.0 true true 0 (8)]
] -66.7 MCshow
1.000 UL
LTb
0.00 0.00 0.00 C 0.500 UL
LTa
0.50 0.50 0.50 C 13453 820 M
0 3619 V
stroke
1.000 UL
LTb
0.00 0.00 0.00 C 13453 820 M
0 63 V
0 3556 R
0 -63 V
stroke
13453 620 M
[ [(Arial) 200.0 0.0 true true 0 (16)]
] -66.7 MCshow
1.000 UL
LTb
0.00 0.00 0.00 C 1.000 UL
LTB
0.00 0.00 0.00 C 8180 4439 M
0 -3619 V
5859 0 V
0 3619 R
-5859 0 R
1.000 UP
stroke
LTb
0.00 0.00 0.00 C LCb setrgbcolor
7360 2629 M
currentpoint gsave translate -270 rotate 0 0 moveto
[ [(Arial) 200.0 0.0 true true 0 (File download time \(s\))]
] -66.7 MCshow
grestore
LTb
LCb setrgbcolor
11109 320 M
[ [(Arial) 200.0 0.0 true true 0 (Flows #)]
] -66.7 MCshow
LTb
LCb setrgbcolor
11109 4739 M
[ [(Arial) 200.0 0.0 true true 0 (b\) File download time)]
] -66.7 MCshow
% Begin plot #1
1.000 UL
LTb
0.60 0.60 0.00 C LCb setrgbcolor
9854 153 M
[ [(Arial) 180.0 0.0 true true 0 (olsr)]
] -60.0 MRshow
1.000 UL
LTb
0.60 0.60 0.00 C 9962 108 333 90 80 -45 0 PatternFill
9962 108 N
333 0 V
0 90 V
-333 0 V
0 -90 V
Z stroke
1.000 UL
LTb
0.60 0.60 0.00 C 8297 1340 236 0 80 -45 0 PatternFill
8415 1340 M
stroke
8297 1340 N
236 0 V
-236 0 V
Z stroke
8297 1340 M
236 0 V
-236 0 R
236 0 V
stroke
9469 1620 234 19 80 -45 0 PatternFill
9586 1614 M
0 6 V
0 19 R
0 6 V
stroke
9469 1620 N
234 0 V
0 19 V
-234 0 V
0 -19 V
Z stroke
9469 1645 M
234 0 V
-234 -31 R
234 0 V
stroke
10641 1796 234 126 80 -45 0 PatternFill
10758 1794 M
0 2 V
0 126 R
0 34 V
stroke
10641 1796 N
234 0 V
0 126 V
-234 0 V
0 -126 V
Z stroke
10641 1956 M
234 0 V
-234 -162 R
234 0 V
stroke
11813 2107 234 227 80 -45 0 PatternFill
11930 1243 M
0 864 V
0 227 R
0 320 V
stroke
11813 2107 N
234 0 V
0 227 V
-234 0 V
0 -227 V
Z stroke
11813 2654 M
234 0 V
11813 1243 M
234 0 V
stroke
12984 2949 236 643 80 -45 0 PatternFill
13102 2297 M
0 652 V
0 643 R
0 809 V
stroke
12984 2949 N
236 0 V
0 643 V
-236 0 V
0 -643 V
Z stroke
12984 4401 M
236 0 V
12984 2297 M
236 0 V
% End plot #1
% Begin plot #2
stroke
LTb
LCb setrgbcolor

 /TransparentPatterns true def
8297 1340 236 0 40 30 0 PatternFill
8415 1340 M
stroke
8297 1340 N
236 0 V
-236 0 V
Z stroke
8297 1340 M
236 0 V
-236 0 R
236 0 V
stroke

 /TransparentPatterns true def
9469 1629 234 0 40 30 0 PatternFill
9586 1629 M
stroke
9469 1629 N
234 0 V
-234 0 V
Z stroke
9469 1629 M
234 0 V
-234 0 R
234 0 V
stroke

 /TransparentPatterns true def
10641 1862 234 0 40 30 0 PatternFill
10758 1862 M
stroke
10641 1862 N
234 0 V
-234 0 V
Z stroke
10641 1862 M
234 0 V
-234 0 R
234 0 V
stroke

 /TransparentPatterns true def
11813 2141 234 0 40 30 0 PatternFill
11930 2141 M
stroke
11813 2141 N
234 0 V
-234 0 V
Z stroke
11813 2141 M
234 0 V
-234 0 R
234 0 V
stroke

 /TransparentPatterns true def
12984 3301 236 0 40 30 0 PatternFill
13102 3301 M
stroke
12984 3301 N
236 0 V
-236 0 V
Z stroke
12984 3301 M
236 0 V
-236 0 R
236 0 V
% End plot #2
% Begin plot #3
stroke
LTb
0.00 0.00 0.63 C LCb setrgbcolor
11267 153 M
[ [(Arial) 180.0 0.0 true true 0 (per-packet)]
] -60.0 MRshow
1.000 UL
LTb
0.00 0.00 0.63 C 11375 108 333 90 80 45 0 PatternFill
11375 108 N
333 0 V
0 90 V
-333 0 V
0 -90 V
Z stroke
1.000 UL
LTb
0.00 0.00 0.63 C 8649 1142 234 0 80 45 0 PatternFill
8766 1142 M
stroke
8649 1142 N
234 0 V
-234 0 V
Z stroke
8649 1142 M
234 0 V
-234 0 R
234 0 V
stroke
9821 1580 234 14 80 45 0 PatternFill
9938 1576 M
0 4 V
0 14 R
0 5 V
stroke
9821 1580 N
234 0 V
0 14 V
-234 0 V
0 -14 V
Z stroke
9821 1599 M
234 0 V
-234 -23 R
234 0 V
stroke
10992 1602 236 216 80 45 0 PatternFill
11110 1435 M
0 167 V
0 216 R
0 124 V
stroke
10992 1602 N
236 0 V
0 216 V
-236 0 V
0 -216 V
Z stroke
10992 1942 M
236 0 V
-236 -507 R
236 0 V
stroke
12164 2171 234 86 80 45 0 PatternFill
12281 1979 M
0 192 V
0 86 R
0 524 V
stroke
12164 2171 N
234 0 V
0 86 V
-234 0 V
0 -86 V
Z stroke
12164 2781 M
234 0 V
-234 -802 R
234 0 V
stroke
13336 2958 234 527 80 45 0 PatternFill
13453 2349 M
0 609 V
0 527 R
0 756 V
stroke
13336 2958 N
234 0 V
0 527 V
-234 0 V
0 -527 V
Z stroke
13336 4241 M
234 0 V
13336 2349 M
234 0 V
% End plot #3
% Begin plot #4
stroke
LTb
LCb setrgbcolor

 /TransparentPatterns true def
8649 1142 234 0 80 -45 0 PatternFill
8766 1142 M
stroke
8649 1142 N
234 0 V
-234 0 V
Z stroke
8649 1142 M
234 0 V
-234 0 R
234 0 V
stroke

 /TransparentPatterns true def
9821 1587 234 0 80 -45 0 PatternFill
9938 1587 M
stroke
9821 1587 N
234 0 V
-234 0 V
Z stroke
9821 1587 M
234 0 V
-234 0 R
234 0 V
stroke

 /TransparentPatterns true def
10992 1707 236 0 80 -45 0 PatternFill
11110 1707 M
stroke
10992 1707 N
236 0 V
-236 0 V
Z stroke
10992 1707 M
236 0 V
-236 0 R
236 0 V
stroke

 /TransparentPatterns true def
12164 2260 234 0 80 -45 0 PatternFill
12281 2260 M
stroke
12164 2260 N
234 0 V
-234 0 V
Z stroke
12164 2260 M
234 0 V
-234 0 R
234 0 V
stroke

 /TransparentPatterns true def
13336 3303 234 0 80 -45 0 PatternFill
13453 3303 M
stroke
13336 3303 N
234 0 V
-234 0 V
Z stroke
13336 3303 M
234 0 V
-234 0 R
234 0 V
% End plot #4
% Begin plot #5
stroke
LTb
0.00 0.38 0.82 C LCb setrgbcolor
12680 153 M
[ [(Arial) 180.0 0.0 true true 0 (per-flow)]
] -60.0 MRshow
1.000 UL
LTb
0.00 0.38 0.82 C 12788 108 333 90 40 30 0 PatternFill
12788 108 N
333 0 V
0 90 V
-333 0 V
0 -90 V
Z stroke
1.000 UL
LTb
0.00 0.38 0.82 C 9000 1142 236 0 40 30 0 PatternFill
9118 1142 M
stroke
9000 1142 N
236 0 V
-236 0 V
Z stroke
9000 1142 M
236 0 V
-236 0 R
236 0 V
stroke
10172 1580 234 14 40 30 0 PatternFill
10289 1576 M
0 4 V
0 14 R
0 5 V
stroke
10172 1580 N
234 0 V
0 14 V
-234 0 V
0 -14 V
Z stroke
10172 1599 M
234 0 V
-234 -23 R
234 0 V
stroke
11344 1602 234 216 40 30 0 PatternFill
11461 1435 M
0 167 V
0 216 R
0 124 V
stroke
11344 1602 N
234 0 V
0 216 V
-234 0 V
0 -216 V
Z stroke
11344 1942 M
234 0 V
-234 -507 R
234 0 V
stroke
12516 1987 234 310 40 30 0 PatternFill
12633 1857 M
0 130 V
0 310 R
0 165 V
stroke
12516 1987 N
234 0 V
0 310 V
-234 0 V
0 -310 V
Z stroke
12516 2462 M
234 0 V
-234 -605 R
234 0 V
stroke
13687 2776 236 788 40 30 0 PatternFill
13805 2499 M
0 277 V
0 788 R
0 459 V
stroke
13687 2776 N
236 0 V
0 788 V
-236 0 V
0 -788 V
Z stroke
13687 4023 M
236 0 V
13687 2499 M
236 0 V
% End plot #5
% Begin plot #6
stroke
LTb
LCb setrgbcolor

 /TransparentPatterns true def
9000 1142 236 0 40 -30 0 PatternFill
9118 1142 M
stroke
9000 1142 N
236 0 V
-236 0 V
Z stroke
9000 1142 M
236 0 V
-236 0 R
236 0 V
stroke

 /TransparentPatterns true def
10172 1587 234 0 40 -30 0 PatternFill
10289 1587 M
stroke
10172 1587 N
234 0 V
-234 0 V
Z stroke
10172 1587 M
234 0 V
-234 0 R
234 0 V
stroke

 /TransparentPatterns true def
11344 1707 234 0 40 -30 0 PatternFill
11461 1707 M
stroke
11344 1707 N
234 0 V
-234 0 V
Z stroke
11344 1707 M
234 0 V
-234 0 R
234 0 V
stroke

 /TransparentPatterns true def
12516 2162 234 0 40 -30 0 PatternFill
12633 2162 M
stroke
12516 2162 N
234 0 V
-234 0 V
Z stroke
12516 2162 M
234 0 V
-234 0 R
234 0 V
stroke

 /TransparentPatterns true def
13687 3219 236 0 40 -30 0 PatternFill
13805 3219 M
stroke
13687 3219 N
236 0 V
-236 0 V
Z stroke
13687 3219 M
236 0 V
-236 0 R
236 0 V
% End plot #6
stroke
2.000 UL
LTb
LCb setrgbcolor
1.000 UP
1.000 UL
LTb
0.00 0.00 0.00 C stroke
grestore
end
showpage
%%Trailer
%%DocumentFonts: Arial
