%!PS-Adobe-2.0 EPSF-2.0
%%Title: TcpVegas-2M-ss-1Mbps-UE-increase.eps
%%Creator: gnuplot 5.0 patchlevel 3
%%CreationDate: Mon Jul 18 11:04:39 2016
%%DocumentFonts: (atend)
%%BoundingBox: 50 50 770 302
%%EndComments
%%BeginProlog
/gnudict 256 dict def
gnudict begin
%
% The following true/false flags may be edited by hand if desired.
% The unit line width and grayscale image gamma correction may also be changed.
%
/Color true def
/Blacktext false def
/Solid false def
/Dashlength 3 def
/Landscape false def
/Level1 false def
/Level3 false def
/Rounded false def
/ClipToBoundingBox false def
/SuppressPDFMark false def
/TransparentPatterns false def
/gnulinewidth 15.000 def
/userlinewidth gnulinewidth def
/Gamma 1.0 def
/BackgroundColor {-1.000 -1.000 -1.000} def
%
/vshift -66 def
/dl1 {
  10.0 Dashlength userlinewidth gnulinewidth div mul mul mul
  Rounded { currentlinewidth 0.75 mul sub dup 0 le { pop 0.01 } if } if
} def
/dl2 {
  10.0 Dashlength userlinewidth gnulinewidth div mul mul mul
  Rounded { currentlinewidth 0.75 mul add } if
} def
/hpt_ 31.5 def
/vpt_ 31.5 def
/hpt hpt_ def
/vpt vpt_ def
/doclip {
  ClipToBoundingBox {
    newpath 50 50 moveto 770 50 lineto 770 302 lineto 50 302 lineto closepath
    clip
  } if
} def
%
% Gnuplot Prolog Version 5.1 (Oct 2015)
%
%/SuppressPDFMark true def
%
/M {moveto} bind def
/L {lineto} bind def
/R {rmoveto} bind def
/V {rlineto} bind def
/N {newpath moveto} bind def
/Z {closepath} bind def
/C {setrgbcolor} bind def
/f {rlineto fill} bind def
/g {setgray} bind def
/Gshow {show} def   % May be redefined later in the file to support UTF-8
/vpt2 vpt 2 mul def
/hpt2 hpt 2 mul def
/Lshow {currentpoint stroke M 0 vshift R 
	Blacktext {gsave 0 setgray textshow grestore} {textshow} ifelse} def
/Rshow {currentpoint stroke M dup stringwidth pop neg vshift R
	Blacktext {gsave 0 setgray textshow grestore} {textshow} ifelse} def
/Cshow {currentpoint stroke M dup stringwidth pop -2 div vshift R 
	Blacktext {gsave 0 setgray textshow grestore} {textshow} ifelse} def
/UP {dup vpt_ mul /vpt exch def hpt_ mul /hpt exch def
  /hpt2 hpt 2 mul def /vpt2 vpt 2 mul def} def
/DL {Color {setrgbcolor Solid {pop []} if 0 setdash}
 {pop pop pop 0 setgray Solid {pop []} if 0 setdash} ifelse} def
/BL {stroke userlinewidth 2 mul setlinewidth
	Rounded {1 setlinejoin 1 setlinecap} if} def
/AL {stroke userlinewidth 2 div setlinewidth
	Rounded {1 setlinejoin 1 setlinecap} if} def
/UL {dup gnulinewidth mul /userlinewidth exch def
	dup 1 lt {pop 1} if 10 mul /udl exch def} def
/PL {stroke userlinewidth setlinewidth
	Rounded {1 setlinejoin 1 setlinecap} if} def
3.8 setmiterlimit
% Classic Line colors (version 5.0)
/LCw {1 1 1} def
/LCb {0 0 0} def
/LCa {0 0 0} def
/LC0 {1 0 0} def
/LC1 {0 1 0} def
/LC2 {0 0 1} def
/LC3 {1 0 1} def
/LC4 {0 1 1} def
/LC5 {1 1 0} def
/LC6 {0 0 0} def
/LC7 {1 0.3 0} def
/LC8 {0.5 0.5 0.5} def
% Default dash patterns (version 5.0)
/LTB {BL [] LCb DL} def
/LTw {PL [] 1 setgray} def
/LTb {PL [] LCb DL} def
/LTa {AL [1 udl mul 2 udl mul] 0 setdash LCa setrgbcolor} def
/LT0 {PL [] LC0 DL} def
/LT1 {PL [2 dl1 3 dl2] LC1 DL} def
/LT2 {PL [1 dl1 1.5 dl2] LC2 DL} def
/LT3 {PL [6 dl1 2 dl2 1 dl1 2 dl2] LC3 DL} def
/LT4 {PL [1 dl1 2 dl2 6 dl1 2 dl2 1 dl1 2 dl2] LC4 DL} def
/LT5 {PL [4 dl1 2 dl2] LC5 DL} def
/LT6 {PL [1.5 dl1 1.5 dl2 1.5 dl1 1.5 dl2 1.5 dl1 6 dl2] LC6 DL} def
/LT7 {PL [3 dl1 3 dl2 1 dl1 3 dl2] LC7 DL} def
/LT8 {PL [2 dl1 2 dl2 2 dl1 6 dl2] LC8 DL} def
/SL {[] 0 setdash} def
/Pnt {stroke [] 0 setdash gsave 1 setlinecap M 0 0 V stroke grestore} def
/Dia {stroke [] 0 setdash 2 copy vpt add M
  hpt neg vpt neg V hpt vpt neg V
  hpt vpt V hpt neg vpt V closepath stroke
  Pnt} def
/Pls {stroke [] 0 setdash vpt sub M 0 vpt2 V
  currentpoint stroke M
  hpt neg vpt neg R hpt2 0 V stroke
 } def
/Box {stroke [] 0 setdash 2 copy exch hpt sub exch vpt add M
  0 vpt2 neg V hpt2 0 V 0 vpt2 V
  hpt2 neg 0 V closepath stroke
  Pnt} def
/Crs {stroke [] 0 setdash exch hpt sub exch vpt add M
  hpt2 vpt2 neg V currentpoint stroke M
  hpt2 neg 0 R hpt2 vpt2 V stroke} def
/TriU {stroke [] 0 setdash 2 copy vpt 1.12 mul add M
  hpt neg vpt -1.62 mul V
  hpt 2 mul 0 V
  hpt neg vpt 1.62 mul V closepath stroke
  Pnt} def
/Star {2 copy Pls Crs} def
/BoxF {stroke [] 0 setdash exch hpt sub exch vpt add M
  0 vpt2 neg V hpt2 0 V 0 vpt2 V
  hpt2 neg 0 V closepath fill} def
/TriUF {stroke [] 0 setdash vpt 1.12 mul add M
  hpt neg vpt -1.62 mul V
  hpt 2 mul 0 V
  hpt neg vpt 1.62 mul V closepath fill} def
/TriD {stroke [] 0 setdash 2 copy vpt 1.12 mul sub M
  hpt neg vpt 1.62 mul V
  hpt 2 mul 0 V
  hpt neg vpt -1.62 mul V closepath stroke
  Pnt} def
/TriDF {stroke [] 0 setdash vpt 1.12 mul sub M
  hpt neg vpt 1.62 mul V
  hpt 2 mul 0 V
  hpt neg vpt -1.62 mul V closepath fill} def
/DiaF {stroke [] 0 setdash vpt add M
  hpt neg vpt neg V hpt vpt neg V
  hpt vpt V hpt neg vpt V closepath fill} def
/Pent {stroke [] 0 setdash 2 copy gsave
  translate 0 hpt M 4 {72 rotate 0 hpt L} repeat
  closepath stroke grestore Pnt} def
/PentF {stroke [] 0 setdash gsave
  translate 0 hpt M 4 {72 rotate 0 hpt L} repeat
  closepath fill grestore} def
/Circle {stroke [] 0 setdash 2 copy
  hpt 0 360 arc stroke Pnt} def
/CircleF {stroke [] 0 setdash hpt 0 360 arc fill} def
/C0 {BL [] 0 setdash 2 copy moveto vpt 90 450 arc} bind def
/C1 {BL [] 0 setdash 2 copy moveto
	2 copy vpt 0 90 arc closepath fill
	vpt 0 360 arc closepath} bind def
/C2 {BL [] 0 setdash 2 copy moveto
	2 copy vpt 90 180 arc closepath fill
	vpt 0 360 arc closepath} bind def
/C3 {BL [] 0 setdash 2 copy moveto
	2 copy vpt 0 180 arc closepath fill
	vpt 0 360 arc closepath} bind def
/C4 {BL [] 0 setdash 2 copy moveto
	2 copy vpt 180 270 arc closepath fill
	vpt 0 360 arc closepath} bind def
/C5 {BL [] 0 setdash 2 copy moveto
	2 copy vpt 0 90 arc
	2 copy moveto
	2 copy vpt 180 270 arc closepath fill
	vpt 0 360 arc} bind def
/C6 {BL [] 0 setdash 2 copy moveto
	2 copy vpt 90 270 arc closepath fill
	vpt 0 360 arc closepath} bind def
/C7 {BL [] 0 setdash 2 copy moveto
	2 copy vpt 0 270 arc closepath fill
	vpt 0 360 arc closepath} bind def
/C8 {BL [] 0 setdash 2 copy moveto
	2 copy vpt 270 360 arc closepath fill
	vpt 0 360 arc closepath} bind def
/C9 {BL [] 0 setdash 2 copy moveto
	2 copy vpt 270 450 arc closepath fill
	vpt 0 360 arc closepath} bind def
/C10 {BL [] 0 setdash 2 copy 2 copy moveto vpt 270 360 arc closepath fill
	2 copy moveto
	2 copy vpt 90 180 arc closepath fill
	vpt 0 360 arc closepath} bind def
/C11 {BL [] 0 setdash 2 copy moveto
	2 copy vpt 0 180 arc closepath fill
	2 copy moveto
	2 copy vpt 270 360 arc closepath fill
	vpt 0 360 arc closepath} bind def
/C12 {BL [] 0 setdash 2 copy moveto
	2 copy vpt 180 360 arc closepath fill
	vpt 0 360 arc closepath} bind def
/C13 {BL [] 0 setdash 2 copy moveto
	2 copy vpt 0 90 arc closepath fill
	2 copy moveto
	2 copy vpt 180 360 arc closepath fill
	vpt 0 360 arc closepath} bind def
/C14 {BL [] 0 setdash 2 copy moveto
	2 copy vpt 90 360 arc closepath fill
	vpt 0 360 arc} bind def
/C15 {BL [] 0 setdash 2 copy vpt 0 360 arc closepath fill
	vpt 0 360 arc closepath} bind def
/Rec {newpath 4 2 roll moveto 1 index 0 rlineto 0 exch rlineto
	neg 0 rlineto closepath} bind def
/Square {dup Rec} bind def
/Bsquare {vpt sub exch vpt sub exch vpt2 Square} bind def
/S0 {BL [] 0 setdash 2 copy moveto 0 vpt rlineto BL Bsquare} bind def
/S1 {BL [] 0 setdash 2 copy vpt Square fill Bsquare} bind def
/S2 {BL [] 0 setdash 2 copy exch vpt sub exch vpt Square fill Bsquare} bind def
/S3 {BL [] 0 setdash 2 copy exch vpt sub exch vpt2 vpt Rec fill Bsquare} bind def
/S4 {BL [] 0 setdash 2 copy exch vpt sub exch vpt sub vpt Square fill Bsquare} bind def
/S5 {BL [] 0 setdash 2 copy 2 copy vpt Square fill
	exch vpt sub exch vpt sub vpt Square fill Bsquare} bind def
/S6 {BL [] 0 setdash 2 copy exch vpt sub exch vpt sub vpt vpt2 Rec fill Bsquare} bind def
/S7 {BL [] 0 setdash 2 copy exch vpt sub exch vpt sub vpt vpt2 Rec fill
	2 copy vpt Square fill Bsquare} bind def
/S8 {BL [] 0 setdash 2 copy vpt sub vpt Square fill Bsquare} bind def
/S9 {BL [] 0 setdash 2 copy vpt sub vpt vpt2 Rec fill Bsquare} bind def
/S10 {BL [] 0 setdash 2 copy vpt sub vpt Square fill 2 copy exch vpt sub exch vpt Square fill
	Bsquare} bind def
/S11 {BL [] 0 setdash 2 copy vpt sub vpt Square fill 2 copy exch vpt sub exch vpt2 vpt Rec fill
	Bsquare} bind def
/S12 {BL [] 0 setdash 2 copy exch vpt sub exch vpt sub vpt2 vpt Rec fill Bsquare} bind def
/S13 {BL [] 0 setdash 2 copy exch vpt sub exch vpt sub vpt2 vpt Rec fill
	2 copy vpt Square fill Bsquare} bind def
/S14 {BL [] 0 setdash 2 copy exch vpt sub exch vpt sub vpt2 vpt Rec fill
	2 copy exch vpt sub exch vpt Square fill Bsquare} bind def
/S15 {BL [] 0 setdash 2 copy Bsquare fill Bsquare} bind def
/D0 {gsave translate 45 rotate 0 0 S0 stroke grestore} bind def
/D1 {gsave translate 45 rotate 0 0 S1 stroke grestore} bind def
/D2 {gsave translate 45 rotate 0 0 S2 stroke grestore} bind def
/D3 {gsave translate 45 rotate 0 0 S3 stroke grestore} bind def
/D4 {gsave translate 45 rotate 0 0 S4 stroke grestore} bind def
/D5 {gsave translate 45 rotate 0 0 S5 stroke grestore} bind def
/D6 {gsave translate 45 rotate 0 0 S6 stroke grestore} bind def
/D7 {gsave translate 45 rotate 0 0 S7 stroke grestore} bind def
/D8 {gsave translate 45 rotate 0 0 S8 stroke grestore} bind def
/D9 {gsave translate 45 rotate 0 0 S9 stroke grestore} bind def
/D10 {gsave translate 45 rotate 0 0 S10 stroke grestore} bind def
/D11 {gsave translate 45 rotate 0 0 S11 stroke grestore} bind def
/D12 {gsave translate 45 rotate 0 0 S12 stroke grestore} bind def
/D13 {gsave translate 45 rotate 0 0 S13 stroke grestore} bind def
/D14 {gsave translate 45 rotate 0 0 S14 stroke grestore} bind def
/D15 {gsave translate 45 rotate 0 0 S15 stroke grestore} bind def
/DiaE {stroke [] 0 setdash vpt add M
  hpt neg vpt neg V hpt vpt neg V
  hpt vpt V hpt neg vpt V closepath stroke} def
/BoxE {stroke [] 0 setdash exch hpt sub exch vpt add M
  0 vpt2 neg V hpt2 0 V 0 vpt2 V
  hpt2 neg 0 V closepath stroke} def
/TriUE {stroke [] 0 setdash vpt 1.12 mul add M
  hpt neg vpt -1.62 mul V
  hpt 2 mul 0 V
  hpt neg vpt 1.62 mul V closepath stroke} def
/TriDE {stroke [] 0 setdash vpt 1.12 mul sub M
  hpt neg vpt 1.62 mul V
  hpt 2 mul 0 V
  hpt neg vpt -1.62 mul V closepath stroke} def
/PentE {stroke [] 0 setdash gsave
  translate 0 hpt M 4 {72 rotate 0 hpt L} repeat
  closepath stroke grestore} def
/CircE {stroke [] 0 setdash 
  hpt 0 360 arc stroke} def
/Opaque {gsave closepath 1 setgray fill grestore 0 setgray closepath} def
/DiaW {stroke [] 0 setdash vpt add M
  hpt neg vpt neg V hpt vpt neg V
  hpt vpt V hpt neg vpt V Opaque stroke} def
/BoxW {stroke [] 0 setdash exch hpt sub exch vpt add M
  0 vpt2 neg V hpt2 0 V 0 vpt2 V
  hpt2 neg 0 V Opaque stroke} def
/TriUW {stroke [] 0 setdash vpt 1.12 mul add M
  hpt neg vpt -1.62 mul V
  hpt 2 mul 0 V
  hpt neg vpt 1.62 mul V Opaque stroke} def
/TriDW {stroke [] 0 setdash vpt 1.12 mul sub M
  hpt neg vpt 1.62 mul V
  hpt 2 mul 0 V
  hpt neg vpt -1.62 mul V Opaque stroke} def
/PentW {stroke [] 0 setdash gsave
  translate 0 hpt M 4 {72 rotate 0 hpt L} repeat
  Opaque stroke grestore} def
/CircW {stroke [] 0 setdash 
  hpt 0 360 arc Opaque stroke} def
/BoxFill {gsave Rec 1 setgray fill grestore} def
/Density {
  /Fillden exch def
  currentrgbcolor
  /ColB exch def /ColG exch def /ColR exch def
  /ColR ColR Fillden mul Fillden sub 1 add def
  /ColG ColG Fillden mul Fillden sub 1 add def
  /ColB ColB Fillden mul Fillden sub 1 add def
  ColR ColG ColB setrgbcolor} def
/BoxColFill {gsave Rec PolyFill} def
/PolyFill {gsave Density fill grestore grestore} def
/h {rlineto rlineto rlineto gsave closepath fill grestore} bind def
%
% PostScript Level 1 Pattern Fill routine for rectangles
% Usage: x y w h s a XX PatternFill
%	x,y = lower left corner of box to be filled
%	w,h = width and height of box
%	  a = angle in degrees between lines and x-axis
%	 XX = 0/1 for no/yes cross-hatch
%
/PatternFill {gsave /PFa [ 9 2 roll ] def
  PFa 0 get PFa 2 get 2 div add PFa 1 get PFa 3 get 2 div add translate
  PFa 2 get -2 div PFa 3 get -2 div PFa 2 get PFa 3 get Rec
  TransparentPatterns {} {gsave 1 setgray fill grestore} ifelse
  clip
  currentlinewidth 0.5 mul setlinewidth
  /PFs PFa 2 get dup mul PFa 3 get dup mul add sqrt def
  0 0 M PFa 5 get rotate PFs -2 div dup translate
  0 1 PFs PFa 4 get div 1 add floor cvi
	{PFa 4 get mul 0 M 0 PFs V} for
  0 PFa 6 get ne {
	0 1 PFs PFa 4 get div 1 add floor cvi
	{PFa 4 get mul 0 2 1 roll M PFs 0 V} for
 } if
  stroke grestore} def
%
/languagelevel where
 {pop languagelevel} {1} ifelse
dup 2 lt
	{/InterpretLevel1 true def
	 /InterpretLevel3 false def}
	{/InterpretLevel1 Level1 def
	 2 gt
	    {/InterpretLevel3 Level3 def}
	    {/InterpretLevel3 false def}
	 ifelse }
 ifelse
%
% PostScript level 2 pattern fill definitions
%
/Level2PatternFill {
/Tile8x8 {/PaintType 2 /PatternType 1 /TilingType 1 /BBox [0 0 8 8] /XStep 8 /YStep 8}
	bind def
/KeepColor {currentrgbcolor [/Pattern /DeviceRGB] setcolorspace} bind def
<< Tile8x8
 /PaintProc {0.5 setlinewidth pop 0 0 M 8 8 L 0 8 M 8 0 L stroke} 
>> matrix makepattern
/Pat1 exch def
<< Tile8x8
 /PaintProc {0.5 setlinewidth pop 0 0 M 8 8 L 0 8 M 8 0 L stroke
	0 4 M 4 8 L 8 4 L 4 0 L 0 4 L stroke}
>> matrix makepattern
/Pat2 exch def
<< Tile8x8
 /PaintProc {0.5 setlinewidth pop 0 0 M 0 8 L
	8 8 L 8 0 L 0 0 L fill}
>> matrix makepattern
/Pat3 exch def
<< Tile8x8
 /PaintProc {0.5 setlinewidth pop -4 8 M 8 -4 L
	0 12 M 12 0 L stroke}
>> matrix makepattern
/Pat4 exch def
<< Tile8x8
 /PaintProc {0.5 setlinewidth pop -4 0 M 8 12 L
	0 -4 M 12 8 L stroke}
>> matrix makepattern
/Pat5 exch def
<< Tile8x8
 /PaintProc {0.5 setlinewidth pop -2 8 M 4 -4 L
	0 12 M 8 -4 L 4 12 M 10 0 L stroke}
>> matrix makepattern
/Pat6 exch def
<< Tile8x8
 /PaintProc {0.5 setlinewidth pop -2 0 M 4 12 L
	0 -4 M 8 12 L 4 -4 M 10 8 L stroke}
>> matrix makepattern
/Pat7 exch def
<< Tile8x8
 /PaintProc {0.5 setlinewidth pop 8 -2 M -4 4 L
	12 0 M -4 8 L 12 4 M 0 10 L stroke}
>> matrix makepattern
/Pat8 exch def
<< Tile8x8
 /PaintProc {0.5 setlinewidth pop 0 -2 M 12 4 L
	-4 0 M 12 8 L -4 4 M 8 10 L stroke}
>> matrix makepattern
/Pat9 exch def
/Pattern1 {PatternBgnd KeepColor Pat1 setpattern} bind def
/Pattern2 {PatternBgnd KeepColor Pat2 setpattern} bind def
/Pattern3 {PatternBgnd KeepColor Pat3 setpattern} bind def
/Pattern4 {PatternBgnd KeepColor Landscape {Pat5} {Pat4} ifelse setpattern} bind def
/Pattern5 {PatternBgnd KeepColor Landscape {Pat4} {Pat5} ifelse setpattern} bind def
/Pattern6 {PatternBgnd KeepColor Landscape {Pat9} {Pat6} ifelse setpattern} bind def
/Pattern7 {PatternBgnd KeepColor Landscape {Pat8} {Pat7} ifelse setpattern} bind def
} def
%
%
%End of PostScript Level 2 code
%
/PatternBgnd {
  TransparentPatterns {} {gsave 1 setgray fill grestore} ifelse
} def
%
% Substitute for Level 2 pattern fill codes with
% grayscale if Level 2 support is not selected.
%
/Level1PatternFill {
/Pattern1 {0.250 Density} bind def
/Pattern2 {0.500 Density} bind def
/Pattern3 {0.750 Density} bind def
/Pattern4 {0.125 Density} bind def
/Pattern5 {0.375 Density} bind def
/Pattern6 {0.625 Density} bind def
/Pattern7 {0.875 Density} bind def
} def
%
% Now test for support of Level 2 code
%
Level1 {Level1PatternFill} {Level2PatternFill} ifelse
%
/Symbol-Oblique /Symbol findfont [1 0 .167 1 0 0] makefont
dup length dict begin {1 index /FID eq {pop pop} {def} ifelse} forall
currentdict end definefont pop
%
/MFshow {
   { dup 5 get 3 ge
     { 5 get 3 eq {gsave} {grestore} ifelse }
     {dup dup 0 get findfont exch 1 get scalefont setfont
     [ currentpoint ] exch dup 2 get 0 exch R dup 5 get 2 ne {dup dup 6
     get exch 4 get {textshow} {stringwidth pop 0 R} ifelse }if dup 5 get 0 eq
     {dup 3 get {2 get neg 0 exch R pop} {pop aload pop M} ifelse} {dup 5
     get 1 eq {dup 2 get exch dup 3 get exch 6 get stringwidth pop -2 div
     dup 0 R} {dup 6 get stringwidth pop -2 div 0 R 6 get
     textshow 2 index {aload pop M neg 3 -1 roll neg R pop pop} {pop pop pop
     pop aload pop M} ifelse }ifelse }ifelse }
     ifelse }
   forall} def
/Gswidth {dup type /stringtype eq {stringwidth} {pop (n) stringwidth} ifelse} def
/MFwidth {0 exch { dup 5 get 3 ge { 5 get 3 eq { 0 } { pop } ifelse }
 {dup 3 get{dup dup 0 get findfont exch 1 get scalefont setfont
     6 get Gswidth pop add} {pop} ifelse} ifelse} forall} def
/MLshow { currentpoint stroke M
  0 exch R
  Blacktext {gsave 0 setgray MFshow grestore} {MFshow} ifelse } bind def
/MRshow { currentpoint stroke M
  exch dup MFwidth neg 3 -1 roll R
  Blacktext {gsave 0 setgray MFshow grestore} {MFshow} ifelse } bind def
/MCshow { currentpoint stroke M
  exch dup MFwidth -2 div 3 -1 roll R
  Blacktext {gsave 0 setgray MFshow grestore} {MFshow} ifelse } bind def
/XYsave    { [( ) 1 2 true false 3 ()] } bind def
/XYrestore { [( ) 1 2 true false 4 ()] } bind def
Level1 SuppressPDFMark or 
{} {
/SDict 10 dict def
systemdict /pdfmark known not {
  userdict /pdfmark systemdict /cleartomark get put
} if
SDict begin [
  /Title (TcpVegas-2M-ss-1Mbps-UE-increase.eps)
  /Subject (gnuplot plot)
  /Creator (gnuplot 5.0 patchlevel 3)
  /Author (nat)
%  /Producer (gnuplot)
%  /Keywords ()
  /CreationDate (Mon Jul 18 11:04:39 2016)
  /DOCINFO pdfmark
end
} ifelse
%
% Support for boxed text - Ethan A Merritt May 2005
%
/InitTextBox { userdict /TBy2 3 -1 roll put userdict /TBx2 3 -1 roll put
           userdict /TBy1 3 -1 roll put userdict /TBx1 3 -1 roll put
	   /Boxing true def } def
/ExtendTextBox { Boxing
    { gsave dup false charpath pathbbox
      dup TBy2 gt {userdict /TBy2 3 -1 roll put} {pop} ifelse
      dup TBx2 gt {userdict /TBx2 3 -1 roll put} {pop} ifelse
      dup TBy1 lt {userdict /TBy1 3 -1 roll put} {pop} ifelse
      dup TBx1 lt {userdict /TBx1 3 -1 roll put} {pop} ifelse
      grestore } if } def
/PopTextBox { newpath TBx1 TBxmargin sub TBy1 TBymargin sub M
               TBx1 TBxmargin sub TBy2 TBymargin add L
	       TBx2 TBxmargin add TBy2 TBymargin add L
	       TBx2 TBxmargin add TBy1 TBymargin sub L closepath } def
/DrawTextBox { PopTextBox stroke /Boxing false def} def
/FillTextBox { gsave PopTextBox 1 1 1 setrgbcolor fill grestore /Boxing false def} def
0 0 0 0 InitTextBox
/TBxmargin 20 def
/TBymargin 20 def
/Boxing false def
/textshow { ExtendTextBox Gshow } def
%
% redundant definitions for compatibility with prologue.ps older than 5.0.2
/LTB {BL [] LCb DL} def
/LTb {PL [] LCb DL} def
end
%%EndProlog
%%Page: 1 1
gnudict begin
gsave
doclip
50 50 translate
0.050 0.050 scale
0 setgray
newpath
(Arial) findfont 200 scalefont setfont
BackgroundColor 0 lt 3 1 roll 0 lt exch 0 lt or or not {BackgroundColor C 1.000 0 0 14400.00 5040.00 BoxColFill} if
1.000 UL
LTb
0.00 0.00 0.00 C 0.500 UL
LTa
0.50 0.50 0.50 C 1100 820 M
5739 0 V
stroke
1.000 UL
LTb
0.00 0.00 0.00 C 1100 820 M
63 0 V
5676 0 R
-63 0 V
stroke
980 820 M
[ [(Arial) 200.0 0.0 true true 0 ( 700)]
] -66.7 MRshow
1.000 UL
LTb
0.00 0.00 0.00 C 0.500 UL
LTa
0.50 0.50 0.50 C 1100 1272 M
5739 0 V
stroke
1.000 UL
LTb
0.00 0.00 0.00 C 1100 1272 M
63 0 V
5676 0 R
-63 0 V
stroke
980 1272 M
[ [(Arial) 200.0 0.0 true true 0 ( 800)]
] -66.7 MRshow
1.000 UL
LTb
0.00 0.00 0.00 C 0.500 UL
LTa
0.50 0.50 0.50 C 1100 1725 M
5739 0 V
stroke
1.000 UL
LTb
0.00 0.00 0.00 C 1100 1725 M
63 0 V
5676 0 R
-63 0 V
stroke
980 1725 M
[ [(Arial) 200.0 0.0 true true 0 ( 900)]
] -66.7 MRshow
1.000 UL
LTb
0.00 0.00 0.00 C 0.500 UL
LTa
0.50 0.50 0.50 C 1100 2177 M
5739 0 V
stroke
1.000 UL
LTb
0.00 0.00 0.00 C 1100 2177 M
63 0 V
5676 0 R
-63 0 V
stroke
980 2177 M
[ [(Arial) 200.0 0.0 true true 0 ( 1000)]
] -66.7 MRshow
1.000 UL
LTb
0.00 0.00 0.00 C 0.500 UL
LTa
0.50 0.50 0.50 C 1100 2630 M
5739 0 V
stroke
1.000 UL
LTb
0.00 0.00 0.00 C 1100 2630 M
63 0 V
5676 0 R
-63 0 V
stroke
980 2630 M
[ [(Arial) 200.0 0.0 true true 0 ( 1100)]
] -66.7 MRshow
1.000 UL
LTb
0.00 0.00 0.00 C 0.500 UL
LTa
0.50 0.50 0.50 C 1100 3082 M
5739 0 V
stroke
1.000 UL
LTb
0.00 0.00 0.00 C 1100 3082 M
63 0 V
5676 0 R
-63 0 V
stroke
980 3082 M
[ [(Arial) 200.0 0.0 true true 0 ( 1200)]
] -66.7 MRshow
1.000 UL
LTb
0.00 0.00 0.00 C 0.500 UL
LTa
0.50 0.50 0.50 C 1100 3534 M
5739 0 V
stroke
1.000 UL
LTb
0.00 0.00 0.00 C 1100 3534 M
63 0 V
5676 0 R
-63 0 V
stroke
980 3534 M
[ [(Arial) 200.0 0.0 true true 0 ( 1300)]
] -66.7 MRshow
1.000 UL
LTb
0.00 0.00 0.00 C 0.500 UL
LTa
0.50 0.50 0.50 C 1100 3987 M
5739 0 V
stroke
1.000 UL
LTb
0.00 0.00 0.00 C 1100 3987 M
63 0 V
5676 0 R
-63 0 V
stroke
980 3987 M
[ [(Arial) 200.0 0.0 true true 0 ( 1400)]
] -66.7 MRshow
1.000 UL
LTb
0.00 0.00 0.00 C 0.500 UL
LTa
0.50 0.50 0.50 C 1100 4439 M
5739 0 V
stroke
1.000 UL
LTb
0.00 0.00 0.00 C 1100 4439 M
63 0 V
5676 0 R
-63 0 V
stroke
980 4439 M
[ [(Arial) 200.0 0.0 true true 0 ( 1500)]
] -66.7 MRshow
1.000 UL
LTb
0.00 0.00 0.00 C 0.500 UL
LTa
0.50 0.50 0.50 C 1674 820 M
0 3619 V
stroke
1.000 UL
LTb
0.00 0.00 0.00 C 1674 820 M
0 63 V
0 3556 R
0 -63 V
stroke
1674 620 M
[ [(Arial) 200.0 0.0 true true 0 (1)]
] -66.7 MCshow
1.000 UL
LTb
0.00 0.00 0.00 C 0.500 UL
LTa
0.50 0.50 0.50 C 2822 820 M
0 3619 V
stroke
1.000 UL
LTb
0.00 0.00 0.00 C 2822 820 M
0 63 V
0 3556 R
0 -63 V
stroke
2822 620 M
[ [(Arial) 200.0 0.0 true true 0 (2)]
] -66.7 MCshow
1.000 UL
LTb
0.00 0.00 0.00 C 0.500 UL
LTa
0.50 0.50 0.50 C 3970 820 M
0 3619 V
stroke
1.000 UL
LTb
0.00 0.00 0.00 C 3970 820 M
0 63 V
0 3556 R
0 -63 V
stroke
3970 620 M
[ [(Arial) 200.0 0.0 true true 0 (4)]
] -66.7 MCshow
1.000 UL
LTb
0.00 0.00 0.00 C 0.500 UL
LTa
0.50 0.50 0.50 C 5117 820 M
0 3619 V
stroke
1.000 UL
LTb
0.00 0.00 0.00 C 5117 820 M
0 63 V
0 3556 R
0 -63 V
stroke
5117 620 M
[ [(Arial) 200.0 0.0 true true 0 (8)]
] -66.7 MCshow
1.000 UL
LTb
0.00 0.00 0.00 C 0.500 UL
LTa
0.50 0.50 0.50 C 6265 820 M
0 3619 V
stroke
1.000 UL
LTb
0.00 0.00 0.00 C 6265 820 M
0 63 V
0 3556 R
0 -63 V
stroke
6265 620 M
[ [(Arial) 200.0 0.0 true true 0 (16)]
] -66.7 MCshow
1.000 UL
LTb
0.00 0.00 0.00 C 1.000 UL
LTB
0.00 0.00 0.00 C 1100 4439 M
0 -3619 V
5739 0 V
0 3619 R
-5739 0 R
1.000 UP
stroke
LTb
0.00 0.00 0.00 C LCb setrgbcolor
160 2629 M
currentpoint gsave translate -270 rotate 0 0 moveto
[ [(Arial) 200.0 0.0 true true 0 (RTT \(ms\))]
] -66.7 MCshow
grestore
LTb
LCb setrgbcolor
3969 320 M
[ [(Arial) 200.0 0.0 true true 0 (Flows #)]
] -66.7 MCshow
LTb
LCb setrgbcolor
3969 4739 M
[ [(Arial) 200.0 0.0 true true 0 (a\) RTT)]
] -66.7 MCshow
% Begin plot #1
1.000 UL
LTb
0.60 0.60 0.00 C LCb setrgbcolor
2714 153 M
[ [(Arial) 180.0 0.0 true true 0 (olsr)]
] -60.0 MRshow
1.000 UL
LTb
0.60 0.60 0.00 C 2822 108 333 90 80 -45 0 PatternFill
2822 108 N
333 0 V
0 90 V
-333 0 V
0 -90 V
Z stroke
1.000 UL
LTb
0.60 0.60 0.00 C 1215 1053 230 65 80 -45 0 PatternFill
1330 1045 M
0 8 V
0 65 R
0 115 V
stroke
1215 1053 N
230 0 V
0 65 V
-230 0 V
0 -65 V
Z stroke
1215 1233 M
230 0 V
1215 1045 M
230 0 V
stroke
2363 1043 230 89 80 -45 0 PatternFill
2478 1028 M
0 15 V
0 89 R
0 130 V
stroke
2363 1043 N
230 0 V
0 89 V
-230 0 V
0 -89 V
Z stroke
2363 1262 M
230 0 V
2363 1028 M
230 0 V
stroke
3510 1024 230 104 80 -45 0 PatternFill
3625 1000 M
0 24 V
0 104 R
0 249 V
stroke
3510 1024 N
230 0 V
0 104 V
-230 0 V
0 -104 V
Z stroke
3510 1377 M
230 0 V
3510 1000 M
230 0 V
stroke
4658 1038 230 143 80 -45 0 PatternFill
4773 1005 M
0 33 V
0 143 R
0 229 V
stroke
4658 1038 N
230 0 V
0 143 V
-230 0 V
0 -143 V
Z stroke
4658 1410 M
230 0 V
4658 1005 M
230 0 V
stroke
5806 1096 230 387 80 -45 0 PatternFill
5921 1019 M
0 77 V
0 387 R
0 926 V
stroke
5806 1096 N
230 0 V
0 387 V
-230 0 V
0 -387 V
Z stroke
5806 2409 M
230 0 V
5806 1019 M
230 0 V
% End plot #1
% Begin plot #2
stroke
LTb
LCb setrgbcolor

 /TransparentPatterns true def
1215 1087 230 0 40 30 0 PatternFill
1330 1087 M
stroke
1215 1087 N
230 0 V
-230 0 V
Z stroke
1215 1087 M
230 0 V
-230 0 R
230 0 V
stroke

 /TransparentPatterns true def
2363 1089 230 0 40 30 0 PatternFill
2478 1089 M
stroke
2363 1089 N
230 0 V
-230 0 V
Z stroke
2363 1089 M
230 0 V
-230 0 R
230 0 V
stroke

 /TransparentPatterns true def
3510 1085 230 0 40 30 0 PatternFill
3625 1085 M
stroke
3510 1085 N
230 0 V
-230 0 V
Z stroke
3510 1085 M
230 0 V
-230 0 R
230 0 V
stroke

 /TransparentPatterns true def
4658 1114 230 0 40 30 0 PatternFill
4773 1114 M
stroke
4658 1114 N
230 0 V
-230 0 V
Z stroke
4658 1114 M
230 0 V
-230 0 R
230 0 V
stroke

 /TransparentPatterns true def
5806 1329 230 0 40 30 0 PatternFill
5921 1329 M
stroke
5806 1329 N
230 0 V
-230 0 V
Z stroke
5806 1329 M
230 0 V
-230 0 R
230 0 V
% End plot #2
% Begin plot #3
stroke
LTb
0.00 0.00 0.63 C LCb setrgbcolor
4127 153 M
[ [(Arial) 180.0 0.0 true true 0 (per-packet)]
] -60.0 MRshow
1.000 UL
LTb
0.00 0.00 0.63 C 4235 108 333 90 80 45 0 PatternFill
4235 108 N
333 0 V
0 90 V
-333 0 V
0 -90 V
Z stroke
1.000 UL
LTb
0.00 0.00 0.63 C 1559 1052 230 66 80 45 0 PatternFill
1674 1045 M
0 7 V
0 66 R
0 137 V
stroke
1559 1052 N
230 0 V
0 66 V
-230 0 V
0 -66 V
Z stroke
1559 1255 M
230 0 V
1559 1045 M
230 0 V
stroke
2707 1046 230 87 80 45 0 PatternFill
2822 1033 M
0 13 V
0 87 R
0 149 V
stroke
2707 1046 N
230 0 V
0 87 V
-230 0 V
0 -87 V
Z stroke
2707 1282 M
230 0 V
2707 1033 M
230 0 V
stroke
3855 1022 230 109 80 45 0 PatternFill
3970 1000 M
0 22 V
0 109 R
0 245 V
stroke
3855 1022 N
230 0 V
0 109 V
-230 0 V
0 -109 V
Z stroke
3855 1376 M
230 0 V
3855 1000 M
230 0 V
stroke
5003 1048 230 172 80 45 0 PatternFill
5118 1008 M
0 40 V
0 172 R
0 251 V
stroke
5003 1048 N
230 0 V
0 172 V
-230 0 V
0 -172 V
Z stroke
5003 1471 M
230 0 V
5003 1008 M
230 0 V
stroke
6150 1114 230 1002 80 45 0 PatternFill
6265 1012 M
0 102 V
0 1002 R
0 378 V
stroke
6150 1114 N
230 0 V
0 1002 V
-230 0 V
0 -1002 V
Z stroke
6150 2494 M
230 0 V
6150 1012 M
230 0 V
% End plot #3
% Begin plot #4
stroke
LTb
LCb setrgbcolor

 /TransparentPatterns true def
1559 1088 230 0 80 -45 0 PatternFill
1674 1088 M
stroke
1559 1088 N
230 0 V
-230 0 V
Z stroke
1559 1088 M
230 0 V
-230 0 R
230 0 V
stroke

 /TransparentPatterns true def
2707 1090 230 0 80 -45 0 PatternFill
2822 1090 M
stroke
2707 1090 N
230 0 V
-230 0 V
Z stroke
2707 1090 M
230 0 V
-230 0 R
230 0 V
stroke

 /TransparentPatterns true def
3855 1083 230 0 80 -45 0 PatternFill
3970 1083 M
stroke
3855 1083 N
230 0 V
-230 0 V
Z stroke
3855 1083 M
230 0 V
-230 0 R
230 0 V
stroke

 /TransparentPatterns true def
5003 1138 230 0 80 -45 0 PatternFill
5118 1138 M
stroke
5003 1138 N
230 0 V
-230 0 V
Z stroke
5003 1138 M
230 0 V
-230 0 R
230 0 V
stroke

 /TransparentPatterns true def
6150 1546 230 0 80 -45 0 PatternFill
6265 1546 M
stroke
6150 1546 N
230 0 V
-230 0 V
Z stroke
6150 1546 M
230 0 V
-230 0 R
230 0 V
% End plot #4
% Begin plot #5
stroke
LTb
0.00 0.38 0.82 C LCb setrgbcolor
5540 153 M
[ [(Arial) 180.0 0.0 true true 0 (per-flow)]
] -60.0 MRshow
1.000 UL
LTb
0.00 0.38 0.82 C 5648 108 333 90 40 30 0 PatternFill
5648 108 N
333 0 V
0 90 V
-333 0 V
0 -90 V
Z stroke
1.000 UL
LTb
0.00 0.38 0.82 C 1903 1052 230 66 40 30 0 PatternFill
2018 1045 M
0 7 V
0 66 R
0 137 V
stroke
1903 1052 N
230 0 V
0 66 V
-230 0 V
0 -66 V
Z stroke
1903 1255 M
230 0 V
1903 1045 M
230 0 V
stroke
3051 1046 230 87 40 30 0 PatternFill
3166 1033 M
0 13 V
0 87 R
0 149 V
stroke
3051 1046 N
230 0 V
0 87 V
-230 0 V
0 -87 V
Z stroke
3051 1282 M
230 0 V
3051 1033 M
230 0 V
stroke
4199 1022 230 109 40 30 0 PatternFill
4314 1000 M
0 22 V
0 109 R
0 245 V
stroke
4199 1022 N
230 0 V
0 109 V
-230 0 V
0 -109 V
Z stroke
4199 1376 M
230 0 V
4199 1000 M
230 0 V
stroke
5347 1049 230 150 40 30 0 PatternFill
5462 1007 M
0 42 V
0 150 R
0 224 V
stroke
5347 1049 N
230 0 V
0 150 V
-230 0 V
0 -150 V
Z stroke
5347 1423 M
230 0 V
5347 1007 M
230 0 V
stroke
6495 1178 230 1277 40 30 0 PatternFill
6610 1017 M
0 161 V
0 1277 R
0 410 V
stroke
6495 1178 N
230 0 V
0 1277 V
-230 0 V
0 -1277 V
Z stroke
6495 2865 M
230 0 V
6495 1017 M
230 0 V
% End plot #5
% Begin plot #6
stroke
LTb
LCb setrgbcolor

 /TransparentPatterns true def
1903 1088 230 0 40 -30 0 PatternFill
2018 1088 M
stroke
1903 1088 N
230 0 V
-230 0 V
Z stroke
1903 1088 M
230 0 V
-230 0 R
230 0 V
stroke

 /TransparentPatterns true def
3051 1090 230 0 40 -30 0 PatternFill
3166 1090 M
stroke
3051 1090 N
230 0 V
-230 0 V
Z stroke
3051 1090 M
230 0 V
-230 0 R
230 0 V
stroke

 /TransparentPatterns true def
4199 1083 230 0 40 -30 0 PatternFill
4314 1083 M
stroke
4199 1083 N
230 0 V
-230 0 V
Z stroke
4199 1083 M
230 0 V
-230 0 R
230 0 V
stroke

 /TransparentPatterns true def
5347 1128 230 0 40 -30 0 PatternFill
5462 1128 M
stroke
5347 1128 N
230 0 V
-230 0 V
Z stroke
5347 1128 M
230 0 V
-230 0 R
230 0 V
stroke

 /TransparentPatterns true def
6495 1763 230 0 40 -30 0 PatternFill
6610 1763 M
stroke
6495 1763 N
230 0 V
-230 0 V
Z stroke
6495 1763 M
230 0 V
-230 0 R
230 0 V
% End plot #6
stroke
2.000 UL
LTb
LCb setrgbcolor
1.000 UP
1.000 UL
LTb
0.00 0.00 0.00 C 1.000 UL
LTb
0.00 0.00 0.00 C 0.500 UL
LTa
0.50 0.50 0.50 C 8060 820 M
5979 0 V
stroke
1.000 UL
LTb
0.00 0.00 0.00 C 8060 820 M
63 0 V
5916 0 R
-63 0 V
stroke
7940 820 M
[ [(Arial) 200.0 0.0 true true 0 ( 5)]
] -66.7 MRshow
1.000 UL
LTb
0.00 0.00 0.00 C 0.500 UL
LTa
0.50 0.50 0.50 C 8060 1182 M
5979 0 V
stroke
1.000 UL
LTb
0.00 0.00 0.00 C 8060 1182 M
63 0 V
5916 0 R
-63 0 V
stroke
7940 1182 M
[ [(Arial) 200.0 0.0 true true 0 ( 10)]
] -66.7 MRshow
1.000 UL
LTb
0.00 0.00 0.00 C 0.500 UL
LTa
0.50 0.50 0.50 C 8060 1544 M
5979 0 V
stroke
1.000 UL
LTb
0.00 0.00 0.00 C 8060 1544 M
63 0 V
5916 0 R
-63 0 V
stroke
7940 1544 M
[ [(Arial) 200.0 0.0 true true 0 ( 15)]
] -66.7 MRshow
1.000 UL
LTb
0.00 0.00 0.00 C 0.500 UL
LTa
0.50 0.50 0.50 C 8060 1906 M
5979 0 V
stroke
1.000 UL
LTb
0.00 0.00 0.00 C 8060 1906 M
63 0 V
5916 0 R
-63 0 V
stroke
7940 1906 M
[ [(Arial) 200.0 0.0 true true 0 ( 20)]
] -66.7 MRshow
1.000 UL
LTb
0.00 0.00 0.00 C 0.500 UL
LTa
0.50 0.50 0.50 C 8060 2268 M
5979 0 V
stroke
1.000 UL
LTb
0.00 0.00 0.00 C 8060 2268 M
63 0 V
5916 0 R
-63 0 V
stroke
7940 2268 M
[ [(Arial) 200.0 0.0 true true 0 ( 25)]
] -66.7 MRshow
1.000 UL
LTb
0.00 0.00 0.00 C 0.500 UL
LTa
0.50 0.50 0.50 C 8060 2630 M
5979 0 V
stroke
1.000 UL
LTb
0.00 0.00 0.00 C 8060 2630 M
63 0 V
5916 0 R
-63 0 V
stroke
7940 2630 M
[ [(Arial) 200.0 0.0 true true 0 ( 30)]
] -66.7 MRshow
1.000 UL
LTb
0.00 0.00 0.00 C 0.500 UL
LTa
0.50 0.50 0.50 C 8060 2991 M
5979 0 V
stroke
1.000 UL
LTb
0.00 0.00 0.00 C 8060 2991 M
63 0 V
5916 0 R
-63 0 V
stroke
7940 2991 M
[ [(Arial) 200.0 0.0 true true 0 ( 35)]
] -66.7 MRshow
1.000 UL
LTb
0.00 0.00 0.00 C 0.500 UL
LTa
0.50 0.50 0.50 C 8060 3353 M
5979 0 V
stroke
1.000 UL
LTb
0.00 0.00 0.00 C 8060 3353 M
63 0 V
5916 0 R
-63 0 V
stroke
7940 3353 M
[ [(Arial) 200.0 0.0 true true 0 ( 40)]
] -66.7 MRshow
1.000 UL
LTb
0.00 0.00 0.00 C 0.500 UL
LTa
0.50 0.50 0.50 C 8060 3715 M
5979 0 V
stroke
1.000 UL
LTb
0.00 0.00 0.00 C 8060 3715 M
63 0 V
5916 0 R
-63 0 V
stroke
7940 3715 M
[ [(Arial) 200.0 0.0 true true 0 ( 45)]
] -66.7 MRshow
1.000 UL
LTb
0.00 0.00 0.00 C 0.500 UL
LTa
0.50 0.50 0.50 C 8060 4077 M
5979 0 V
stroke
1.000 UL
LTb
0.00 0.00 0.00 C 8060 4077 M
63 0 V
5916 0 R
-63 0 V
stroke
7940 4077 M
[ [(Arial) 200.0 0.0 true true 0 ( 50)]
] -66.7 MRshow
1.000 UL
LTb
0.00 0.00 0.00 C 0.500 UL
LTa
0.50 0.50 0.50 C 8060 4439 M
5979 0 V
stroke
1.000 UL
LTb
0.00 0.00 0.00 C 8060 4439 M
63 0 V
5916 0 R
-63 0 V
stroke
7940 4439 M
[ [(Arial) 200.0 0.0 true true 0 ( 55)]
] -66.7 MRshow
1.000 UL
LTb
0.00 0.00 0.00 C 0.500 UL
LTa
0.50 0.50 0.50 C 8658 820 M
0 3619 V
stroke
1.000 UL
LTb
0.00 0.00 0.00 C 8658 820 M
0 63 V
0 3556 R
0 -63 V
stroke
8658 620 M
[ [(Arial) 200.0 0.0 true true 0 (1)]
] -66.7 MCshow
1.000 UL
LTb
0.00 0.00 0.00 C 0.500 UL
LTa
0.50 0.50 0.50 C 9854 820 M
0 3619 V
stroke
1.000 UL
LTb
0.00 0.00 0.00 C 9854 820 M
0 63 V
0 3556 R
0 -63 V
stroke
9854 620 M
[ [(Arial) 200.0 0.0 true true 0 (2)]
] -66.7 MCshow
1.000 UL
LTb
0.00 0.00 0.00 C 0.500 UL
LTa
0.50 0.50 0.50 C 11050 820 M
0 3619 V
stroke
1.000 UL
LTb
0.00 0.00 0.00 C 11050 820 M
0 63 V
0 3556 R
0 -63 V
stroke
11050 620 M
[ [(Arial) 200.0 0.0 true true 0 (4)]
] -66.7 MCshow
1.000 UL
LTb
0.00 0.00 0.00 C 0.500 UL
LTa
0.50 0.50 0.50 C 12245 820 M
0 3619 V
stroke
1.000 UL
LTb
0.00 0.00 0.00 C 12245 820 M
0 63 V
0 3556 R
0 -63 V
stroke
12245 620 M
[ [(Arial) 200.0 0.0 true true 0 (8)]
] -66.7 MCshow
1.000 UL
LTb
0.00 0.00 0.00 C 0.500 UL
LTa
0.50 0.50 0.50 C 13441 820 M
0 3619 V
stroke
1.000 UL
LTb
0.00 0.00 0.00 C 13441 820 M
0 63 V
0 3556 R
0 -63 V
stroke
13441 620 M
[ [(Arial) 200.0 0.0 true true 0 (16)]
] -66.7 MCshow
1.000 UL
LTb
0.00 0.00 0.00 C 1.000 UL
LTB
0.00 0.00 0.00 C 8060 4439 M
0 -3619 V
5979 0 V
0 3619 R
-5979 0 R
1.000 UP
stroke
LTb
0.00 0.00 0.00 C LCb setrgbcolor
7360 2629 M
currentpoint gsave translate -270 rotate 0 0 moveto
[ [(Arial) 200.0 0.0 true true 0 (File download time \(s\))]
] -66.7 MCshow
grestore
LTb
LCb setrgbcolor
11049 320 M
[ [(Arial) 200.0 0.0 true true 0 (Flows #)]
] -66.7 MCshow
LTb
LCb setrgbcolor
11049 4739 M
[ [(Arial) 200.0 0.0 true true 0 (b\) File download time)]
] -66.7 MCshow
% Begin plot #1
1.000 UL
LTb
0.60 0.60 0.00 C LCb setrgbcolor
9794 153 M
[ [(Arial) 180.0 0.0 true true 0 (olsr)]
] -60.0 MRshow
1.000 UL
LTb
0.60 0.60 0.00 C 9902 108 333 90 80 -45 0 PatternFill
9902 108 N
333 0 V
0 90 V
-333 0 V
0 -90 V
Z stroke
1.000 UL
LTb
0.60 0.60 0.00 C 8180 2011 240 0 80 -45 0 PatternFill
8300 2011 M
stroke
8180 2011 N
240 0 V
-240 0 V
Z stroke
8180 2011 M
240 0 V
-240 0 R
240 0 V
stroke
9375 2119 240 324 80 -45 0 PatternFill
9495 2011 M
0 108 V
0 324 R
0 108 V
stroke
9375 2119 N
240 0 V
0 324 V
-240 0 V
0 -324 V
Z stroke
9375 2551 M
240 0 V
9375 2011 M
240 0 V
stroke
10571 2351 240 270 80 -45 0 PatternFill
10691 2029 M
0 322 V
0 270 R
0 21 V
stroke
10571 2351 N
240 0 V
0 270 V
-240 0 V
0 -270 V
Z stroke
10571 2642 M
240 0 V
-240 -613 R
240 0 V
stroke
11767 2132 240 546 80 -45 0 PatternFill
11887 1321 M
0 811 V
0 546 R
0 31 V
stroke
11767 2132 N
240 0 V
0 546 V
-240 0 V
0 -546 V
Z stroke
11767 2709 M
240 0 V
11767 1321 M
240 0 V
stroke
12963 1978 240 1839 80 -45 0 PatternFill
13083 1343 M
0 635 V
0 1839 R
0 265 V
stroke
12963 1978 N
240 0 V
0 1839 V
-240 0 V
0 -1839 V
Z stroke
12963 4082 M
240 0 V
12963 1343 M
240 0 V
% End plot #1
% Begin plot #2
stroke
LTb
LCb setrgbcolor

 /TransparentPatterns true def
8180 2011 240 0 40 30 0 PatternFill
8300 2011 M
stroke
8180 2011 N
240 0 V
-240 0 V
Z stroke
8180 2011 M
240 0 V
-240 0 R
240 0 V
stroke

 /TransparentPatterns true def
9375 2281 240 0 40 30 0 PatternFill
9495 2281 M
stroke
9375 2281 N
240 0 V
-240 0 V
Z stroke
9375 2281 M
240 0 V
-240 0 R
240 0 V
stroke

 /TransparentPatterns true def
10571 2461 240 0 40 30 0 PatternFill
10691 2461 M
stroke
10571 2461 N
240 0 V
-240 0 V
Z stroke
10571 2461 M
240 0 V
-240 0 R
240 0 V
stroke

 /TransparentPatterns true def
11767 2369 240 0 40 30 0 PatternFill
11887 2369 M
stroke
11767 2369 N
240 0 V
-240 0 V
Z stroke
11767 2369 M
240 0 V
-240 0 R
240 0 V
stroke

 /TransparentPatterns true def
12963 2852 240 0 40 30 0 PatternFill
13083 2852 M
stroke
12963 2852 N
240 0 V
-240 0 V
Z stroke
12963 2852 M
240 0 V
-240 0 R
240 0 V
% End plot #2
% Begin plot #3
stroke
LTb
0.00 0.00 0.63 C LCb setrgbcolor
11207 153 M
[ [(Arial) 180.0 0.0 true true 0 (per-packet)]
] -60.0 MRshow
1.000 UL
LTb
0.00 0.00 0.63 C 11315 108 333 90 80 45 0 PatternFill
11315 108 N
333 0 V
0 90 V
-333 0 V
0 -90 V
Z stroke
1.000 UL
LTb
0.00 0.00 0.63 C 8538 1359 240 0 80 45 0 PatternFill
8658 1359 M
stroke
8538 1359 N
240 0 V
-240 0 V
Z stroke
8538 1359 M
240 0 V
-240 0 R
240 0 V
stroke
9734 1466 240 326 80 45 0 PatternFill
9854 1358 M
0 108 V
0 326 R
0 109 V
stroke
9734 1466 N
240 0 V
0 326 V
-240 0 V
0 -326 V
Z stroke
9734 1901 M
240 0 V
9734 1358 M
240 0 V
stroke
10930 1690 240 254 80 45 0 PatternFill
11050 1358 M
0 332 V
0 254 R
0 48 V
stroke
10930 1690 N
240 0 V
0 254 V
-240 0 V
0 -254 V
Z stroke
10930 1992 M
240 0 V
-240 -634 R
240 0 V
stroke
12126 1978 240 505 80 45 0 PatternFill
12246 1366 M
0 612 V
0 505 R
0 255 V
stroke
12126 1978 N
240 0 V
0 505 V
-240 0 V
0 -505 V
Z stroke
12126 2738 M
240 0 V
12126 1366 M
240 0 V
stroke
13322 2373 240 600 80 45 0 PatternFill
13442 1654 M
0 719 V
0 600 R
0 1177 V
stroke
13322 2373 N
240 0 V
0 600 V
-240 0 V
0 -600 V
Z stroke
13322 4150 M
240 0 V
13322 1654 M
240 0 V
% End plot #3
% Begin plot #4
stroke
LTb
LCb setrgbcolor

 /TransparentPatterns true def
8538 1359 240 0 80 -45 0 PatternFill
8658 1359 M
stroke
8538 1359 N
240 0 V
-240 0 V
Z stroke
8538 1359 M
240 0 V
-240 0 R
240 0 V
stroke

 /TransparentPatterns true def
9734 1629 240 0 80 -45 0 PatternFill
9854 1629 M
stroke
9734 1629 N
240 0 V
-240 0 V
Z stroke
9734 1629 M
240 0 V
-240 0 R
240 0 V
stroke

 /TransparentPatterns true def
10930 1793 240 0 80 -45 0 PatternFill
11050 1793 M
stroke
10930 1793 N
240 0 V
-240 0 V
Z stroke
10930 1793 M
240 0 V
-240 0 R
240 0 V
stroke

 /TransparentPatterns true def
12126 2136 240 0 80 -45 0 PatternFill
12246 2136 M
stroke
12126 2136 N
240 0 V
-240 0 V
Z stroke
12126 2136 M
240 0 V
-240 0 R
240 0 V
stroke

 /TransparentPatterns true def
13322 2613 240 0 80 -45 0 PatternFill
13442 2613 M
stroke
13322 2613 N
240 0 V
-240 0 V
Z stroke
13322 2613 M
240 0 V
-240 0 R
240 0 V
% End plot #4
% Begin plot #5
stroke
LTb
0.00 0.38 0.82 C LCb setrgbcolor
12620 153 M
[ [(Arial) 180.0 0.0 true true 0 (per-flow)]
] -60.0 MRshow
1.000 UL
LTb
0.00 0.38 0.82 C 12728 108 333 90 40 30 0 PatternFill
12728 108 N
333 0 V
0 90 V
-333 0 V
0 -90 V
Z stroke
1.000 UL
LTb
0.00 0.38 0.82 C 8897 1359 240 0 40 30 0 PatternFill
9017 1359 M
stroke
8897 1359 N
240 0 V
-240 0 V
Z stroke
8897 1359 M
240 0 V
-240 0 R
240 0 V
stroke
10093 1466 240 326 40 30 0 PatternFill
10213 1358 M
0 108 V
0 326 R
0 109 V
stroke
10093 1466 N
240 0 V
0 326 V
-240 0 V
0 -326 V
Z stroke
10093 1901 M
240 0 V
-240 -543 R
240 0 V
stroke
11289 1690 240 254 40 30 0 PatternFill
11409 1358 M
0 332 V
0 254 R
0 48 V
stroke
11289 1690 N
240 0 V
0 254 V
-240 0 V
0 -254 V
Z stroke
11289 1992 M
240 0 V
-240 -634 R
240 0 V
stroke
12484 1781 240 258 40 30 0 PatternFill
12604 1362 M
0 419 V
0 258 R
0 27 V
stroke
12484 1781 N
240 0 V
0 258 V
-240 0 V
0 -258 V
Z stroke
12484 2066 M
240 0 V
-240 -704 R
240 0 V
stroke
13680 2461 240 123 40 30 0 PatternFill
13800 1724 M
0 737 V
0 123 R
0 754 V
stroke
13680 2461 N
240 0 V
0 123 V
-240 0 V
0 -123 V
Z stroke
13680 3338 M
240 0 V
13680 1724 M
240 0 V
% End plot #5
% Begin plot #6
stroke
LTb
LCb setrgbcolor

 /TransparentPatterns true def
8897 1359 240 0 40 -30 0 PatternFill
9017 1359 M
stroke
8897 1359 N
240 0 V
-240 0 V
Z stroke
8897 1359 M
240 0 V
-240 0 R
240 0 V
stroke

 /TransparentPatterns true def
10093 1629 240 0 40 -30 0 PatternFill
10213 1629 M
stroke
10093 1629 N
240 0 V
-240 0 V
Z stroke
10093 1629 M
240 0 V
-240 0 R
240 0 V
stroke

 /TransparentPatterns true def
11289 1793 240 0 40 -30 0 PatternFill
11409 1793 M
stroke
11289 1793 N
240 0 V
-240 0 V
Z stroke
11289 1793 M
240 0 V
-240 0 R
240 0 V
stroke

 /TransparentPatterns true def
12484 1893 240 0 40 -30 0 PatternFill
12604 1893 M
stroke
12484 1893 N
240 0 V
-240 0 V
Z stroke
12484 1893 M
240 0 V
-240 0 R
240 0 V
stroke

 /TransparentPatterns true def
13680 2521 240 0 40 -30 0 PatternFill
13800 2521 M
stroke
13680 2521 N
240 0 V
-240 0 V
Z stroke
13680 2521 M
240 0 V
-240 0 R
240 0 V
% End plot #6
stroke
2.000 UL
LTb
LCb setrgbcolor
1.000 UP
1.000 UL
LTb
0.00 0.00 0.00 C stroke
grestore
end
showpage
%%Trailer
%%DocumentFonts: Arial
