%!PS-Adobe-2.0 EPSF-2.0
%%Title: TcpVegas-10M-ss-200Mbps-UE-increase.eps
%%Creator: gnuplot 5.0 patchlevel 3
%%CreationDate: Fri Jul 15 15:45:04 2016
%%DocumentFonts: (atend)
%%BoundingBox: 50 50 770 302
%%EndComments
%%BeginProlog
/gnudict 256 dict def
gnudict begin
%
% The following true/false flags may be edited by hand if desired.
% The unit line width and grayscale image gamma correction may also be changed.
%
/Color true def
/Blacktext false def
/Solid false def
/Dashlength 3 def
/Landscape false def
/Level1 false def
/Level3 false def
/Rounded false def
/ClipToBoundingBox false def
/SuppressPDFMark false def
/TransparentPatterns false def
/gnulinewidth 15.000 def
/userlinewidth gnulinewidth def
/Gamma 1.0 def
/BackgroundColor {-1.000 -1.000 -1.000} def
%
/vshift -66 def
/dl1 {
  10.0 Dashlength userlinewidth gnulinewidth div mul mul mul
  Rounded { currentlinewidth 0.75 mul sub dup 0 le { pop 0.01 } if } if
} def
/dl2 {
  10.0 Dashlength userlinewidth gnulinewidth div mul mul mul
  Rounded { currentlinewidth 0.75 mul add } if
} def
/hpt_ 31.5 def
/vpt_ 31.5 def
/hpt hpt_ def
/vpt vpt_ def
/doclip {
  ClipToBoundingBox {
    newpath 50 50 moveto 770 50 lineto 770 302 lineto 50 302 lineto closepath
    clip
  } if
} def
%
% Gnuplot Prolog Version 5.1 (Oct 2015)
%
%/SuppressPDFMark true def
%
/M {moveto} bind def
/L {lineto} bind def
/R {rmoveto} bind def
/V {rlineto} bind def
/N {newpath moveto} bind def
/Z {closepath} bind def
/C {setrgbcolor} bind def
/f {rlineto fill} bind def
/g {setgray} bind def
/Gshow {show} def   % May be redefined later in the file to support UTF-8
/vpt2 vpt 2 mul def
/hpt2 hpt 2 mul def
/Lshow {currentpoint stroke M 0 vshift R 
	Blacktext {gsave 0 setgray textshow grestore} {textshow} ifelse} def
/Rshow {currentpoint stroke M dup stringwidth pop neg vshift R
	Blacktext {gsave 0 setgray textshow grestore} {textshow} ifelse} def
/Cshow {currentpoint stroke M dup stringwidth pop -2 div vshift R 
	Blacktext {gsave 0 setgray textshow grestore} {textshow} ifelse} def
/UP {dup vpt_ mul /vpt exch def hpt_ mul /hpt exch def
  /hpt2 hpt 2 mul def /vpt2 vpt 2 mul def} def
/DL {Color {setrgbcolor Solid {pop []} if 0 setdash}
 {pop pop pop 0 setgray Solid {pop []} if 0 setdash} ifelse} def
/BL {stroke userlinewidth 2 mul setlinewidth
	Rounded {1 setlinejoin 1 setlinecap} if} def
/AL {stroke userlinewidth 2 div setlinewidth
	Rounded {1 setlinejoin 1 setlinecap} if} def
/UL {dup gnulinewidth mul /userlinewidth exch def
	dup 1 lt {pop 1} if 10 mul /udl exch def} def
/PL {stroke userlinewidth setlinewidth
	Rounded {1 setlinejoin 1 setlinecap} if} def
3.8 setmiterlimit
% Classic Line colors (version 5.0)
/LCw {1 1 1} def
/LCb {0 0 0} def
/LCa {0 0 0} def
/LC0 {1 0 0} def
/LC1 {0 1 0} def
/LC2 {0 0 1} def
/LC3 {1 0 1} def
/LC4 {0 1 1} def
/LC5 {1 1 0} def
/LC6 {0 0 0} def
/LC7 {1 0.3 0} def
/LC8 {0.5 0.5 0.5} def
% Default dash patterns (version 5.0)
/LTB {BL [] LCb DL} def
/LTw {PL [] 1 setgray} def
/LTb {PL [] LCb DL} def
/LTa {AL [1 udl mul 2 udl mul] 0 setdash LCa setrgbcolor} def
/LT0 {PL [] LC0 DL} def
/LT1 {PL [2 dl1 3 dl2] LC1 DL} def
/LT2 {PL [1 dl1 1.5 dl2] LC2 DL} def
/LT3 {PL [6 dl1 2 dl2 1 dl1 2 dl2] LC3 DL} def
/LT4 {PL [1 dl1 2 dl2 6 dl1 2 dl2 1 dl1 2 dl2] LC4 DL} def
/LT5 {PL [4 dl1 2 dl2] LC5 DL} def
/LT6 {PL [1.5 dl1 1.5 dl2 1.5 dl1 1.5 dl2 1.5 dl1 6 dl2] LC6 DL} def
/LT7 {PL [3 dl1 3 dl2 1 dl1 3 dl2] LC7 DL} def
/LT8 {PL [2 dl1 2 dl2 2 dl1 6 dl2] LC8 DL} def
/SL {[] 0 setdash} def
/Pnt {stroke [] 0 setdash gsave 1 setlinecap M 0 0 V stroke grestore} def
/Dia {stroke [] 0 setdash 2 copy vpt add M
  hpt neg vpt neg V hpt vpt neg V
  hpt vpt V hpt neg vpt V closepath stroke
  Pnt} def
/Pls {stroke [] 0 setdash vpt sub M 0 vpt2 V
  currentpoint stroke M
  hpt neg vpt neg R hpt2 0 V stroke
 } def
/Box {stroke [] 0 setdash 2 copy exch hpt sub exch vpt add M
  0 vpt2 neg V hpt2 0 V 0 vpt2 V
  hpt2 neg 0 V closepath stroke
  Pnt} def
/Crs {stroke [] 0 setdash exch hpt sub exch vpt add M
  hpt2 vpt2 neg V currentpoint stroke M
  hpt2 neg 0 R hpt2 vpt2 V stroke} def
/TriU {stroke [] 0 setdash 2 copy vpt 1.12 mul add M
  hpt neg vpt -1.62 mul V
  hpt 2 mul 0 V
  hpt neg vpt 1.62 mul V closepath stroke
  Pnt} def
/Star {2 copy Pls Crs} def
/BoxF {stroke [] 0 setdash exch hpt sub exch vpt add M
  0 vpt2 neg V hpt2 0 V 0 vpt2 V
  hpt2 neg 0 V closepath fill} def
/TriUF {stroke [] 0 setdash vpt 1.12 mul add M
  hpt neg vpt -1.62 mul V
  hpt 2 mul 0 V
  hpt neg vpt 1.62 mul V closepath fill} def
/TriD {stroke [] 0 setdash 2 copy vpt 1.12 mul sub M
  hpt neg vpt 1.62 mul V
  hpt 2 mul 0 V
  hpt neg vpt -1.62 mul V closepath stroke
  Pnt} def
/TriDF {stroke [] 0 setdash vpt 1.12 mul sub M
  hpt neg vpt 1.62 mul V
  hpt 2 mul 0 V
  hpt neg vpt -1.62 mul V closepath fill} def
/DiaF {stroke [] 0 setdash vpt add M
  hpt neg vpt neg V hpt vpt neg V
  hpt vpt V hpt neg vpt V closepath fill} def
/Pent {stroke [] 0 setdash 2 copy gsave
  translate 0 hpt M 4 {72 rotate 0 hpt L} repeat
  closepath stroke grestore Pnt} def
/PentF {stroke [] 0 setdash gsave
  translate 0 hpt M 4 {72 rotate 0 hpt L} repeat
  closepath fill grestore} def
/Circle {stroke [] 0 setdash 2 copy
  hpt 0 360 arc stroke Pnt} def
/CircleF {stroke [] 0 setdash hpt 0 360 arc fill} def
/C0 {BL [] 0 setdash 2 copy moveto vpt 90 450 arc} bind def
/C1 {BL [] 0 setdash 2 copy moveto
	2 copy vpt 0 90 arc closepath fill
	vpt 0 360 arc closepath} bind def
/C2 {BL [] 0 setdash 2 copy moveto
	2 copy vpt 90 180 arc closepath fill
	vpt 0 360 arc closepath} bind def
/C3 {BL [] 0 setdash 2 copy moveto
	2 copy vpt 0 180 arc closepath fill
	vpt 0 360 arc closepath} bind def
/C4 {BL [] 0 setdash 2 copy moveto
	2 copy vpt 180 270 arc closepath fill
	vpt 0 360 arc closepath} bind def
/C5 {BL [] 0 setdash 2 copy moveto
	2 copy vpt 0 90 arc
	2 copy moveto
	2 copy vpt 180 270 arc closepath fill
	vpt 0 360 arc} bind def
/C6 {BL [] 0 setdash 2 copy moveto
	2 copy vpt 90 270 arc closepath fill
	vpt 0 360 arc closepath} bind def
/C7 {BL [] 0 setdash 2 copy moveto
	2 copy vpt 0 270 arc closepath fill
	vpt 0 360 arc closepath} bind def
/C8 {BL [] 0 setdash 2 copy moveto
	2 copy vpt 270 360 arc closepath fill
	vpt 0 360 arc closepath} bind def
/C9 {BL [] 0 setdash 2 copy moveto
	2 copy vpt 270 450 arc closepath fill
	vpt 0 360 arc closepath} bind def
/C10 {BL [] 0 setdash 2 copy 2 copy moveto vpt 270 360 arc closepath fill
	2 copy moveto
	2 copy vpt 90 180 arc closepath fill
	vpt 0 360 arc closepath} bind def
/C11 {BL [] 0 setdash 2 copy moveto
	2 copy vpt 0 180 arc closepath fill
	2 copy moveto
	2 copy vpt 270 360 arc closepath fill
	vpt 0 360 arc closepath} bind def
/C12 {BL [] 0 setdash 2 copy moveto
	2 copy vpt 180 360 arc closepath fill
	vpt 0 360 arc closepath} bind def
/C13 {BL [] 0 setdash 2 copy moveto
	2 copy vpt 0 90 arc closepath fill
	2 copy moveto
	2 copy vpt 180 360 arc closepath fill
	vpt 0 360 arc closepath} bind def
/C14 {BL [] 0 setdash 2 copy moveto
	2 copy vpt 90 360 arc closepath fill
	vpt 0 360 arc} bind def
/C15 {BL [] 0 setdash 2 copy vpt 0 360 arc closepath fill
	vpt 0 360 arc closepath} bind def
/Rec {newpath 4 2 roll moveto 1 index 0 rlineto 0 exch rlineto
	neg 0 rlineto closepath} bind def
/Square {dup Rec} bind def
/Bsquare {vpt sub exch vpt sub exch vpt2 Square} bind def
/S0 {BL [] 0 setdash 2 copy moveto 0 vpt rlineto BL Bsquare} bind def
/S1 {BL [] 0 setdash 2 copy vpt Square fill Bsquare} bind def
/S2 {BL [] 0 setdash 2 copy exch vpt sub exch vpt Square fill Bsquare} bind def
/S3 {BL [] 0 setdash 2 copy exch vpt sub exch vpt2 vpt Rec fill Bsquare} bind def
/S4 {BL [] 0 setdash 2 copy exch vpt sub exch vpt sub vpt Square fill Bsquare} bind def
/S5 {BL [] 0 setdash 2 copy 2 copy vpt Square fill
	exch vpt sub exch vpt sub vpt Square fill Bsquare} bind def
/S6 {BL [] 0 setdash 2 copy exch vpt sub exch vpt sub vpt vpt2 Rec fill Bsquare} bind def
/S7 {BL [] 0 setdash 2 copy exch vpt sub exch vpt sub vpt vpt2 Rec fill
	2 copy vpt Square fill Bsquare} bind def
/S8 {BL [] 0 setdash 2 copy vpt sub vpt Square fill Bsquare} bind def
/S9 {BL [] 0 setdash 2 copy vpt sub vpt vpt2 Rec fill Bsquare} bind def
/S10 {BL [] 0 setdash 2 copy vpt sub vpt Square fill 2 copy exch vpt sub exch vpt Square fill
	Bsquare} bind def
/S11 {BL [] 0 setdash 2 copy vpt sub vpt Square fill 2 copy exch vpt sub exch vpt2 vpt Rec fill
	Bsquare} bind def
/S12 {BL [] 0 setdash 2 copy exch vpt sub exch vpt sub vpt2 vpt Rec fill Bsquare} bind def
/S13 {BL [] 0 setdash 2 copy exch vpt sub exch vpt sub vpt2 vpt Rec fill
	2 copy vpt Square fill Bsquare} bind def
/S14 {BL [] 0 setdash 2 copy exch vpt sub exch vpt sub vpt2 vpt Rec fill
	2 copy exch vpt sub exch vpt Square fill Bsquare} bind def
/S15 {BL [] 0 setdash 2 copy Bsquare fill Bsquare} bind def
/D0 {gsave translate 45 rotate 0 0 S0 stroke grestore} bind def
/D1 {gsave translate 45 rotate 0 0 S1 stroke grestore} bind def
/D2 {gsave translate 45 rotate 0 0 S2 stroke grestore} bind def
/D3 {gsave translate 45 rotate 0 0 S3 stroke grestore} bind def
/D4 {gsave translate 45 rotate 0 0 S4 stroke grestore} bind def
/D5 {gsave translate 45 rotate 0 0 S5 stroke grestore} bind def
/D6 {gsave translate 45 rotate 0 0 S6 stroke grestore} bind def
/D7 {gsave translate 45 rotate 0 0 S7 stroke grestore} bind def
/D8 {gsave translate 45 rotate 0 0 S8 stroke grestore} bind def
/D9 {gsave translate 45 rotate 0 0 S9 stroke grestore} bind def
/D10 {gsave translate 45 rotate 0 0 S10 stroke grestore} bind def
/D11 {gsave translate 45 rotate 0 0 S11 stroke grestore} bind def
/D12 {gsave translate 45 rotate 0 0 S12 stroke grestore} bind def
/D13 {gsave translate 45 rotate 0 0 S13 stroke grestore} bind def
/D14 {gsave translate 45 rotate 0 0 S14 stroke grestore} bind def
/D15 {gsave translate 45 rotate 0 0 S15 stroke grestore} bind def
/DiaE {stroke [] 0 setdash vpt add M
  hpt neg vpt neg V hpt vpt neg V
  hpt vpt V hpt neg vpt V closepath stroke} def
/BoxE {stroke [] 0 setdash exch hpt sub exch vpt add M
  0 vpt2 neg V hpt2 0 V 0 vpt2 V
  hpt2 neg 0 V closepath stroke} def
/TriUE {stroke [] 0 setdash vpt 1.12 mul add M
  hpt neg vpt -1.62 mul V
  hpt 2 mul 0 V
  hpt neg vpt 1.62 mul V closepath stroke} def
/TriDE {stroke [] 0 setdash vpt 1.12 mul sub M
  hpt neg vpt 1.62 mul V
  hpt 2 mul 0 V
  hpt neg vpt -1.62 mul V closepath stroke} def
/PentE {stroke [] 0 setdash gsave
  translate 0 hpt M 4 {72 rotate 0 hpt L} repeat
  closepath stroke grestore} def
/CircE {stroke [] 0 setdash 
  hpt 0 360 arc stroke} def
/Opaque {gsave closepath 1 setgray fill grestore 0 setgray closepath} def
/DiaW {stroke [] 0 setdash vpt add M
  hpt neg vpt neg V hpt vpt neg V
  hpt vpt V hpt neg vpt V Opaque stroke} def
/BoxW {stroke [] 0 setdash exch hpt sub exch vpt add M
  0 vpt2 neg V hpt2 0 V 0 vpt2 V
  hpt2 neg 0 V Opaque stroke} def
/TriUW {stroke [] 0 setdash vpt 1.12 mul add M
  hpt neg vpt -1.62 mul V
  hpt 2 mul 0 V
  hpt neg vpt 1.62 mul V Opaque stroke} def
/TriDW {stroke [] 0 setdash vpt 1.12 mul sub M
  hpt neg vpt 1.62 mul V
  hpt 2 mul 0 V
  hpt neg vpt -1.62 mul V Opaque stroke} def
/PentW {stroke [] 0 setdash gsave
  translate 0 hpt M 4 {72 rotate 0 hpt L} repeat
  Opaque stroke grestore} def
/CircW {stroke [] 0 setdash 
  hpt 0 360 arc Opaque stroke} def
/BoxFill {gsave Rec 1 setgray fill grestore} def
/Density {
  /Fillden exch def
  currentrgbcolor
  /ColB exch def /ColG exch def /ColR exch def
  /ColR ColR Fillden mul Fillden sub 1 add def
  /ColG ColG Fillden mul Fillden sub 1 add def
  /ColB ColB Fillden mul Fillden sub 1 add def
  ColR ColG ColB setrgbcolor} def
/BoxColFill {gsave Rec PolyFill} def
/PolyFill {gsave Density fill grestore grestore} def
/h {rlineto rlineto rlineto gsave closepath fill grestore} bind def
%
% PostScript Level 1 Pattern Fill routine for rectangles
% Usage: x y w h s a XX PatternFill
%	x,y = lower left corner of box to be filled
%	w,h = width and height of box
%	  a = angle in degrees between lines and x-axis
%	 XX = 0/1 for no/yes cross-hatch
%
/PatternFill {gsave /PFa [ 9 2 roll ] def
  PFa 0 get PFa 2 get 2 div add PFa 1 get PFa 3 get 2 div add translate
  PFa 2 get -2 div PFa 3 get -2 div PFa 2 get PFa 3 get Rec
  TransparentPatterns {} {gsave 1 setgray fill grestore} ifelse
  clip
  currentlinewidth 0.5 mul setlinewidth
  /PFs PFa 2 get dup mul PFa 3 get dup mul add sqrt def
  0 0 M PFa 5 get rotate PFs -2 div dup translate
  0 1 PFs PFa 4 get div 1 add floor cvi
	{PFa 4 get mul 0 M 0 PFs V} for
  0 PFa 6 get ne {
	0 1 PFs PFa 4 get div 1 add floor cvi
	{PFa 4 get mul 0 2 1 roll M PFs 0 V} for
 } if
  stroke grestore} def
%
/languagelevel where
 {pop languagelevel} {1} ifelse
dup 2 lt
	{/InterpretLevel1 true def
	 /InterpretLevel3 false def}
	{/InterpretLevel1 Level1 def
	 2 gt
	    {/InterpretLevel3 Level3 def}
	    {/InterpretLevel3 false def}
	 ifelse }
 ifelse
%
% PostScript level 2 pattern fill definitions
%
/Level2PatternFill {
/Tile8x8 {/PaintType 2 /PatternType 1 /TilingType 1 /BBox [0 0 8 8] /XStep 8 /YStep 8}
	bind def
/KeepColor {currentrgbcolor [/Pattern /DeviceRGB] setcolorspace} bind def
<< Tile8x8
 /PaintProc {0.5 setlinewidth pop 0 0 M 8 8 L 0 8 M 8 0 L stroke} 
>> matrix makepattern
/Pat1 exch def
<< Tile8x8
 /PaintProc {0.5 setlinewidth pop 0 0 M 8 8 L 0 8 M 8 0 L stroke
	0 4 M 4 8 L 8 4 L 4 0 L 0 4 L stroke}
>> matrix makepattern
/Pat2 exch def
<< Tile8x8
 /PaintProc {0.5 setlinewidth pop 0 0 M 0 8 L
	8 8 L 8 0 L 0 0 L fill}
>> matrix makepattern
/Pat3 exch def
<< Tile8x8
 /PaintProc {0.5 setlinewidth pop -4 8 M 8 -4 L
	0 12 M 12 0 L stroke}
>> matrix makepattern
/Pat4 exch def
<< Tile8x8
 /PaintProc {0.5 setlinewidth pop -4 0 M 8 12 L
	0 -4 M 12 8 L stroke}
>> matrix makepattern
/Pat5 exch def
<< Tile8x8
 /PaintProc {0.5 setlinewidth pop -2 8 M 4 -4 L
	0 12 M 8 -4 L 4 12 M 10 0 L stroke}
>> matrix makepattern
/Pat6 exch def
<< Tile8x8
 /PaintProc {0.5 setlinewidth pop -2 0 M 4 12 L
	0 -4 M 8 12 L 4 -4 M 10 8 L stroke}
>> matrix makepattern
/Pat7 exch def
<< Tile8x8
 /PaintProc {0.5 setlinewidth pop 8 -2 M -4 4 L
	12 0 M -4 8 L 12 4 M 0 10 L stroke}
>> matrix makepattern
/Pat8 exch def
<< Tile8x8
 /PaintProc {0.5 setlinewidth pop 0 -2 M 12 4 L
	-4 0 M 12 8 L -4 4 M 8 10 L stroke}
>> matrix makepattern
/Pat9 exch def
/Pattern1 {PatternBgnd KeepColor Pat1 setpattern} bind def
/Pattern2 {PatternBgnd KeepColor Pat2 setpattern} bind def
/Pattern3 {PatternBgnd KeepColor Pat3 setpattern} bind def
/Pattern4 {PatternBgnd KeepColor Landscape {Pat5} {Pat4} ifelse setpattern} bind def
/Pattern5 {PatternBgnd KeepColor Landscape {Pat4} {Pat5} ifelse setpattern} bind def
/Pattern6 {PatternBgnd KeepColor Landscape {Pat9} {Pat6} ifelse setpattern} bind def
/Pattern7 {PatternBgnd KeepColor Landscape {Pat8} {Pat7} ifelse setpattern} bind def
} def
%
%
%End of PostScript Level 2 code
%
/PatternBgnd {
  TransparentPatterns {} {gsave 1 setgray fill grestore} ifelse
} def
%
% Substitute for Level 2 pattern fill codes with
% grayscale if Level 2 support is not selected.
%
/Level1PatternFill {
/Pattern1 {0.250 Density} bind def
/Pattern2 {0.500 Density} bind def
/Pattern3 {0.750 Density} bind def
/Pattern4 {0.125 Density} bind def
/Pattern5 {0.375 Density} bind def
/Pattern6 {0.625 Density} bind def
/Pattern7 {0.875 Density} bind def
} def
%
% Now test for support of Level 2 code
%
Level1 {Level1PatternFill} {Level2PatternFill} ifelse
%
/Symbol-Oblique /Symbol findfont [1 0 .167 1 0 0] makefont
dup length dict begin {1 index /FID eq {pop pop} {def} ifelse} forall
currentdict end definefont pop
%
/MFshow {
   { dup 5 get 3 ge
     { 5 get 3 eq {gsave} {grestore} ifelse }
     {dup dup 0 get findfont exch 1 get scalefont setfont
     [ currentpoint ] exch dup 2 get 0 exch R dup 5 get 2 ne {dup dup 6
     get exch 4 get {textshow} {stringwidth pop 0 R} ifelse }if dup 5 get 0 eq
     {dup 3 get {2 get neg 0 exch R pop} {pop aload pop M} ifelse} {dup 5
     get 1 eq {dup 2 get exch dup 3 get exch 6 get stringwidth pop -2 div
     dup 0 R} {dup 6 get stringwidth pop -2 div 0 R 6 get
     textshow 2 index {aload pop M neg 3 -1 roll neg R pop pop} {pop pop pop
     pop aload pop M} ifelse }ifelse }ifelse }
     ifelse }
   forall} def
/Gswidth {dup type /stringtype eq {stringwidth} {pop (n) stringwidth} ifelse} def
/MFwidth {0 exch { dup 5 get 3 ge { 5 get 3 eq { 0 } { pop } ifelse }
 {dup 3 get{dup dup 0 get findfont exch 1 get scalefont setfont
     6 get Gswidth pop add} {pop} ifelse} ifelse} forall} def
/MLshow { currentpoint stroke M
  0 exch R
  Blacktext {gsave 0 setgray MFshow grestore} {MFshow} ifelse } bind def
/MRshow { currentpoint stroke M
  exch dup MFwidth neg 3 -1 roll R
  Blacktext {gsave 0 setgray MFshow grestore} {MFshow} ifelse } bind def
/MCshow { currentpoint stroke M
  exch dup MFwidth -2 div 3 -1 roll R
  Blacktext {gsave 0 setgray MFshow grestore} {MFshow} ifelse } bind def
/XYsave    { [( ) 1 2 true false 3 ()] } bind def
/XYrestore { [( ) 1 2 true false 4 ()] } bind def
Level1 SuppressPDFMark or 
{} {
/SDict 10 dict def
systemdict /pdfmark known not {
  userdict /pdfmark systemdict /cleartomark get put
} if
SDict begin [
  /Title (TcpVegas-10M-ss-200Mbps-UE-increase.eps)
  /Subject (gnuplot plot)
  /Creator (gnuplot 5.0 patchlevel 3)
  /Author (nat)
%  /Producer (gnuplot)
%  /Keywords ()
  /CreationDate (Fri Jul 15 15:45:04 2016)
  /DOCINFO pdfmark
end
} ifelse
%
% Support for boxed text - Ethan A Merritt May 2005
%
/InitTextBox { userdict /TBy2 3 -1 roll put userdict /TBx2 3 -1 roll put
           userdict /TBy1 3 -1 roll put userdict /TBx1 3 -1 roll put
	   /Boxing true def } def
/ExtendTextBox { Boxing
    { gsave dup false charpath pathbbox
      dup TBy2 gt {userdict /TBy2 3 -1 roll put} {pop} ifelse
      dup TBx2 gt {userdict /TBx2 3 -1 roll put} {pop} ifelse
      dup TBy1 lt {userdict /TBy1 3 -1 roll put} {pop} ifelse
      dup TBx1 lt {userdict /TBx1 3 -1 roll put} {pop} ifelse
      grestore } if } def
/PopTextBox { newpath TBx1 TBxmargin sub TBy1 TBymargin sub M
               TBx1 TBxmargin sub TBy2 TBymargin add L
	       TBx2 TBxmargin add TBy2 TBymargin add L
	       TBx2 TBxmargin add TBy1 TBymargin sub L closepath } def
/DrawTextBox { PopTextBox stroke /Boxing false def} def
/FillTextBox { gsave PopTextBox 1 1 1 setrgbcolor fill grestore /Boxing false def} def
0 0 0 0 InitTextBox
/TBxmargin 20 def
/TBymargin 20 def
/Boxing false def
/textshow { ExtendTextBox Gshow } def
%
% redundant definitions for compatibility with prologue.ps older than 5.0.2
/LTB {BL [] LCb DL} def
/LTb {PL [] LCb DL} def
end
%%EndProlog
%%Page: 1 1
gnudict begin
gsave
doclip
50 50 translate
0.050 0.050 scale
0 setgray
newpath
(Arial) findfont 200 scalefont setfont
BackgroundColor 0 lt 3 1 roll 0 lt exch 0 lt or or not {BackgroundColor C 1.000 0 0 14400.00 5040.00 BoxColFill} if
1.000 UL
LTb
0.00 0.00 0.00 C 0.500 UL
LTa
0.50 0.50 0.50 C 1100 820 M
5739 0 V
stroke
1.000 UL
LTb
0.00 0.00 0.00 C 1100 820 M
63 0 V
5676 0 R
-63 0 V
stroke
980 820 M
[ [(Arial) 200.0 0.0 true true 0 ( 700)]
] -66.7 MRshow
1.000 UL
LTb
0.00 0.00 0.00 C 0.500 UL
LTa
0.50 0.50 0.50 C 1100 1222 M
5739 0 V
stroke
1.000 UL
LTb
0.00 0.00 0.00 C 1100 1222 M
63 0 V
5676 0 R
-63 0 V
stroke
980 1222 M
[ [(Arial) 200.0 0.0 true true 0 ( 750)]
] -66.7 MRshow
1.000 UL
LTb
0.00 0.00 0.00 C 0.500 UL
LTa
0.50 0.50 0.50 C 1100 1624 M
5739 0 V
stroke
1.000 UL
LTb
0.00 0.00 0.00 C 1100 1624 M
63 0 V
5676 0 R
-63 0 V
stroke
980 1624 M
[ [(Arial) 200.0 0.0 true true 0 ( 800)]
] -66.7 MRshow
1.000 UL
LTb
0.00 0.00 0.00 C 0.500 UL
LTa
0.50 0.50 0.50 C 1100 2026 M
5739 0 V
stroke
1.000 UL
LTb
0.00 0.00 0.00 C 1100 2026 M
63 0 V
5676 0 R
-63 0 V
stroke
980 2026 M
[ [(Arial) 200.0 0.0 true true 0 ( 850)]
] -66.7 MRshow
1.000 UL
LTb
0.00 0.00 0.00 C 0.500 UL
LTa
0.50 0.50 0.50 C 1100 2428 M
5739 0 V
stroke
1.000 UL
LTb
0.00 0.00 0.00 C 1100 2428 M
63 0 V
5676 0 R
-63 0 V
stroke
980 2428 M
[ [(Arial) 200.0 0.0 true true 0 ( 900)]
] -66.7 MRshow
1.000 UL
LTb
0.00 0.00 0.00 C 0.500 UL
LTa
0.50 0.50 0.50 C 1100 2831 M
5739 0 V
stroke
1.000 UL
LTb
0.00 0.00 0.00 C 1100 2831 M
63 0 V
5676 0 R
-63 0 V
stroke
980 2831 M
[ [(Arial) 200.0 0.0 true true 0 ( 950)]
] -66.7 MRshow
1.000 UL
LTb
0.00 0.00 0.00 C 0.500 UL
LTa
0.50 0.50 0.50 C 1100 3233 M
5739 0 V
stroke
1.000 UL
LTb
0.00 0.00 0.00 C 1100 3233 M
63 0 V
5676 0 R
-63 0 V
stroke
980 3233 M
[ [(Arial) 200.0 0.0 true true 0 ( 1000)]
] -66.7 MRshow
1.000 UL
LTb
0.00 0.00 0.00 C 0.500 UL
LTa
0.50 0.50 0.50 C 1100 3635 M
5739 0 V
stroke
1.000 UL
LTb
0.00 0.00 0.00 C 1100 3635 M
63 0 V
5676 0 R
-63 0 V
stroke
980 3635 M
[ [(Arial) 200.0 0.0 true true 0 ( 1050)]
] -66.7 MRshow
1.000 UL
LTb
0.00 0.00 0.00 C 0.500 UL
LTa
0.50 0.50 0.50 C 1100 4037 M
5739 0 V
stroke
1.000 UL
LTb
0.00 0.00 0.00 C 1100 4037 M
63 0 V
5676 0 R
-63 0 V
stroke
980 4037 M
[ [(Arial) 200.0 0.0 true true 0 ( 1100)]
] -66.7 MRshow
1.000 UL
LTb
0.00 0.00 0.00 C 0.500 UL
LTa
0.50 0.50 0.50 C 1100 4439 M
5739 0 V
stroke
1.000 UL
LTb
0.00 0.00 0.00 C 1100 4439 M
63 0 V
5676 0 R
-63 0 V
stroke
980 4439 M
[ [(Arial) 200.0 0.0 true true 0 ( 1150)]
] -66.7 MRshow
1.000 UL
LTb
0.00 0.00 0.00 C 0.500 UL
LTa
0.50 0.50 0.50 C 1674 820 M
0 3619 V
stroke
1.000 UL
LTb
0.00 0.00 0.00 C 1674 820 M
0 63 V
0 3556 R
0 -63 V
stroke
1674 620 M
[ [(Arial) 200.0 0.0 true true 0 (1)]
] -66.7 MCshow
1.000 UL
LTb
0.00 0.00 0.00 C 0.500 UL
LTa
0.50 0.50 0.50 C 2822 820 M
0 3619 V
stroke
1.000 UL
LTb
0.00 0.00 0.00 C 2822 820 M
0 63 V
0 3556 R
0 -63 V
stroke
2822 620 M
[ [(Arial) 200.0 0.0 true true 0 (2)]
] -66.7 MCshow
1.000 UL
LTb
0.00 0.00 0.00 C 0.500 UL
LTa
0.50 0.50 0.50 C 3970 820 M
0 3619 V
stroke
1.000 UL
LTb
0.00 0.00 0.00 C 3970 820 M
0 63 V
0 3556 R
0 -63 V
stroke
3970 620 M
[ [(Arial) 200.0 0.0 true true 0 (4)]
] -66.7 MCshow
1.000 UL
LTb
0.00 0.00 0.00 C 0.500 UL
LTa
0.50 0.50 0.50 C 5117 820 M
0 3619 V
stroke
1.000 UL
LTb
0.00 0.00 0.00 C 5117 820 M
0 63 V
0 3556 R
0 -63 V
stroke
5117 620 M
[ [(Arial) 200.0 0.0 true true 0 (8)]
] -66.7 MCshow
1.000 UL
LTb
0.00 0.00 0.00 C 0.500 UL
LTa
0.50 0.50 0.50 C 6265 820 M
0 3619 V
stroke
1.000 UL
LTb
0.00 0.00 0.00 C 6265 820 M
0 63 V
0 3556 R
0 -63 V
stroke
6265 620 M
[ [(Arial) 200.0 0.0 true true 0 (16)]
] -66.7 MCshow
1.000 UL
LTb
0.00 0.00 0.00 C 1.000 UL
LTB
0.00 0.00 0.00 C 1100 4439 M
0 -3619 V
5739 0 V
0 3619 R
-5739 0 R
1.000 UP
stroke
LTb
0.00 0.00 0.00 C LCb setrgbcolor
160 2629 M
currentpoint gsave translate -270 rotate 0 0 moveto
[ [(Arial) 200.0 0.0 true true 0 (RTT \(ms\))]
] -66.7 MCshow
grestore
LTb
LCb setrgbcolor
3969 320 M
[ [(Arial) 200.0 0.0 true true 0 (Flows #)]
] -66.7 MCshow
LTb
LCb setrgbcolor
3969 4739 M
[ [(Arial) 200.0 0.0 true true 0 (a\) RTT)]
] -66.7 MCshow
% Begin plot #1
1.000 UL
LTb
0.60 0.60 0.00 C LCb setrgbcolor
2714 153 M
[ [(Arial) 180.0 0.0 true true 0 (olsr)]
] -60.0 MRshow
1.000 UL
LTb
0.60 0.60 0.00 C 2822 108 333 90 80 -45 0 PatternFill
2822 108 N
333 0 V
0 90 V
-333 0 V
0 -90 V
Z stroke
1.000 UL
LTb
0.60 0.60 0.00 C 1215 1237 230 53 80 -45 0 PatternFill
1330 1230 M
0 7 V
0 53 R
0 337 V
stroke
1215 1237 N
230 0 V
0 53 V
-230 0 V
0 -53 V
Z stroke
1215 1627 M
230 0 V
1215 1230 M
230 0 V
stroke
2363 1213 230 118 80 -45 0 PatternFill
2478 1192 M
0 21 V
0 118 R
0 330 V
stroke
2363 1213 N
230 0 V
0 118 V
-230 0 V
0 -118 V
Z stroke
2363 1661 M
230 0 V
2363 1192 M
230 0 V
stroke
3510 1166 230 153 80 -45 0 PatternFill
3625 1130 M
0 36 V
0 153 R
0 375 V
stroke
3510 1166 N
230 0 V
0 153 V
-230 0 V
0 -153 V
Z stroke
3510 1694 M
230 0 V
3510 1130 M
230 0 V
stroke
4658 1230 230 237 80 -45 0 PatternFill
4773 1155 M
0 75 V
0 237 R
0 414 V
stroke
4658 1230 N
230 0 V
0 237 V
-230 0 V
0 -237 V
Z stroke
4658 1881 M
230 0 V
4658 1155 M
230 0 V
stroke
5806 1311 230 517 80 -45 0 PatternFill
5921 1163 M
0 148 V
0 517 R
0 1829 V
stroke
5806 1311 N
230 0 V
0 517 V
-230 0 V
0 -517 V
Z stroke
5806 3657 M
230 0 V
5806 1163 M
230 0 V
% End plot #1
% Begin plot #2
stroke
LTb
LCb setrgbcolor

 /TransparentPatterns true def
1215 1274 230 0 40 30 0 PatternFill
1330 1274 M
stroke
1215 1274 N
230 0 V
-230 0 V
Z stroke
1215 1274 M
230 0 V
-230 0 R
230 0 V
stroke

 /TransparentPatterns true def
2363 1285 230 0 40 30 0 PatternFill
2478 1285 M
stroke
2363 1285 N
230 0 V
-230 0 V
Z stroke
2363 1285 M
230 0 V
-230 0 R
230 0 V
stroke

 /TransparentPatterns true def
3510 1253 230 0 40 30 0 PatternFill
3625 1253 M
stroke
3510 1253 N
230 0 V
-230 0 V
Z stroke
3510 1253 M
230 0 V
-230 0 R
230 0 V
stroke

 /TransparentPatterns true def
4658 1360 230 0 40 30 0 PatternFill
4773 1360 M
stroke
4658 1360 N
230 0 V
-230 0 V
Z stroke
4658 1360 M
230 0 V
-230 0 R
230 0 V
stroke

 /TransparentPatterns true def
5806 1638 230 0 40 30 0 PatternFill
5921 1638 M
stroke
5806 1638 N
230 0 V
-230 0 V
Z stroke
5806 1638 M
230 0 V
-230 0 R
230 0 V
% End plot #2
% Begin plot #3
stroke
LTb
0.00 0.00 0.63 C LCb setrgbcolor
4127 153 M
[ [(Arial) 180.0 0.0 true true 0 (per-packet)]
] -60.0 MRshow
1.000 UL
LTb
0.00 0.00 0.63 C 4235 108 333 90 80 45 0 PatternFill
4235 108 N
333 0 V
0 90 V
-333 0 V
0 -90 V
Z stroke
1.000 UL
LTb
0.00 0.00 0.63 C 1559 1233 230 55 80 45 0 PatternFill
1674 1223 M
0 10 V
0 55 R
0 338 V
stroke
1559 1233 N
230 0 V
0 55 V
-230 0 V
0 -55 V
Z stroke
1559 1626 M
230 0 V
1559 1223 M
230 0 V
stroke
2707 1210 230 112 80 45 0 PatternFill
2822 1194 M
0 16 V
0 112 R
0 325 V
stroke
2707 1210 N
230 0 V
0 112 V
-230 0 V
0 -112 V
Z stroke
2707 1647 M
230 0 V
2707 1194 M
230 0 V
stroke
3855 1165 230 151 80 45 0 PatternFill
3970 1132 M
0 33 V
0 151 R
0 324 V
stroke
3855 1165 N
230 0 V
0 151 V
-230 0 V
0 -151 V
Z stroke
3855 1640 M
230 0 V
3855 1132 M
230 0 V
stroke
5003 1242 230 196 80 45 0 PatternFill
5118 1165 M
0 77 V
0 196 R
0 389 V
stroke
5003 1242 N
230 0 V
0 196 V
-230 0 V
0 -196 V
Z stroke
5003 1827 M
230 0 V
5003 1165 M
230 0 V
stroke
6150 1322 230 329 80 45 0 PatternFill
6265 1179 M
0 143 V
0 329 R
0 1955 V
stroke
6150 1322 N
230 0 V
0 329 V
-230 0 V
0 -329 V
Z stroke
6150 3606 M
230 0 V
6150 1179 M
230 0 V
% End plot #3
% Begin plot #4
stroke
LTb
LCb setrgbcolor

 /TransparentPatterns true def
1559 1272 230 0 80 -45 0 PatternFill
1674 1272 M
stroke
1559 1272 N
230 0 V
-230 0 V
Z stroke
1559 1272 M
230 0 V
-230 0 R
230 0 V
stroke

 /TransparentPatterns true def
2707 1276 230 0 80 -45 0 PatternFill
2822 1276 M
stroke
2707 1276 N
230 0 V
-230 0 V
Z stroke
2707 1276 M
230 0 V
-230 0 R
230 0 V
stroke

 /TransparentPatterns true def
3855 1253 230 0 80 -45 0 PatternFill
3970 1253 M
stroke
3855 1253 N
230 0 V
-230 0 V
Z stroke
3855 1253 M
230 0 V
-230 0 R
230 0 V
stroke

 /TransparentPatterns true def
5003 1353 230 0 80 -45 0 PatternFill
5118 1353 M
stroke
5003 1353 N
230 0 V
-230 0 V
Z stroke
5003 1353 M
230 0 V
-230 0 R
230 0 V
stroke

 /TransparentPatterns true def
6150 1596 230 0 80 -45 0 PatternFill
6265 1596 M
stroke
6150 1596 N
230 0 V
-230 0 V
Z stroke
6150 1596 M
230 0 V
-230 0 R
230 0 V
% End plot #4
% Begin plot #5
stroke
LTb
0.00 0.38 0.82 C LCb setrgbcolor
5540 153 M
[ [(Arial) 180.0 0.0 true true 0 (per-flow)]
] -60.0 MRshow
1.000 UL
LTb
0.00 0.38 0.82 C 5648 108 333 90 40 30 0 PatternFill
5648 108 N
333 0 V
0 90 V
-333 0 V
0 -90 V
Z stroke
1.000 UL
LTb
0.00 0.38 0.82 C 1903 1233 230 55 40 30 0 PatternFill
2018 1223 M
0 10 V
0 55 R
0 338 V
stroke
1903 1233 N
230 0 V
0 55 V
-230 0 V
0 -55 V
Z stroke
1903 1626 M
230 0 V
1903 1223 M
230 0 V
stroke
3051 1210 230 112 40 30 0 PatternFill
3166 1194 M
0 16 V
0 112 R
0 325 V
stroke
3051 1210 N
230 0 V
0 112 V
-230 0 V
0 -112 V
Z stroke
3051 1647 M
230 0 V
3051 1194 M
230 0 V
stroke
4199 1165 230 151 40 30 0 PatternFill
4314 1132 M
0 33 V
0 151 R
0 324 V
stroke
4199 1165 N
230 0 V
0 151 V
-230 0 V
0 -151 V
Z stroke
4199 1640 M
230 0 V
4199 1132 M
230 0 V
stroke
5347 1228 230 231 40 30 0 PatternFill
5462 1156 M
0 72 V
0 231 R
0 422 V
stroke
5347 1228 N
230 0 V
0 231 V
-230 0 V
0 -231 V
Z stroke
5347 1881 M
230 0 V
5347 1156 M
230 0 V
stroke
6495 1325 230 397 40 30 0 PatternFill
6610 1172 M
0 153 V
0 397 R
0 2541 V
stroke
6495 1325 N
230 0 V
0 397 V
-230 0 V
0 -397 V
Z stroke
6495 4263 M
230 0 V
6495 1172 M
230 0 V
% End plot #5
% Begin plot #6
stroke
LTb
LCb setrgbcolor

 /TransparentPatterns true def
1903 1272 230 0 40 -30 0 PatternFill
2018 1272 M
stroke
1903 1272 N
230 0 V
-230 0 V
Z stroke
1903 1272 M
230 0 V
-230 0 R
230 0 V
stroke

 /TransparentPatterns true def
3051 1276 230 0 40 -30 0 PatternFill
3166 1276 M
stroke
3051 1276 N
230 0 V
-230 0 V
Z stroke
3051 1276 M
230 0 V
-230 0 R
230 0 V
stroke

 /TransparentPatterns true def
4199 1253 230 0 40 -30 0 PatternFill
4314 1253 M
stroke
4199 1253 N
230 0 V
-230 0 V
Z stroke
4199 1253 M
230 0 V
-230 0 R
230 0 V
stroke

 /TransparentPatterns true def
5347 1357 230 0 40 -30 0 PatternFill
5462 1357 M
stroke
5347 1357 N
230 0 V
-230 0 V
Z stroke
5347 1357 M
230 0 V
-230 0 R
230 0 V
stroke

 /TransparentPatterns true def
6495 1690 230 0 40 -30 0 PatternFill
6610 1690 M
stroke
6495 1690 N
230 0 V
-230 0 V
Z stroke
6495 1690 M
230 0 V
-230 0 R
230 0 V
% End plot #6
stroke
2.000 UL
LTb
LCb setrgbcolor
1.000 UP
1.000 UL
LTb
0.00 0.00 0.00 C 1.000 UL
LTb
0.00 0.00 0.00 C 0.500 UL
LTa
0.50 0.50 0.50 C 8180 820 M
5859 0 V
stroke
1.000 UL
LTb
0.00 0.00 0.00 C 8180 820 M
63 0 V
5796 0 R
-63 0 V
stroke
8060 820 M
[ [(Arial) 200.0 0.0 true true 0 ( 40)]
] -66.7 MRshow
1.000 UL
LTb
0.00 0.00 0.00 C 0.500 UL
LTa
0.50 0.50 0.50 C 8180 1272 M
5859 0 V
stroke
1.000 UL
LTb
0.00 0.00 0.00 C 8180 1272 M
63 0 V
5796 0 R
-63 0 V
stroke
8060 1272 M
[ [(Arial) 200.0 0.0 true true 0 ( 60)]
] -66.7 MRshow
1.000 UL
LTb
0.00 0.00 0.00 C 0.500 UL
LTa
0.50 0.50 0.50 C 8180 1725 M
5859 0 V
stroke
1.000 UL
LTb
0.00 0.00 0.00 C 8180 1725 M
63 0 V
5796 0 R
-63 0 V
stroke
8060 1725 M
[ [(Arial) 200.0 0.0 true true 0 ( 80)]
] -66.7 MRshow
1.000 UL
LTb
0.00 0.00 0.00 C 0.500 UL
LTa
0.50 0.50 0.50 C 8180 2177 M
5859 0 V
stroke
1.000 UL
LTb
0.00 0.00 0.00 C 8180 2177 M
63 0 V
5796 0 R
-63 0 V
stroke
8060 2177 M
[ [(Arial) 200.0 0.0 true true 0 ( 100)]
] -66.7 MRshow
1.000 UL
LTb
0.00 0.00 0.00 C 0.500 UL
LTa
0.50 0.50 0.50 C 8180 2630 M
5859 0 V
stroke
1.000 UL
LTb
0.00 0.00 0.00 C 8180 2630 M
63 0 V
5796 0 R
-63 0 V
stroke
8060 2630 M
[ [(Arial) 200.0 0.0 true true 0 ( 120)]
] -66.7 MRshow
1.000 UL
LTb
0.00 0.00 0.00 C 0.500 UL
LTa
0.50 0.50 0.50 C 8180 3082 M
5859 0 V
stroke
1.000 UL
LTb
0.00 0.00 0.00 C 8180 3082 M
63 0 V
5796 0 R
-63 0 V
stroke
8060 3082 M
[ [(Arial) 200.0 0.0 true true 0 ( 140)]
] -66.7 MRshow
1.000 UL
LTb
0.00 0.00 0.00 C 0.500 UL
LTa
0.50 0.50 0.50 C 8180 3534 M
5859 0 V
stroke
1.000 UL
LTb
0.00 0.00 0.00 C 8180 3534 M
63 0 V
5796 0 R
-63 0 V
stroke
8060 3534 M
[ [(Arial) 200.0 0.0 true true 0 ( 160)]
] -66.7 MRshow
1.000 UL
LTb
0.00 0.00 0.00 C 0.500 UL
LTa
0.50 0.50 0.50 C 8180 3987 M
5859 0 V
stroke
1.000 UL
LTb
0.00 0.00 0.00 C 8180 3987 M
63 0 V
5796 0 R
-63 0 V
stroke
8060 3987 M
[ [(Arial) 200.0 0.0 true true 0 ( 180)]
] -66.7 MRshow
1.000 UL
LTb
0.00 0.00 0.00 C 0.500 UL
LTa
0.50 0.50 0.50 C 8180 4439 M
5859 0 V
stroke
1.000 UL
LTb
0.00 0.00 0.00 C 8180 4439 M
63 0 V
5796 0 R
-63 0 V
stroke
8060 4439 M
[ [(Arial) 200.0 0.0 true true 0 ( 200)]
] -66.7 MRshow
1.000 UL
LTb
0.00 0.00 0.00 C 0.500 UL
LTa
0.50 0.50 0.50 C 8766 820 M
0 3619 V
stroke
1.000 UL
LTb
0.00 0.00 0.00 C 8766 820 M
0 63 V
0 3556 R
0 -63 V
stroke
8766 620 M
[ [(Arial) 200.0 0.0 true true 0 (1)]
] -66.7 MCshow
1.000 UL
LTb
0.00 0.00 0.00 C 0.500 UL
LTa
0.50 0.50 0.50 C 9938 820 M
0 3619 V
stroke
1.000 UL
LTb
0.00 0.00 0.00 C 9938 820 M
0 63 V
0 3556 R
0 -63 V
stroke
9938 620 M
[ [(Arial) 200.0 0.0 true true 0 (2)]
] -66.7 MCshow
1.000 UL
LTb
0.00 0.00 0.00 C 0.500 UL
LTa
0.50 0.50 0.50 C 11110 820 M
0 3619 V
stroke
1.000 UL
LTb
0.00 0.00 0.00 C 11110 820 M
0 63 V
0 3556 R
0 -63 V
stroke
11110 620 M
[ [(Arial) 200.0 0.0 true true 0 (4)]
] -66.7 MCshow
1.000 UL
LTb
0.00 0.00 0.00 C 0.500 UL
LTa
0.50 0.50 0.50 C 12281 820 M
0 3619 V
stroke
1.000 UL
LTb
0.00 0.00 0.00 C 12281 820 M
0 63 V
0 3556 R
0 -63 V
stroke
12281 620 M
[ [(Arial) 200.0 0.0 true true 0 (8)]
] -66.7 MCshow
1.000 UL
LTb
0.00 0.00 0.00 C 0.500 UL
LTa
0.50 0.50 0.50 C 13453 820 M
0 3619 V
stroke
1.000 UL
LTb
0.00 0.00 0.00 C 13453 820 M
0 63 V
0 3556 R
0 -63 V
stroke
13453 620 M
[ [(Arial) 200.0 0.0 true true 0 (16)]
] -66.7 MCshow
1.000 UL
LTb
0.00 0.00 0.00 C 1.000 UL
LTB
0.00 0.00 0.00 C 8180 4439 M
0 -3619 V
5859 0 V
0 3619 R
-5859 0 R
1.000 UP
stroke
LTb
0.00 0.00 0.00 C LCb setrgbcolor
7360 2629 M
currentpoint gsave translate -270 rotate 0 0 moveto
[ [(Arial) 200.0 0.0 true true 0 (File download time \(s\))]
] -66.7 MCshow
grestore
LTb
LCb setrgbcolor
11109 320 M
[ [(Arial) 200.0 0.0 true true 0 (Flows #)]
] -66.7 MCshow
LTb
LCb setrgbcolor
11109 4739 M
[ [(Arial) 200.0 0.0 true true 0 (b\) File download time)]
] -66.7 MCshow
% Begin plot #1
1.000 UL
LTb
0.60 0.60 0.00 C LCb setrgbcolor
9854 153 M
[ [(Arial) 180.0 0.0 true true 0 (olsr)]
] -60.0 MRshow
1.000 UL
LTb
0.60 0.60 0.00 C 9962 108 333 90 80 -45 0 PatternFill
9962 108 N
333 0 V
0 90 V
-333 0 V
0 -90 V
Z stroke
1.000 UL
LTb
0.60 0.60 0.00 C 8297 1047 236 0 80 -45 0 PatternFill
8415 1047 M
stroke
8297 1047 N
236 0 V
-236 0 V
Z stroke
8297 1047 M
236 0 V
-236 0 R
236 0 V
stroke
9469 1227 234 343 80 -45 0 PatternFill
9586 1112 M
0 115 V
0 343 R
0 115 V
stroke
9469 1227 N
234 0 V
0 343 V
-234 0 V
0 -343 V
Z stroke
9469 1685 M
234 0 V
9469 1112 M
234 0 V
stroke
10641 1388 234 454 80 -45 0 PatternFill
10758 1067 M
0 321 V
0 454 R
0 230 V
stroke
10641 1388 N
234 0 V
0 454 V
-234 0 V
0 -454 V
Z stroke
10641 2072 M
234 0 V
10641 1067 M
234 0 V
stroke
11813 1305 234 890 80 -45 0 PatternFill
11930 948 M
0 357 V
0 890 R
0 1810 V
stroke
11813 1305 N
234 0 V
0 890 V
-234 0 V
0 -890 V
Z stroke
11813 4005 M
234 0 V
11813 948 M
234 0 V
stroke
12984 2324 236 937 80 -45 0 PatternFill
13102 917 M
0 1407 V
0 937 R
0 1090 V
stroke
12984 2324 N
236 0 V
0 937 V
-236 0 V
0 -937 V
Z stroke
12984 4351 M
236 0 V
12984 917 M
236 0 V
% End plot #1
% Begin plot #2
stroke
LTb
LCb setrgbcolor

 /TransparentPatterns true def
8297 1047 236 0 40 30 0 PatternFill
8415 1047 M
stroke
8297 1047 N
236 0 V
-236 0 V
Z stroke
8297 1047 M
236 0 V
-236 0 R
236 0 V
stroke

 /TransparentPatterns true def
9469 1399 234 0 40 30 0 PatternFill
9586 1399 M
stroke
9469 1399 N
234 0 V
-234 0 V
Z stroke
9469 1399 M
234 0 V
-234 0 R
234 0 V
stroke

 /TransparentPatterns true def
10641 1607 234 0 40 30 0 PatternFill
10758 1607 M
stroke
10641 1607 N
234 0 V
-234 0 V
Z stroke
10641 1607 M
234 0 V
-234 0 R
234 0 V
stroke

 /TransparentPatterns true def
11813 1979 234 0 40 30 0 PatternFill
11930 1979 M
stroke
11813 1979 N
234 0 V
-234 0 V
Z stroke
11813 1979 M
234 0 V
-234 0 R
234 0 V
stroke

 /TransparentPatterns true def
12984 2699 236 0 40 30 0 PatternFill
13102 2699 M
stroke
12984 2699 N
236 0 V
-236 0 V
Z stroke
12984 2699 M
236 0 V
-236 0 R
236 0 V
% End plot #2
% Begin plot #3
stroke
LTb
0.00 0.00 0.63 C LCb setrgbcolor
11267 153 M
[ [(Arial) 180.0 0.0 true true 0 (per-packet)]
] -60.0 MRshow
1.000 UL
LTb
0.00 0.00 0.63 C 11375 108 333 90 80 45 0 PatternFill
11375 108 N
333 0 V
0 90 V
-333 0 V
0 -90 V
Z stroke
1.000 UL
LTb
0.00 0.00 0.63 C 8649 859 234 0 80 45 0 PatternFill
8766 859 M
stroke
8649 859 N
234 0 V
-234 0 V
Z stroke
8649 859 M
234 0 V
-234 0 R
234 0 V
stroke
9821 983 234 474 80 45 0 PatternFill
9938 825 M
0 158 V
0 474 R
0 158 V
stroke
9821 983 N
234 0 V
0 474 V
-234 0 V
0 -474 V
Z stroke
9821 1615 M
234 0 V
9821 825 M
234 0 V
stroke
10992 1227 236 485 80 45 0 PatternFill
11110 894 M
0 333 V
0 485 R
0 59 V
stroke
10992 1227 N
236 0 V
0 485 V
-236 0 V
0 -485 V
Z stroke
10992 1771 M
236 0 V
10992 894 M
236 0 V
stroke
12164 1749 234 288 80 45 0 PatternFill
12281 887 M
0 862 V
0 288 R
0 1155 V
stroke
12164 1749 N
234 0 V
0 288 V
-234 0 V
0 -288 V
Z stroke
12164 3192 M
234 0 V
12164 887 M
234 0 V
stroke
13336 2624 234 536 80 45 0 PatternFill
13453 1460 M
0 1164 V
0 536 R
0 1230 V
stroke
13336 2624 N
234 0 V
0 536 V
-234 0 V
0 -536 V
Z stroke
13336 4390 M
234 0 V
13336 1460 M
234 0 V
% End plot #3
% Begin plot #4
stroke
LTb
LCb setrgbcolor

 /TransparentPatterns true def
8649 859 234 0 80 -45 0 PatternFill
8766 859 M
stroke
8649 859 N
234 0 V
-234 0 V
Z stroke
8649 859 M
234 0 V
-234 0 R
234 0 V
stroke

 /TransparentPatterns true def
9821 1220 234 0 80 -45 0 PatternFill
9938 1220 M
stroke
9821 1220 N
234 0 V
-234 0 V
Z stroke
9821 1220 M
234 0 V
-234 0 R
234 0 V
stroke

 /TransparentPatterns true def
10992 1447 236 0 80 -45 0 PatternFill
11110 1447 M
stroke
10992 1447 N
236 0 V
-236 0 V
Z stroke
10992 1447 M
236 0 V
-236 0 R
236 0 V
stroke

 /TransparentPatterns true def
12164 1925 234 0 80 -45 0 PatternFill
12281 1925 M
stroke
12164 1925 N
234 0 V
-234 0 V
Z stroke
12164 1925 M
234 0 V
-234 0 R
234 0 V
stroke

 /TransparentPatterns true def
13336 2859 234 0 80 -45 0 PatternFill
13453 2859 M
stroke
13336 2859 N
234 0 V
-234 0 V
Z stroke
13336 2859 M
234 0 V
-234 0 R
234 0 V
% End plot #4
% Begin plot #5
stroke
LTb
0.00 0.38 0.82 C LCb setrgbcolor
12680 153 M
[ [(Arial) 180.0 0.0 true true 0 (per-flow)]
] -60.0 MRshow
1.000 UL
LTb
0.00 0.38 0.82 C 12788 108 333 90 40 30 0 PatternFill
12788 108 N
333 0 V
0 90 V
-333 0 V
0 -90 V
Z stroke
1.000 UL
LTb
0.00 0.38 0.82 C 9000 859 236 0 40 30 0 PatternFill
9118 859 M
stroke
9000 859 N
236 0 V
-236 0 V
Z stroke
9000 859 M
236 0 V
-236 0 R
236 0 V
stroke
10172 983 234 474 40 30 0 PatternFill
10289 825 M
0 158 V
0 474 R
0 158 V
stroke
10172 983 N
234 0 V
0 474 V
-234 0 V
0 -474 V
Z stroke
10172 1615 M
234 0 V
10172 825 M
234 0 V
stroke
11344 1227 234 485 40 30 0 PatternFill
11461 894 M
0 333 V
0 485 R
0 59 V
stroke
11344 1227 N
234 0 V
0 485 V
-234 0 V
0 -485 V
Z stroke
11344 1771 M
234 0 V
11344 894 M
234 0 V
stroke
12516 1428 234 555 40 30 0 PatternFill
12633 884 M
0 544 V
0 555 R
0 1036 V
stroke
12516 1428 N
234 0 V
0 555 V
-234 0 V
0 -555 V
Z stroke
12516 3019 M
234 0 V
12516 884 M
234 0 V
stroke
13687 2475 236 664 40 30 0 PatternFill
13805 1483 M
0 992 V
0 664 R
0 535 V
stroke
13687 2475 N
236 0 V
0 664 V
-236 0 V
0 -664 V
Z stroke
13687 3674 M
236 0 V
13687 1483 M
236 0 V
% End plot #5
% Begin plot #6
stroke
LTb
LCb setrgbcolor

 /TransparentPatterns true def
9000 859 236 0 40 -30 0 PatternFill
9118 859 M
stroke
9000 859 N
236 0 V
-236 0 V
Z stroke
9000 859 M
236 0 V
-236 0 R
236 0 V
stroke

 /TransparentPatterns true def
10172 1220 234 0 40 -30 0 PatternFill
10289 1220 M
stroke
10172 1220 N
234 0 V
-234 0 V
Z stroke
10172 1220 M
234 0 V
-234 0 R
234 0 V
stroke

 /TransparentPatterns true def
11344 1447 234 0 40 -30 0 PatternFill
11461 1447 M
stroke
11344 1447 N
234 0 V
-234 0 V
Z stroke
11344 1447 M
234 0 V
-234 0 R
234 0 V
stroke

 /TransparentPatterns true def
12516 1814 234 0 40 -30 0 PatternFill
12633 1814 M
stroke
12516 1814 N
234 0 V
-234 0 V
Z stroke
12516 1814 M
234 0 V
-234 0 R
234 0 V
stroke

 /TransparentPatterns true def
13687 2795 236 0 40 -30 0 PatternFill
13805 2795 M
stroke
13687 2795 N
236 0 V
-236 0 V
Z stroke
13687 2795 M
236 0 V
-236 0 R
236 0 V
% End plot #6
stroke
2.000 UL
LTb
LCb setrgbcolor
1.000 UP
1.000 UL
LTb
0.00 0.00 0.00 C stroke
grestore
end
showpage
%%Trailer
%%DocumentFonts: Arial
