%!PS-Adobe-2.0 EPSF-2.0
%%Title: TcpVegas-2M-ss-400Mbps-UE-increase.eps
%%Creator: gnuplot 5.0 patchlevel 3
%%CreationDate: Fri Jul 15 15:45:05 2016
%%DocumentFonts: (atend)
%%BoundingBox: 50 50 770 302
%%EndComments
%%BeginProlog
/gnudict 256 dict def
gnudict begin
%
% The following true/false flags may be edited by hand if desired.
% The unit line width and grayscale image gamma correction may also be changed.
%
/Color true def
/Blacktext false def
/Solid false def
/Dashlength 3 def
/Landscape false def
/Level1 false def
/Level3 false def
/Rounded false def
/ClipToBoundingBox false def
/SuppressPDFMark false def
/TransparentPatterns false def
/gnulinewidth 15.000 def
/userlinewidth gnulinewidth def
/Gamma 1.0 def
/BackgroundColor {-1.000 -1.000 -1.000} def
%
/vshift -66 def
/dl1 {
  10.0 Dashlength userlinewidth gnulinewidth div mul mul mul
  Rounded { currentlinewidth 0.75 mul sub dup 0 le { pop 0.01 } if } if
} def
/dl2 {
  10.0 Dashlength userlinewidth gnulinewidth div mul mul mul
  Rounded { currentlinewidth 0.75 mul add } if
} def
/hpt_ 31.5 def
/vpt_ 31.5 def
/hpt hpt_ def
/vpt vpt_ def
/doclip {
  ClipToBoundingBox {
    newpath 50 50 moveto 770 50 lineto 770 302 lineto 50 302 lineto closepath
    clip
  } if
} def
%
% Gnuplot Prolog Version 5.1 (Oct 2015)
%
%/SuppressPDFMark true def
%
/M {moveto} bind def
/L {lineto} bind def
/R {rmoveto} bind def
/V {rlineto} bind def
/N {newpath moveto} bind def
/Z {closepath} bind def
/C {setrgbcolor} bind def
/f {rlineto fill} bind def
/g {setgray} bind def
/Gshow {show} def   % May be redefined later in the file to support UTF-8
/vpt2 vpt 2 mul def
/hpt2 hpt 2 mul def
/Lshow {currentpoint stroke M 0 vshift R 
	Blacktext {gsave 0 setgray textshow grestore} {textshow} ifelse} def
/Rshow {currentpoint stroke M dup stringwidth pop neg vshift R
	Blacktext {gsave 0 setgray textshow grestore} {textshow} ifelse} def
/Cshow {currentpoint stroke M dup stringwidth pop -2 div vshift R 
	Blacktext {gsave 0 setgray textshow grestore} {textshow} ifelse} def
/UP {dup vpt_ mul /vpt exch def hpt_ mul /hpt exch def
  /hpt2 hpt 2 mul def /vpt2 vpt 2 mul def} def
/DL {Color {setrgbcolor Solid {pop []} if 0 setdash}
 {pop pop pop 0 setgray Solid {pop []} if 0 setdash} ifelse} def
/BL {stroke userlinewidth 2 mul setlinewidth
	Rounded {1 setlinejoin 1 setlinecap} if} def
/AL {stroke userlinewidth 2 div setlinewidth
	Rounded {1 setlinejoin 1 setlinecap} if} def
/UL {dup gnulinewidth mul /userlinewidth exch def
	dup 1 lt {pop 1} if 10 mul /udl exch def} def
/PL {stroke userlinewidth setlinewidth
	Rounded {1 setlinejoin 1 setlinecap} if} def
3.8 setmiterlimit
% Classic Line colors (version 5.0)
/LCw {1 1 1} def
/LCb {0 0 0} def
/LCa {0 0 0} def
/LC0 {1 0 0} def
/LC1 {0 1 0} def
/LC2 {0 0 1} def
/LC3 {1 0 1} def
/LC4 {0 1 1} def
/LC5 {1 1 0} def
/LC6 {0 0 0} def
/LC7 {1 0.3 0} def
/LC8 {0.5 0.5 0.5} def
% Default dash patterns (version 5.0)
/LTB {BL [] LCb DL} def
/LTw {PL [] 1 setgray} def
/LTb {PL [] LCb DL} def
/LTa {AL [1 udl mul 2 udl mul] 0 setdash LCa setrgbcolor} def
/LT0 {PL [] LC0 DL} def
/LT1 {PL [2 dl1 3 dl2] LC1 DL} def
/LT2 {PL [1 dl1 1.5 dl2] LC2 DL} def
/LT3 {PL [6 dl1 2 dl2 1 dl1 2 dl2] LC3 DL} def
/LT4 {PL [1 dl1 2 dl2 6 dl1 2 dl2 1 dl1 2 dl2] LC4 DL} def
/LT5 {PL [4 dl1 2 dl2] LC5 DL} def
/LT6 {PL [1.5 dl1 1.5 dl2 1.5 dl1 1.5 dl2 1.5 dl1 6 dl2] LC6 DL} def
/LT7 {PL [3 dl1 3 dl2 1 dl1 3 dl2] LC7 DL} def
/LT8 {PL [2 dl1 2 dl2 2 dl1 6 dl2] LC8 DL} def
/SL {[] 0 setdash} def
/Pnt {stroke [] 0 setdash gsave 1 setlinecap M 0 0 V stroke grestore} def
/Dia {stroke [] 0 setdash 2 copy vpt add M
  hpt neg vpt neg V hpt vpt neg V
  hpt vpt V hpt neg vpt V closepath stroke
  Pnt} def
/Pls {stroke [] 0 setdash vpt sub M 0 vpt2 V
  currentpoint stroke M
  hpt neg vpt neg R hpt2 0 V stroke
 } def
/Box {stroke [] 0 setdash 2 copy exch hpt sub exch vpt add M
  0 vpt2 neg V hpt2 0 V 0 vpt2 V
  hpt2 neg 0 V closepath stroke
  Pnt} def
/Crs {stroke [] 0 setdash exch hpt sub exch vpt add M
  hpt2 vpt2 neg V currentpoint stroke M
  hpt2 neg 0 R hpt2 vpt2 V stroke} def
/TriU {stroke [] 0 setdash 2 copy vpt 1.12 mul add M
  hpt neg vpt -1.62 mul V
  hpt 2 mul 0 V
  hpt neg vpt 1.62 mul V closepath stroke
  Pnt} def
/Star {2 copy Pls Crs} def
/BoxF {stroke [] 0 setdash exch hpt sub exch vpt add M
  0 vpt2 neg V hpt2 0 V 0 vpt2 V
  hpt2 neg 0 V closepath fill} def
/TriUF {stroke [] 0 setdash vpt 1.12 mul add M
  hpt neg vpt -1.62 mul V
  hpt 2 mul 0 V
  hpt neg vpt 1.62 mul V closepath fill} def
/TriD {stroke [] 0 setdash 2 copy vpt 1.12 mul sub M
  hpt neg vpt 1.62 mul V
  hpt 2 mul 0 V
  hpt neg vpt -1.62 mul V closepath stroke
  Pnt} def
/TriDF {stroke [] 0 setdash vpt 1.12 mul sub M
  hpt neg vpt 1.62 mul V
  hpt 2 mul 0 V
  hpt neg vpt -1.62 mul V closepath fill} def
/DiaF {stroke [] 0 setdash vpt add M
  hpt neg vpt neg V hpt vpt neg V
  hpt vpt V hpt neg vpt V closepath fill} def
/Pent {stroke [] 0 setdash 2 copy gsave
  translate 0 hpt M 4 {72 rotate 0 hpt L} repeat
  closepath stroke grestore Pnt} def
/PentF {stroke [] 0 setdash gsave
  translate 0 hpt M 4 {72 rotate 0 hpt L} repeat
  closepath fill grestore} def
/Circle {stroke [] 0 setdash 2 copy
  hpt 0 360 arc stroke Pnt} def
/CircleF {stroke [] 0 setdash hpt 0 360 arc fill} def
/C0 {BL [] 0 setdash 2 copy moveto vpt 90 450 arc} bind def
/C1 {BL [] 0 setdash 2 copy moveto
	2 copy vpt 0 90 arc closepath fill
	vpt 0 360 arc closepath} bind def
/C2 {BL [] 0 setdash 2 copy moveto
	2 copy vpt 90 180 arc closepath fill
	vpt 0 360 arc closepath} bind def
/C3 {BL [] 0 setdash 2 copy moveto
	2 copy vpt 0 180 arc closepath fill
	vpt 0 360 arc closepath} bind def
/C4 {BL [] 0 setdash 2 copy moveto
	2 copy vpt 180 270 arc closepath fill
	vpt 0 360 arc closepath} bind def
/C5 {BL [] 0 setdash 2 copy moveto
	2 copy vpt 0 90 arc
	2 copy moveto
	2 copy vpt 180 270 arc closepath fill
	vpt 0 360 arc} bind def
/C6 {BL [] 0 setdash 2 copy moveto
	2 copy vpt 90 270 arc closepath fill
	vpt 0 360 arc closepath} bind def
/C7 {BL [] 0 setdash 2 copy moveto
	2 copy vpt 0 270 arc closepath fill
	vpt 0 360 arc closepath} bind def
/C8 {BL [] 0 setdash 2 copy moveto
	2 copy vpt 270 360 arc closepath fill
	vpt 0 360 arc closepath} bind def
/C9 {BL [] 0 setdash 2 copy moveto
	2 copy vpt 270 450 arc closepath fill
	vpt 0 360 arc closepath} bind def
/C10 {BL [] 0 setdash 2 copy 2 copy moveto vpt 270 360 arc closepath fill
	2 copy moveto
	2 copy vpt 90 180 arc closepath fill
	vpt 0 360 arc closepath} bind def
/C11 {BL [] 0 setdash 2 copy moveto
	2 copy vpt 0 180 arc closepath fill
	2 copy moveto
	2 copy vpt 270 360 arc closepath fill
	vpt 0 360 arc closepath} bind def
/C12 {BL [] 0 setdash 2 copy moveto
	2 copy vpt 180 360 arc closepath fill
	vpt 0 360 arc closepath} bind def
/C13 {BL [] 0 setdash 2 copy moveto
	2 copy vpt 0 90 arc closepath fill
	2 copy moveto
	2 copy vpt 180 360 arc closepath fill
	vpt 0 360 arc closepath} bind def
/C14 {BL [] 0 setdash 2 copy moveto
	2 copy vpt 90 360 arc closepath fill
	vpt 0 360 arc} bind def
/C15 {BL [] 0 setdash 2 copy vpt 0 360 arc closepath fill
	vpt 0 360 arc closepath} bind def
/Rec {newpath 4 2 roll moveto 1 index 0 rlineto 0 exch rlineto
	neg 0 rlineto closepath} bind def
/Square {dup Rec} bind def
/Bsquare {vpt sub exch vpt sub exch vpt2 Square} bind def
/S0 {BL [] 0 setdash 2 copy moveto 0 vpt rlineto BL Bsquare} bind def
/S1 {BL [] 0 setdash 2 copy vpt Square fill Bsquare} bind def
/S2 {BL [] 0 setdash 2 copy exch vpt sub exch vpt Square fill Bsquare} bind def
/S3 {BL [] 0 setdash 2 copy exch vpt sub exch vpt2 vpt Rec fill Bsquare} bind def
/S4 {BL [] 0 setdash 2 copy exch vpt sub exch vpt sub vpt Square fill Bsquare} bind def
/S5 {BL [] 0 setdash 2 copy 2 copy vpt Square fill
	exch vpt sub exch vpt sub vpt Square fill Bsquare} bind def
/S6 {BL [] 0 setdash 2 copy exch vpt sub exch vpt sub vpt vpt2 Rec fill Bsquare} bind def
/S7 {BL [] 0 setdash 2 copy exch vpt sub exch vpt sub vpt vpt2 Rec fill
	2 copy vpt Square fill Bsquare} bind def
/S8 {BL [] 0 setdash 2 copy vpt sub vpt Square fill Bsquare} bind def
/S9 {BL [] 0 setdash 2 copy vpt sub vpt vpt2 Rec fill Bsquare} bind def
/S10 {BL [] 0 setdash 2 copy vpt sub vpt Square fill 2 copy exch vpt sub exch vpt Square fill
	Bsquare} bind def
/S11 {BL [] 0 setdash 2 copy vpt sub vpt Square fill 2 copy exch vpt sub exch vpt2 vpt Rec fill
	Bsquare} bind def
/S12 {BL [] 0 setdash 2 copy exch vpt sub exch vpt sub vpt2 vpt Rec fill Bsquare} bind def
/S13 {BL [] 0 setdash 2 copy exch vpt sub exch vpt sub vpt2 vpt Rec fill
	2 copy vpt Square fill Bsquare} bind def
/S14 {BL [] 0 setdash 2 copy exch vpt sub exch vpt sub vpt2 vpt Rec fill
	2 copy exch vpt sub exch vpt Square fill Bsquare} bind def
/S15 {BL [] 0 setdash 2 copy Bsquare fill Bsquare} bind def
/D0 {gsave translate 45 rotate 0 0 S0 stroke grestore} bind def
/D1 {gsave translate 45 rotate 0 0 S1 stroke grestore} bind def
/D2 {gsave translate 45 rotate 0 0 S2 stroke grestore} bind def
/D3 {gsave translate 45 rotate 0 0 S3 stroke grestore} bind def
/D4 {gsave translate 45 rotate 0 0 S4 stroke grestore} bind def
/D5 {gsave translate 45 rotate 0 0 S5 stroke grestore} bind def
/D6 {gsave translate 45 rotate 0 0 S6 stroke grestore} bind def
/D7 {gsave translate 45 rotate 0 0 S7 stroke grestore} bind def
/D8 {gsave translate 45 rotate 0 0 S8 stroke grestore} bind def
/D9 {gsave translate 45 rotate 0 0 S9 stroke grestore} bind def
/D10 {gsave translate 45 rotate 0 0 S10 stroke grestore} bind def
/D11 {gsave translate 45 rotate 0 0 S11 stroke grestore} bind def
/D12 {gsave translate 45 rotate 0 0 S12 stroke grestore} bind def
/D13 {gsave translate 45 rotate 0 0 S13 stroke grestore} bind def
/D14 {gsave translate 45 rotate 0 0 S14 stroke grestore} bind def
/D15 {gsave translate 45 rotate 0 0 S15 stroke grestore} bind def
/DiaE {stroke [] 0 setdash vpt add M
  hpt neg vpt neg V hpt vpt neg V
  hpt vpt V hpt neg vpt V closepath stroke} def
/BoxE {stroke [] 0 setdash exch hpt sub exch vpt add M
  0 vpt2 neg V hpt2 0 V 0 vpt2 V
  hpt2 neg 0 V closepath stroke} def
/TriUE {stroke [] 0 setdash vpt 1.12 mul add M
  hpt neg vpt -1.62 mul V
  hpt 2 mul 0 V
  hpt neg vpt 1.62 mul V closepath stroke} def
/TriDE {stroke [] 0 setdash vpt 1.12 mul sub M
  hpt neg vpt 1.62 mul V
  hpt 2 mul 0 V
  hpt neg vpt -1.62 mul V closepath stroke} def
/PentE {stroke [] 0 setdash gsave
  translate 0 hpt M 4 {72 rotate 0 hpt L} repeat
  closepath stroke grestore} def
/CircE {stroke [] 0 setdash 
  hpt 0 360 arc stroke} def
/Opaque {gsave closepath 1 setgray fill grestore 0 setgray closepath} def
/DiaW {stroke [] 0 setdash vpt add M
  hpt neg vpt neg V hpt vpt neg V
  hpt vpt V hpt neg vpt V Opaque stroke} def
/BoxW {stroke [] 0 setdash exch hpt sub exch vpt add M
  0 vpt2 neg V hpt2 0 V 0 vpt2 V
  hpt2 neg 0 V Opaque stroke} def
/TriUW {stroke [] 0 setdash vpt 1.12 mul add M
  hpt neg vpt -1.62 mul V
  hpt 2 mul 0 V
  hpt neg vpt 1.62 mul V Opaque stroke} def
/TriDW {stroke [] 0 setdash vpt 1.12 mul sub M
  hpt neg vpt 1.62 mul V
  hpt 2 mul 0 V
  hpt neg vpt -1.62 mul V Opaque stroke} def
/PentW {stroke [] 0 setdash gsave
  translate 0 hpt M 4 {72 rotate 0 hpt L} repeat
  Opaque stroke grestore} def
/CircW {stroke [] 0 setdash 
  hpt 0 360 arc Opaque stroke} def
/BoxFill {gsave Rec 1 setgray fill grestore} def
/Density {
  /Fillden exch def
  currentrgbcolor
  /ColB exch def /ColG exch def /ColR exch def
  /ColR ColR Fillden mul Fillden sub 1 add def
  /ColG ColG Fillden mul Fillden sub 1 add def
  /ColB ColB Fillden mul Fillden sub 1 add def
  ColR ColG ColB setrgbcolor} def
/BoxColFill {gsave Rec PolyFill} def
/PolyFill {gsave Density fill grestore grestore} def
/h {rlineto rlineto rlineto gsave closepath fill grestore} bind def
%
% PostScript Level 1 Pattern Fill routine for rectangles
% Usage: x y w h s a XX PatternFill
%	x,y = lower left corner of box to be filled
%	w,h = width and height of box
%	  a = angle in degrees between lines and x-axis
%	 XX = 0/1 for no/yes cross-hatch
%
/PatternFill {gsave /PFa [ 9 2 roll ] def
  PFa 0 get PFa 2 get 2 div add PFa 1 get PFa 3 get 2 div add translate
  PFa 2 get -2 div PFa 3 get -2 div PFa 2 get PFa 3 get Rec
  TransparentPatterns {} {gsave 1 setgray fill grestore} ifelse
  clip
  currentlinewidth 0.5 mul setlinewidth
  /PFs PFa 2 get dup mul PFa 3 get dup mul add sqrt def
  0 0 M PFa 5 get rotate PFs -2 div dup translate
  0 1 PFs PFa 4 get div 1 add floor cvi
	{PFa 4 get mul 0 M 0 PFs V} for
  0 PFa 6 get ne {
	0 1 PFs PFa 4 get div 1 add floor cvi
	{PFa 4 get mul 0 2 1 roll M PFs 0 V} for
 } if
  stroke grestore} def
%
/languagelevel where
 {pop languagelevel} {1} ifelse
dup 2 lt
	{/InterpretLevel1 true def
	 /InterpretLevel3 false def}
	{/InterpretLevel1 Level1 def
	 2 gt
	    {/InterpretLevel3 Level3 def}
	    {/InterpretLevel3 false def}
	 ifelse }
 ifelse
%
% PostScript level 2 pattern fill definitions
%
/Level2PatternFill {
/Tile8x8 {/PaintType 2 /PatternType 1 /TilingType 1 /BBox [0 0 8 8] /XStep 8 /YStep 8}
	bind def
/KeepColor {currentrgbcolor [/Pattern /DeviceRGB] setcolorspace} bind def
<< Tile8x8
 /PaintProc {0.5 setlinewidth pop 0 0 M 8 8 L 0 8 M 8 0 L stroke} 
>> matrix makepattern
/Pat1 exch def
<< Tile8x8
 /PaintProc {0.5 setlinewidth pop 0 0 M 8 8 L 0 8 M 8 0 L stroke
	0 4 M 4 8 L 8 4 L 4 0 L 0 4 L stroke}
>> matrix makepattern
/Pat2 exch def
<< Tile8x8
 /PaintProc {0.5 setlinewidth pop 0 0 M 0 8 L
	8 8 L 8 0 L 0 0 L fill}
>> matrix makepattern
/Pat3 exch def
<< Tile8x8
 /PaintProc {0.5 setlinewidth pop -4 8 M 8 -4 L
	0 12 M 12 0 L stroke}
>> matrix makepattern
/Pat4 exch def
<< Tile8x8
 /PaintProc {0.5 setlinewidth pop -4 0 M 8 12 L
	0 -4 M 12 8 L stroke}
>> matrix makepattern
/Pat5 exch def
<< Tile8x8
 /PaintProc {0.5 setlinewidth pop -2 8 M 4 -4 L
	0 12 M 8 -4 L 4 12 M 10 0 L stroke}
>> matrix makepattern
/Pat6 exch def
<< Tile8x8
 /PaintProc {0.5 setlinewidth pop -2 0 M 4 12 L
	0 -4 M 8 12 L 4 -4 M 10 8 L stroke}
>> matrix makepattern
/Pat7 exch def
<< Tile8x8
 /PaintProc {0.5 setlinewidth pop 8 -2 M -4 4 L
	12 0 M -4 8 L 12 4 M 0 10 L stroke}
>> matrix makepattern
/Pat8 exch def
<< Tile8x8
 /PaintProc {0.5 setlinewidth pop 0 -2 M 12 4 L
	-4 0 M 12 8 L -4 4 M 8 10 L stroke}
>> matrix makepattern
/Pat9 exch def
/Pattern1 {PatternBgnd KeepColor Pat1 setpattern} bind def
/Pattern2 {PatternBgnd KeepColor Pat2 setpattern} bind def
/Pattern3 {PatternBgnd KeepColor Pat3 setpattern} bind def
/Pattern4 {PatternBgnd KeepColor Landscape {Pat5} {Pat4} ifelse setpattern} bind def
/Pattern5 {PatternBgnd KeepColor Landscape {Pat4} {Pat5} ifelse setpattern} bind def
/Pattern6 {PatternBgnd KeepColor Landscape {Pat9} {Pat6} ifelse setpattern} bind def
/Pattern7 {PatternBgnd KeepColor Landscape {Pat8} {Pat7} ifelse setpattern} bind def
} def
%
%
%End of PostScript Level 2 code
%
/PatternBgnd {
  TransparentPatterns {} {gsave 1 setgray fill grestore} ifelse
} def
%
% Substitute for Level 2 pattern fill codes with
% grayscale if Level 2 support is not selected.
%
/Level1PatternFill {
/Pattern1 {0.250 Density} bind def
/Pattern2 {0.500 Density} bind def
/Pattern3 {0.750 Density} bind def
/Pattern4 {0.125 Density} bind def
/Pattern5 {0.375 Density} bind def
/Pattern6 {0.625 Density} bind def
/Pattern7 {0.875 Density} bind def
} def
%
% Now test for support of Level 2 code
%
Level1 {Level1PatternFill} {Level2PatternFill} ifelse
%
/Symbol-Oblique /Symbol findfont [1 0 .167 1 0 0] makefont
dup length dict begin {1 index /FID eq {pop pop} {def} ifelse} forall
currentdict end definefont pop
%
/MFshow {
   { dup 5 get 3 ge
     { 5 get 3 eq {gsave} {grestore} ifelse }
     {dup dup 0 get findfont exch 1 get scalefont setfont
     [ currentpoint ] exch dup 2 get 0 exch R dup 5 get 2 ne {dup dup 6
     get exch 4 get {textshow} {stringwidth pop 0 R} ifelse }if dup 5 get 0 eq
     {dup 3 get {2 get neg 0 exch R pop} {pop aload pop M} ifelse} {dup 5
     get 1 eq {dup 2 get exch dup 3 get exch 6 get stringwidth pop -2 div
     dup 0 R} {dup 6 get stringwidth pop -2 div 0 R 6 get
     textshow 2 index {aload pop M neg 3 -1 roll neg R pop pop} {pop pop pop
     pop aload pop M} ifelse }ifelse }ifelse }
     ifelse }
   forall} def
/Gswidth {dup type /stringtype eq {stringwidth} {pop (n) stringwidth} ifelse} def
/MFwidth {0 exch { dup 5 get 3 ge { 5 get 3 eq { 0 } { pop } ifelse }
 {dup 3 get{dup dup 0 get findfont exch 1 get scalefont setfont
     6 get Gswidth pop add} {pop} ifelse} ifelse} forall} def
/MLshow { currentpoint stroke M
  0 exch R
  Blacktext {gsave 0 setgray MFshow grestore} {MFshow} ifelse } bind def
/MRshow { currentpoint stroke M
  exch dup MFwidth neg 3 -1 roll R
  Blacktext {gsave 0 setgray MFshow grestore} {MFshow} ifelse } bind def
/MCshow { currentpoint stroke M
  exch dup MFwidth -2 div 3 -1 roll R
  Blacktext {gsave 0 setgray MFshow grestore} {MFshow} ifelse } bind def
/XYsave    { [( ) 1 2 true false 3 ()] } bind def
/XYrestore { [( ) 1 2 true false 4 ()] } bind def
Level1 SuppressPDFMark or 
{} {
/SDict 10 dict def
systemdict /pdfmark known not {
  userdict /pdfmark systemdict /cleartomark get put
} if
SDict begin [
  /Title (TcpVegas-2M-ss-400Mbps-UE-increase.eps)
  /Subject (gnuplot plot)
  /Creator (gnuplot 5.0 patchlevel 3)
  /Author (nat)
%  /Producer (gnuplot)
%  /Keywords ()
  /CreationDate (Fri Jul 15 15:45:05 2016)
  /DOCINFO pdfmark
end
} ifelse
%
% Support for boxed text - Ethan A Merritt May 2005
%
/InitTextBox { userdict /TBy2 3 -1 roll put userdict /TBx2 3 -1 roll put
           userdict /TBy1 3 -1 roll put userdict /TBx1 3 -1 roll put
	   /Boxing true def } def
/ExtendTextBox { Boxing
    { gsave dup false charpath pathbbox
      dup TBy2 gt {userdict /TBy2 3 -1 roll put} {pop} ifelse
      dup TBx2 gt {userdict /TBx2 3 -1 roll put} {pop} ifelse
      dup TBy1 lt {userdict /TBy1 3 -1 roll put} {pop} ifelse
      dup TBx1 lt {userdict /TBx1 3 -1 roll put} {pop} ifelse
      grestore } if } def
/PopTextBox { newpath TBx1 TBxmargin sub TBy1 TBymargin sub M
               TBx1 TBxmargin sub TBy2 TBymargin add L
	       TBx2 TBxmargin add TBy2 TBymargin add L
	       TBx2 TBxmargin add TBy1 TBymargin sub L closepath } def
/DrawTextBox { PopTextBox stroke /Boxing false def} def
/FillTextBox { gsave PopTextBox 1 1 1 setrgbcolor fill grestore /Boxing false def} def
0 0 0 0 InitTextBox
/TBxmargin 20 def
/TBymargin 20 def
/Boxing false def
/textshow { ExtendTextBox Gshow } def
%
% redundant definitions for compatibility with prologue.ps older than 5.0.2
/LTB {BL [] LCb DL} def
/LTb {PL [] LCb DL} def
end
%%EndProlog
%%Page: 1 1
gnudict begin
gsave
doclip
50 50 translate
0.050 0.050 scale
0 setgray
newpath
(Arial) findfont 200 scalefont setfont
BackgroundColor 0 lt 3 1 roll 0 lt exch 0 lt or or not {BackgroundColor C 1.000 0 0 14400.00 5040.00 BoxColFill} if
1.000 UL
LTb
0.00 0.00 0.00 C 0.500 UL
LTa
0.50 0.50 0.50 C 1100 820 M
5739 0 V
stroke
1.000 UL
LTb
0.00 0.00 0.00 C 1100 820 M
63 0 V
5676 0 R
-63 0 V
stroke
980 820 M
[ [(Arial) 200.0 0.0 true true 0 ( 700)]
] -66.7 MRshow
1.000 UL
LTb
0.00 0.00 0.00 C 0.500 UL
LTa
0.50 0.50 0.50 C 1100 1182 M
5739 0 V
stroke
1.000 UL
LTb
0.00 0.00 0.00 C 1100 1182 M
63 0 V
5676 0 R
-63 0 V
stroke
980 1182 M
[ [(Arial) 200.0 0.0 true true 0 ( 750)]
] -66.7 MRshow
1.000 UL
LTb
0.00 0.00 0.00 C 0.500 UL
LTa
0.50 0.50 0.50 C 1100 1544 M
5739 0 V
stroke
1.000 UL
LTb
0.00 0.00 0.00 C 1100 1544 M
63 0 V
5676 0 R
-63 0 V
stroke
980 1544 M
[ [(Arial) 200.0 0.0 true true 0 ( 800)]
] -66.7 MRshow
1.000 UL
LTb
0.00 0.00 0.00 C 0.500 UL
LTa
0.50 0.50 0.50 C 1100 1906 M
5739 0 V
stroke
1.000 UL
LTb
0.00 0.00 0.00 C 1100 1906 M
63 0 V
5676 0 R
-63 0 V
stroke
980 1906 M
[ [(Arial) 200.0 0.0 true true 0 ( 850)]
] -66.7 MRshow
1.000 UL
LTb
0.00 0.00 0.00 C 0.500 UL
LTa
0.50 0.50 0.50 C 1100 2268 M
5739 0 V
stroke
1.000 UL
LTb
0.00 0.00 0.00 C 1100 2268 M
63 0 V
5676 0 R
-63 0 V
stroke
980 2268 M
[ [(Arial) 200.0 0.0 true true 0 ( 900)]
] -66.7 MRshow
1.000 UL
LTb
0.00 0.00 0.00 C 0.500 UL
LTa
0.50 0.50 0.50 C 1100 2630 M
5739 0 V
stroke
1.000 UL
LTb
0.00 0.00 0.00 C 1100 2630 M
63 0 V
5676 0 R
-63 0 V
stroke
980 2630 M
[ [(Arial) 200.0 0.0 true true 0 ( 950)]
] -66.7 MRshow
1.000 UL
LTb
0.00 0.00 0.00 C 0.500 UL
LTa
0.50 0.50 0.50 C 1100 2991 M
5739 0 V
stroke
1.000 UL
LTb
0.00 0.00 0.00 C 1100 2991 M
63 0 V
5676 0 R
-63 0 V
stroke
980 2991 M
[ [(Arial) 200.0 0.0 true true 0 ( 1000)]
] -66.7 MRshow
1.000 UL
LTb
0.00 0.00 0.00 C 0.500 UL
LTa
0.50 0.50 0.50 C 1100 3353 M
5739 0 V
stroke
1.000 UL
LTb
0.00 0.00 0.00 C 1100 3353 M
63 0 V
5676 0 R
-63 0 V
stroke
980 3353 M
[ [(Arial) 200.0 0.0 true true 0 ( 1050)]
] -66.7 MRshow
1.000 UL
LTb
0.00 0.00 0.00 C 0.500 UL
LTa
0.50 0.50 0.50 C 1100 3715 M
5739 0 V
stroke
1.000 UL
LTb
0.00 0.00 0.00 C 1100 3715 M
63 0 V
5676 0 R
-63 0 V
stroke
980 3715 M
[ [(Arial) 200.0 0.0 true true 0 ( 1100)]
] -66.7 MRshow
1.000 UL
LTb
0.00 0.00 0.00 C 0.500 UL
LTa
0.50 0.50 0.50 C 1100 4077 M
5739 0 V
stroke
1.000 UL
LTb
0.00 0.00 0.00 C 1100 4077 M
63 0 V
5676 0 R
-63 0 V
stroke
980 4077 M
[ [(Arial) 200.0 0.0 true true 0 ( 1150)]
] -66.7 MRshow
1.000 UL
LTb
0.00 0.00 0.00 C 0.500 UL
LTa
0.50 0.50 0.50 C 1100 4439 M
5739 0 V
stroke
1.000 UL
LTb
0.00 0.00 0.00 C 1100 4439 M
63 0 V
5676 0 R
-63 0 V
stroke
980 4439 M
[ [(Arial) 200.0 0.0 true true 0 ( 1200)]
] -66.7 MRshow
1.000 UL
LTb
0.00 0.00 0.00 C 0.500 UL
LTa
0.50 0.50 0.50 C 1674 820 M
0 3619 V
stroke
1.000 UL
LTb
0.00 0.00 0.00 C 1674 820 M
0 63 V
0 3556 R
0 -63 V
stroke
1674 620 M
[ [(Arial) 200.0 0.0 true true 0 (1)]
] -66.7 MCshow
1.000 UL
LTb
0.00 0.00 0.00 C 0.500 UL
LTa
0.50 0.50 0.50 C 2822 820 M
0 3619 V
stroke
1.000 UL
LTb
0.00 0.00 0.00 C 2822 820 M
0 63 V
0 3556 R
0 -63 V
stroke
2822 620 M
[ [(Arial) 200.0 0.0 true true 0 (2)]
] -66.7 MCshow
1.000 UL
LTb
0.00 0.00 0.00 C 0.500 UL
LTa
0.50 0.50 0.50 C 3970 820 M
0 3619 V
stroke
1.000 UL
LTb
0.00 0.00 0.00 C 3970 820 M
0 63 V
0 3556 R
0 -63 V
stroke
3970 620 M
[ [(Arial) 200.0 0.0 true true 0 (4)]
] -66.7 MCshow
1.000 UL
LTb
0.00 0.00 0.00 C 0.500 UL
LTa
0.50 0.50 0.50 C 5117 820 M
0 3619 V
stroke
1.000 UL
LTb
0.00 0.00 0.00 C 5117 820 M
0 63 V
0 3556 R
0 -63 V
stroke
5117 620 M
[ [(Arial) 200.0 0.0 true true 0 (8)]
] -66.7 MCshow
1.000 UL
LTb
0.00 0.00 0.00 C 0.500 UL
LTa
0.50 0.50 0.50 C 6265 820 M
0 3619 V
stroke
1.000 UL
LTb
0.00 0.00 0.00 C 6265 820 M
0 63 V
0 3556 R
0 -63 V
stroke
6265 620 M
[ [(Arial) 200.0 0.0 true true 0 (16)]
] -66.7 MCshow
1.000 UL
LTb
0.00 0.00 0.00 C 1.000 UL
LTB
0.00 0.00 0.00 C 1100 4439 M
0 -3619 V
5739 0 V
0 3619 R
-5739 0 R
1.000 UP
stroke
LTb
0.00 0.00 0.00 C LCb setrgbcolor
160 2629 M
currentpoint gsave translate -270 rotate 0 0 moveto
[ [(Arial) 200.0 0.0 true true 0 (RTT \(ms\))]
] -66.7 MCshow
grestore
LTb
LCb setrgbcolor
3969 320 M
[ [(Arial) 200.0 0.0 true true 0 (Flows #)]
] -66.7 MCshow
LTb
LCb setrgbcolor
3969 4739 M
[ [(Arial) 200.0 0.0 true true 0 (a\) RTT)]
] -66.7 MCshow
% Begin plot #1
1.000 UL
LTb
0.60 0.60 0.00 C LCb setrgbcolor
2714 153 M
[ [(Arial) 180.0 0.0 true true 0 (olsr)]
] -60.0 MRshow
1.000 UL
LTb
0.60 0.60 0.00 C 2822 108 333 90 80 -45 0 PatternFill
2822 108 N
333 0 V
0 90 V
-333 0 V
0 -90 V
Z stroke
1.000 UL
LTb
0.60 0.60 0.00 C 1215 1192 230 105 80 -45 0 PatternFill
1330 1180 M
0 12 V
0 105 R
0 183 V
stroke
1215 1192 N
230 0 V
0 105 V
-230 0 V
0 -105 V
Z stroke
1215 1480 M
230 0 V
1215 1180 M
230 0 V
stroke
2363 1176 230 143 80 -45 0 PatternFill
2478 1153 M
0 23 V
0 143 R
0 209 V
stroke
2363 1176 N
230 0 V
0 143 V
-230 0 V
0 -143 V
Z stroke
2363 1528 M
230 0 V
2363 1153 M
230 0 V
stroke
3510 1147 230 164 80 -45 0 PatternFill
3625 1109 M
0 38 V
0 164 R
0 401 V
stroke
3510 1147 N
230 0 V
0 164 V
-230 0 V
0 -164 V
Z stroke
3510 1712 M
230 0 V
3510 1109 M
230 0 V
stroke
4658 1162 230 285 80 -45 0 PatternFill
4773 1119 M
0 43 V
0 285 R
0 535 V
stroke
4658 1162 N
230 0 V
0 285 V
-230 0 V
0 -285 V
Z stroke
4658 1982 M
230 0 V
4658 1119 M
230 0 V
stroke
5806 1258 230 626 80 -45 0 PatternFill
5921 1135 M
0 123 V
0 626 R
0 1506 V
stroke
5806 1258 N
230 0 V
0 626 V
-230 0 V
0 -626 V
Z stroke
5806 3390 M
230 0 V
5806 1135 M
230 0 V
% End plot #1
% Begin plot #2
stroke
LTb
LCb setrgbcolor

 /TransparentPatterns true def
1215 1248 230 0 40 30 0 PatternFill
1330 1248 M
stroke
1215 1248 N
230 0 V
-230 0 V
Z stroke
1215 1248 M
230 0 V
-230 0 R
230 0 V
stroke

 /TransparentPatterns true def
2363 1250 230 0 40 30 0 PatternFill
2478 1250 M
stroke
2363 1250 N
230 0 V
-230 0 V
Z stroke
2363 1250 M
230 0 V
-230 0 R
230 0 V
stroke

 /TransparentPatterns true def
3510 1243 230 0 40 30 0 PatternFill
3625 1243 M
stroke
3510 1243 N
230 0 V
-230 0 V
Z stroke
3510 1243 M
230 0 V
-230 0 R
230 0 V
stroke

 /TransparentPatterns true def
4658 1318 230 0 40 30 0 PatternFill
4773 1318 M
stroke
4658 1318 N
230 0 V
-230 0 V
Z stroke
4658 1318 M
230 0 V
-230 0 R
230 0 V
stroke

 /TransparentPatterns true def
5806 1634 230 0 40 30 0 PatternFill
5921 1634 M
stroke
5806 1634 N
230 0 V
-230 0 V
Z stroke
5806 1634 M
230 0 V
-230 0 R
230 0 V
% End plot #2
% Begin plot #3
stroke
LTb
0.00 0.00 0.63 C LCb setrgbcolor
4127 153 M
[ [(Arial) 180.0 0.0 true true 0 (per-packet)]
] -60.0 MRshow
1.000 UL
LTb
0.00 0.00 0.63 C 4235 108 333 90 80 45 0 PatternFill
4235 108 N
333 0 V
0 90 V
-333 0 V
0 -90 V
Z stroke
1.000 UL
LTb
0.00 0.00 0.63 C 1559 1192 230 105 80 45 0 PatternFill
1674 1180 M
0 12 V
0 105 R
0 218 V
stroke
1559 1192 N
230 0 V
0 105 V
-230 0 V
0 -105 V
Z stroke
1559 1515 M
230 0 V
1559 1180 M
230 0 V
stroke
2707 1181 230 139 80 45 0 PatternFill
2822 1160 M
0 21 V
0 139 R
0 224 V
stroke
2707 1181 N
230 0 V
0 139 V
-230 0 V
0 -139 V
Z stroke
2707 1544 M
230 0 V
2707 1160 M
230 0 V
stroke
3855 1132 230 207 80 45 0 PatternFill
3970 1106 M
0 26 V
0 207 R
0 370 V
stroke
3855 1132 N
230 0 V
0 207 V
-230 0 V
0 -207 V
Z stroke
3855 1709 M
230 0 V
3855 1106 M
230 0 V
stroke
5003 1177 230 247 80 45 0 PatternFill
5118 1122 M
0 55 V
0 247 R
0 536 V
stroke
5003 1177 N
230 0 V
0 247 V
-230 0 V
0 -247 V
Z stroke
5003 1960 M
230 0 V
5003 1122 M
230 0 V
stroke
6150 1312 230 1501 80 45 0 PatternFill
6265 1134 M
0 178 V
0 1501 R
0 684 V
stroke
6150 1312 N
230 0 V
0 1501 V
-230 0 V
0 -1501 V
Z stroke
6150 3497 M
230 0 V
6150 1134 M
230 0 V
% End plot #3
% Begin plot #4
stroke
LTb
LCb setrgbcolor

 /TransparentPatterns true def
1559 1249 230 0 80 -45 0 PatternFill
1674 1249 M
stroke
1559 1249 N
230 0 V
-230 0 V
Z stroke
1559 1249 M
230 0 V
-230 0 R
230 0 V
stroke

 /TransparentPatterns true def
2707 1252 230 0 80 -45 0 PatternFill
2822 1252 M
stroke
2707 1252 N
230 0 V
-230 0 V
Z stroke
2707 1252 M
230 0 V
-230 0 R
230 0 V
stroke

 /TransparentPatterns true def
3855 1249 230 0 80 -45 0 PatternFill
3970 1249 M
stroke
3855 1249 N
230 0 V
-230 0 V
Z stroke
3855 1249 M
230 0 V
-230 0 R
230 0 V
stroke

 /TransparentPatterns true def
5003 1314 230 0 80 -45 0 PatternFill
5118 1314 M
stroke
5003 1314 N
230 0 V
-230 0 V
Z stroke
5003 1314 M
230 0 V
-230 0 R
230 0 V
stroke

 /TransparentPatterns true def
6150 1979 230 0 80 -45 0 PatternFill
6265 1979 M
stroke
6150 1979 N
230 0 V
-230 0 V
Z stroke
6150 1979 M
230 0 V
-230 0 R
230 0 V
% End plot #4
% Begin plot #5
stroke
LTb
0.00 0.38 0.82 C LCb setrgbcolor
5540 153 M
[ [(Arial) 180.0 0.0 true true 0 (per-flow)]
] -60.0 MRshow
1.000 UL
LTb
0.00 0.38 0.82 C 5648 108 333 90 40 30 0 PatternFill
5648 108 N
333 0 V
0 90 V
-333 0 V
0 -90 V
Z stroke
1.000 UL
LTb
0.00 0.38 0.82 C 1903 1192 230 105 40 30 0 PatternFill
2018 1180 M
0 12 V
0 105 R
0 218 V
stroke
1903 1192 N
230 0 V
0 105 V
-230 0 V
0 -105 V
Z stroke
1903 1515 M
230 0 V
1903 1180 M
230 0 V
stroke
3051 1181 230 139 40 30 0 PatternFill
3166 1160 M
0 21 V
0 139 R
0 224 V
stroke
3051 1181 N
230 0 V
0 139 V
-230 0 V
0 -139 V
Z stroke
3051 1544 M
230 0 V
3051 1160 M
230 0 V
stroke
4199 1132 230 207 40 30 0 PatternFill
4314 1106 M
0 26 V
0 207 R
0 370 V
stroke
4199 1132 N
230 0 V
0 207 V
-230 0 V
0 -207 V
Z stroke
4199 1709 M
230 0 V
4199 1106 M
230 0 V
stroke
5347 1192 230 270 40 30 0 PatternFill
5462 1126 M
0 66 V
0 270 R
0 344 V
stroke
5347 1192 N
230 0 V
0 270 V
-230 0 V
0 -270 V
Z stroke
5347 1806 M
230 0 V
5347 1126 M
230 0 V
stroke
6495 1369 230 2063 40 30 0 PatternFill
6610 1129 M
0 240 V
0 2063 R
0 660 V
stroke
6495 1369 N
230 0 V
0 2063 V
-230 0 V
0 -2063 V
Z stroke
6495 4092 M
230 0 V
6495 1129 M
230 0 V
% End plot #5
% Begin plot #6
stroke
LTb
LCb setrgbcolor

 /TransparentPatterns true def
1903 1249 230 0 40 -30 0 PatternFill
2018 1249 M
stroke
1903 1249 N
230 0 V
-230 0 V
Z stroke
1903 1249 M
230 0 V
-230 0 R
230 0 V
stroke

 /TransparentPatterns true def
3051 1252 230 0 40 -30 0 PatternFill
3166 1252 M
stroke
3051 1252 N
230 0 V
-230 0 V
Z stroke
3051 1252 M
230 0 V
-230 0 R
230 0 V
stroke

 /TransparentPatterns true def
4199 1249 230 0 40 -30 0 PatternFill
4314 1249 M
stroke
4199 1249 N
230 0 V
-230 0 V
Z stroke
4199 1249 M
230 0 V
-230 0 R
230 0 V
stroke

 /TransparentPatterns true def
5347 1329 230 0 40 -30 0 PatternFill
5462 1329 M
stroke
5347 1329 N
230 0 V
-230 0 V
Z stroke
5347 1329 M
230 0 V
-230 0 R
230 0 V
stroke

 /TransparentPatterns true def
6495 2320 230 0 40 -30 0 PatternFill
6610 2320 M
stroke
6495 2320 N
230 0 V
-230 0 V
Z stroke
6495 2320 M
230 0 V
-230 0 R
230 0 V
% End plot #6
stroke
2.000 UL
LTb
LCb setrgbcolor
1.000 UP
1.000 UL
LTb
0.00 0.00 0.00 C 1.000 UL
LTb
0.00 0.00 0.00 C 0.500 UL
LTa
0.50 0.50 0.50 C 8060 820 M
5979 0 V
stroke
1.000 UL
LTb
0.00 0.00 0.00 C 8060 820 M
63 0 V
5916 0 R
-63 0 V
stroke
7940 820 M
[ [(Arial) 200.0 0.0 true true 0 ( 10)]
] -66.7 MRshow
1.000 UL
LTb
0.00 0.00 0.00 C 0.500 UL
LTa
0.50 0.50 0.50 C 8060 1222 M
5979 0 V
stroke
1.000 UL
LTb
0.00 0.00 0.00 C 8060 1222 M
63 0 V
5916 0 R
-63 0 V
stroke
7940 1222 M
[ [(Arial) 200.0 0.0 true true 0 ( 15)]
] -66.7 MRshow
1.000 UL
LTb
0.00 0.00 0.00 C 0.500 UL
LTa
0.50 0.50 0.50 C 8060 1624 M
5979 0 V
stroke
1.000 UL
LTb
0.00 0.00 0.00 C 8060 1624 M
63 0 V
5916 0 R
-63 0 V
stroke
7940 1624 M
[ [(Arial) 200.0 0.0 true true 0 ( 20)]
] -66.7 MRshow
1.000 UL
LTb
0.00 0.00 0.00 C 0.500 UL
LTa
0.50 0.50 0.50 C 8060 2026 M
5979 0 V
stroke
1.000 UL
LTb
0.00 0.00 0.00 C 8060 2026 M
63 0 V
5916 0 R
-63 0 V
stroke
7940 2026 M
[ [(Arial) 200.0 0.0 true true 0 ( 25)]
] -66.7 MRshow
1.000 UL
LTb
0.00 0.00 0.00 C 0.500 UL
LTa
0.50 0.50 0.50 C 8060 2428 M
5979 0 V
stroke
1.000 UL
LTb
0.00 0.00 0.00 C 8060 2428 M
63 0 V
5916 0 R
-63 0 V
stroke
7940 2428 M
[ [(Arial) 200.0 0.0 true true 0 ( 30)]
] -66.7 MRshow
1.000 UL
LTb
0.00 0.00 0.00 C 0.500 UL
LTa
0.50 0.50 0.50 C 8060 2831 M
5979 0 V
stroke
1.000 UL
LTb
0.00 0.00 0.00 C 8060 2831 M
63 0 V
5916 0 R
-63 0 V
stroke
7940 2831 M
[ [(Arial) 200.0 0.0 true true 0 ( 35)]
] -66.7 MRshow
1.000 UL
LTb
0.00 0.00 0.00 C 0.500 UL
LTa
0.50 0.50 0.50 C 8060 3233 M
5979 0 V
stroke
1.000 UL
LTb
0.00 0.00 0.00 C 8060 3233 M
63 0 V
5916 0 R
-63 0 V
stroke
7940 3233 M
[ [(Arial) 200.0 0.0 true true 0 ( 40)]
] -66.7 MRshow
1.000 UL
LTb
0.00 0.00 0.00 C 0.500 UL
LTa
0.50 0.50 0.50 C 8060 3635 M
5979 0 V
stroke
1.000 UL
LTb
0.00 0.00 0.00 C 8060 3635 M
63 0 V
5916 0 R
-63 0 V
stroke
7940 3635 M
[ [(Arial) 200.0 0.0 true true 0 ( 45)]
] -66.7 MRshow
1.000 UL
LTb
0.00 0.00 0.00 C 0.500 UL
LTa
0.50 0.50 0.50 C 8060 4037 M
5979 0 V
stroke
1.000 UL
LTb
0.00 0.00 0.00 C 8060 4037 M
63 0 V
5916 0 R
-63 0 V
stroke
7940 4037 M
[ [(Arial) 200.0 0.0 true true 0 ( 50)]
] -66.7 MRshow
1.000 UL
LTb
0.00 0.00 0.00 C 0.500 UL
LTa
0.50 0.50 0.50 C 8060 4439 M
5979 0 V
stroke
1.000 UL
LTb
0.00 0.00 0.00 C 8060 4439 M
63 0 V
5916 0 R
-63 0 V
stroke
7940 4439 M
[ [(Arial) 200.0 0.0 true true 0 ( 55)]
] -66.7 MRshow
1.000 UL
LTb
0.00 0.00 0.00 C 0.500 UL
LTa
0.50 0.50 0.50 C 8658 820 M
0 3619 V
stroke
1.000 UL
LTb
0.00 0.00 0.00 C 8658 820 M
0 63 V
0 3556 R
0 -63 V
stroke
8658 620 M
[ [(Arial) 200.0 0.0 true true 0 (1)]
] -66.7 MCshow
1.000 UL
LTb
0.00 0.00 0.00 C 0.500 UL
LTa
0.50 0.50 0.50 C 9854 820 M
0 3619 V
stroke
1.000 UL
LTb
0.00 0.00 0.00 C 9854 820 M
0 63 V
0 3556 R
0 -63 V
stroke
9854 620 M
[ [(Arial) 200.0 0.0 true true 0 (2)]
] -66.7 MCshow
1.000 UL
LTb
0.00 0.00 0.00 C 0.500 UL
LTa
0.50 0.50 0.50 C 11050 820 M
0 3619 V
stroke
1.000 UL
LTb
0.00 0.00 0.00 C 11050 820 M
0 63 V
0 3556 R
0 -63 V
stroke
11050 620 M
[ [(Arial) 200.0 0.0 true true 0 (4)]
] -66.7 MCshow
1.000 UL
LTb
0.00 0.00 0.00 C 0.500 UL
LTa
0.50 0.50 0.50 C 12245 820 M
0 3619 V
stroke
1.000 UL
LTb
0.00 0.00 0.00 C 12245 820 M
0 63 V
0 3556 R
0 -63 V
stroke
12245 620 M
[ [(Arial) 200.0 0.0 true true 0 (8)]
] -66.7 MCshow
1.000 UL
LTb
0.00 0.00 0.00 C 0.500 UL
LTa
0.50 0.50 0.50 C 13441 820 M
0 3619 V
stroke
1.000 UL
LTb
0.00 0.00 0.00 C 13441 820 M
0 63 V
0 3556 R
0 -63 V
stroke
13441 620 M
[ [(Arial) 200.0 0.0 true true 0 (16)]
] -66.7 MCshow
1.000 UL
LTb
0.00 0.00 0.00 C 1.000 UL
LTB
0.00 0.00 0.00 C 8060 4439 M
0 -3619 V
5979 0 V
0 3619 R
-5979 0 R
1.000 UP
stroke
LTb
0.00 0.00 0.00 C LCb setrgbcolor
7360 2629 M
currentpoint gsave translate -270 rotate 0 0 moveto
[ [(Arial) 200.0 0.0 true true 0 (File download time \(s\))]
] -66.7 MCshow
grestore
LTb
LCb setrgbcolor
11049 320 M
[ [(Arial) 200.0 0.0 true true 0 (Flows #)]
] -66.7 MCshow
LTb
LCb setrgbcolor
11049 4739 M
[ [(Arial) 200.0 0.0 true true 0 (b\) File download time)]
] -66.7 MCshow
% Begin plot #1
1.000 UL
LTb
0.60 0.60 0.00 C LCb setrgbcolor
9794 153 M
[ [(Arial) 180.0 0.0 true true 0 (olsr)]
] -60.0 MRshow
1.000 UL
LTb
0.60 0.60 0.00 C 9902 108 333 90 80 -45 0 PatternFill
9902 108 N
333 0 V
0 90 V
-333 0 V
0 -90 V
Z stroke
1.000 UL
LTb
0.60 0.60 0.00 C 8180 1741 240 0 80 -45 0 PatternFill
8300 1741 M
stroke
8180 1741 N
240 0 V
-240 0 V
Z stroke
8180 1741 M
240 0 V
-240 0 R
240 0 V
stroke
9375 1861 240 360 80 -45 0 PatternFill
9495 1741 M
0 120 V
0 360 R
0 120 V
stroke
9375 1861 N
240 0 V
0 360 V
-240 0 V
0 -360 V
Z stroke
9375 2341 M
240 0 V
9375 1741 M
240 0 V
stroke
10571 2119 240 300 80 -45 0 PatternFill
10691 1761 M
0 358 V
0 300 R
0 23 V
stroke
10571 2119 N
240 0 V
0 300 V
-240 0 V
0 -300 V
Z stroke
10571 2442 M
240 0 V
-240 -681 R
240 0 V
stroke
11767 1886 240 641 80 -45 0 PatternFill
11887 974 M
0 912 V
0 641 R
0 426 V
stroke
11767 1886 N
240 0 V
0 641 V
-240 0 V
0 -641 V
Z stroke
11767 2953 M
240 0 V
11767 974 M
240 0 V
stroke
12963 1674 240 2054 80 -45 0 PatternFill
13083 999 M
0 675 V
0 2054 R
0 319 V
stroke
12963 1674 N
240 0 V
0 2054 V
-240 0 V
0 -2054 V
Z stroke
12963 4047 M
240 0 V
12963 999 M
240 0 V
% End plot #1
% Begin plot #2
stroke
LTb
LCb setrgbcolor

 /TransparentPatterns true def
8180 1741 240 0 40 30 0 PatternFill
8300 1741 M
stroke
8180 1741 N
240 0 V
-240 0 V
Z stroke
8180 1741 M
240 0 V
-240 0 R
240 0 V
stroke

 /TransparentPatterns true def
9375 2041 240 0 40 30 0 PatternFill
9495 2041 M
stroke
9375 2041 N
240 0 V
-240 0 V
Z stroke
9375 2041 M
240 0 V
-240 0 R
240 0 V
stroke

 /TransparentPatterns true def
10571 2241 240 0 40 30 0 PatternFill
10691 2241 M
stroke
10571 2241 N
240 0 V
-240 0 V
Z stroke
10571 2241 M
240 0 V
-240 0 R
240 0 V
stroke

 /TransparentPatterns true def
11767 2216 240 0 40 30 0 PatternFill
11887 2216 M
stroke
11767 2216 N
240 0 V
-240 0 V
Z stroke
11767 2216 M
240 0 V
-240 0 R
240 0 V
stroke

 /TransparentPatterns true def
12963 2693 240 0 40 30 0 PatternFill
13083 2693 M
stroke
12963 2693 N
240 0 V
-240 0 V
Z stroke
12963 2693 M
240 0 V
-240 0 R
240 0 V
% End plot #2
% Begin plot #3
stroke
LTb
0.00 0.00 0.63 C LCb setrgbcolor
11207 153 M
[ [(Arial) 180.0 0.0 true true 0 (per-packet)]
] -60.0 MRshow
1.000 UL
LTb
0.00 0.00 0.63 C 11315 108 333 90 80 45 0 PatternFill
11315 108 N
333 0 V
0 90 V
-333 0 V
0 -90 V
Z stroke
1.000 UL
LTb
0.00 0.00 0.63 C 8538 1017 240 0 80 45 0 PatternFill
8658 1017 M
stroke
8538 1017 N
240 0 V
-240 0 V
Z stroke
8538 1017 M
240 0 V
-240 0 R
240 0 V
stroke
9734 1136 240 361 80 45 0 PatternFill
9854 1015 M
0 121 V
0 361 R
0 120 V
stroke
9734 1136 N
240 0 V
0 361 V
-240 0 V
0 -361 V
Z stroke
9734 1617 M
240 0 V
9734 1015 M
240 0 V
stroke
10930 1383 240 289 80 45 0 PatternFill
11050 1015 M
0 368 V
0 289 R
0 46 V
stroke
10930 1383 N
240 0 V
0 289 V
-240 0 V
0 -289 V
Z stroke
10930 1718 M
240 0 V
-240 -703 R
240 0 V
stroke
12126 1693 240 382 80 45 0 PatternFill
12246 1024 M
0 669 V
0 382 R
0 168 V
stroke
12126 1693 N
240 0 V
0 382 V
-240 0 V
0 -382 V
Z stroke
12126 2243 M
240 0 V
12126 1024 M
240 0 V
stroke
13322 2143 240 547 80 45 0 PatternFill
13442 1340 M
0 803 V
0 547 R
0 1098 V
stroke
13322 2143 N
240 0 V
0 547 V
-240 0 V
0 -547 V
Z stroke
13322 3788 M
240 0 V
13322 1340 M
240 0 V
% End plot #3
% Begin plot #4
stroke
LTb
LCb setrgbcolor

 /TransparentPatterns true def
8538 1017 240 0 80 -45 0 PatternFill
8658 1017 M
stroke
8538 1017 N
240 0 V
-240 0 V
Z stroke
8538 1017 M
240 0 V
-240 0 R
240 0 V
stroke

 /TransparentPatterns true def
9734 1316 240 0 80 -45 0 PatternFill
9854 1316 M
stroke
9734 1316 N
240 0 V
-240 0 V
Z stroke
9734 1316 M
240 0 V
-240 0 R
240 0 V
stroke

 /TransparentPatterns true def
10930 1501 240 0 80 -45 0 PatternFill
11050 1501 M
stroke
10930 1501 N
240 0 V
-240 0 V
Z stroke
10930 1501 M
240 0 V
-240 0 R
240 0 V
stroke

 /TransparentPatterns true def
12126 1781 240 0 80 -45 0 PatternFill
12246 1781 M
stroke
12126 1781 N
240 0 V
-240 0 V
Z stroke
12126 1781 M
240 0 V
-240 0 R
240 0 V
stroke

 /TransparentPatterns true def
13322 2345 240 0 80 -45 0 PatternFill
13442 2345 M
stroke
13322 2345 N
240 0 V
-240 0 V
Z stroke
13322 2345 M
240 0 V
-240 0 R
240 0 V
% End plot #4
% Begin plot #5
stroke
LTb
0.00 0.38 0.82 C LCb setrgbcolor
12620 153 M
[ [(Arial) 180.0 0.0 true true 0 (per-flow)]
] -60.0 MRshow
1.000 UL
LTb
0.00 0.38 0.82 C 12728 108 333 90 40 30 0 PatternFill
12728 108 N
333 0 V
0 90 V
-333 0 V
0 -90 V
Z stroke
1.000 UL
LTb
0.00 0.38 0.82 C 8897 1017 240 0 40 30 0 PatternFill
9017 1017 M
stroke
8897 1017 N
240 0 V
-240 0 V
Z stroke
8897 1017 M
240 0 V
-240 0 R
240 0 V
stroke
10093 1136 240 361 40 30 0 PatternFill
10213 1015 M
0 121 V
0 361 R
0 120 V
stroke
10093 1136 N
240 0 V
0 361 V
-240 0 V
0 -361 V
Z stroke
10093 1617 M
240 0 V
-240 -602 R
240 0 V
stroke
11289 1383 240 289 40 30 0 PatternFill
11409 1015 M
0 368 V
0 289 R
0 46 V
stroke
11289 1383 N
240 0 V
0 289 V
-240 0 V
0 -289 V
Z stroke
11289 1718 M
240 0 V
-240 -703 R
240 0 V
stroke
12484 1489 240 326 40 30 0 PatternFill
12604 1020 M
0 469 V
0 326 R
0 26 V
stroke
12484 1489 N
240 0 V
0 326 V
-240 0 V
0 -326 V
Z stroke
12484 1841 M
240 0 V
-240 -821 R
240 0 V
stroke
13680 2243 240 103 40 30 0 PatternFill
13800 1425 M
0 818 V
0 103 R
0 833 V
stroke
13680 2243 N
240 0 V
0 103 V
-240 0 V
0 -103 V
Z stroke
13680 3179 M
240 0 V
13680 1425 M
240 0 V
% End plot #5
% Begin plot #6
stroke
LTb
LCb setrgbcolor

 /TransparentPatterns true def
8897 1017 240 0 40 -30 0 PatternFill
9017 1017 M
stroke
8897 1017 N
240 0 V
-240 0 V
Z stroke
8897 1017 M
240 0 V
-240 0 R
240 0 V
stroke

 /TransparentPatterns true def
10093 1316 240 0 40 -30 0 PatternFill
10213 1316 M
stroke
10093 1316 N
240 0 V
-240 0 V
Z stroke
10093 1316 M
240 0 V
-240 0 R
240 0 V
stroke

 /TransparentPatterns true def
11289 1501 240 0 40 -30 0 PatternFill
11409 1501 M
stroke
11289 1501 N
240 0 V
-240 0 V
Z stroke
11289 1501 M
240 0 V
-240 0 R
240 0 V
stroke

 /TransparentPatterns true def
12484 1627 240 0 40 -30 0 PatternFill
12604 1627 M
stroke
12484 1627 N
240 0 V
-240 0 V
Z stroke
12484 1627 M
240 0 V
-240 0 R
240 0 V
stroke

 /TransparentPatterns true def
13680 2292 240 0 40 -30 0 PatternFill
13800 2292 M
stroke
13680 2292 N
240 0 V
-240 0 V
Z stroke
13680 2292 M
240 0 V
-240 0 R
240 0 V
% End plot #6
stroke
2.000 UL
LTb
LCb setrgbcolor
1.000 UP
1.000 UL
LTb
0.00 0.00 0.00 C stroke
grestore
end
showpage
%%Trailer
%%DocumentFonts: Arial
