%!PS-Adobe-2.0 EPSF-2.0
%%Title: TcpVegas-2M-ss-800Mbps-UE-increase.eps
%%Creator: gnuplot 5.0 patchlevel 3
%%CreationDate: Fri Jul 15 15:45:05 2016
%%DocumentFonts: (atend)
%%BoundingBox: 50 50 770 302
%%EndComments
%%BeginProlog
/gnudict 256 dict def
gnudict begin
%
% The following true/false flags may be edited by hand if desired.
% The unit line width and grayscale image gamma correction may also be changed.
%
/Color true def
/Blacktext false def
/Solid false def
/Dashlength 3 def
/Landscape false def
/Level1 false def
/Level3 false def
/Rounded false def
/ClipToBoundingBox false def
/SuppressPDFMark false def
/TransparentPatterns false def
/gnulinewidth 15.000 def
/userlinewidth gnulinewidth def
/Gamma 1.0 def
/BackgroundColor {-1.000 -1.000 -1.000} def
%
/vshift -66 def
/dl1 {
  10.0 Dashlength userlinewidth gnulinewidth div mul mul mul
  Rounded { currentlinewidth 0.75 mul sub dup 0 le { pop 0.01 } if } if
} def
/dl2 {
  10.0 Dashlength userlinewidth gnulinewidth div mul mul mul
  Rounded { currentlinewidth 0.75 mul add } if
} def
/hpt_ 31.5 def
/vpt_ 31.5 def
/hpt hpt_ def
/vpt vpt_ def
/doclip {
  ClipToBoundingBox {
    newpath 50 50 moveto 770 50 lineto 770 302 lineto 50 302 lineto closepath
    clip
  } if
} def
%
% Gnuplot Prolog Version 5.1 (Oct 2015)
%
%/SuppressPDFMark true def
%
/M {moveto} bind def
/L {lineto} bind def
/R {rmoveto} bind def
/V {rlineto} bind def
/N {newpath moveto} bind def
/Z {closepath} bind def
/C {setrgbcolor} bind def
/f {rlineto fill} bind def
/g {setgray} bind def
/Gshow {show} def   % May be redefined later in the file to support UTF-8
/vpt2 vpt 2 mul def
/hpt2 hpt 2 mul def
/Lshow {currentpoint stroke M 0 vshift R 
	Blacktext {gsave 0 setgray textshow grestore} {textshow} ifelse} def
/Rshow {currentpoint stroke M dup stringwidth pop neg vshift R
	Blacktext {gsave 0 setgray textshow grestore} {textshow} ifelse} def
/Cshow {currentpoint stroke M dup stringwidth pop -2 div vshift R 
	Blacktext {gsave 0 setgray textshow grestore} {textshow} ifelse} def
/UP {dup vpt_ mul /vpt exch def hpt_ mul /hpt exch def
  /hpt2 hpt 2 mul def /vpt2 vpt 2 mul def} def
/DL {Color {setrgbcolor Solid {pop []} if 0 setdash}
 {pop pop pop 0 setgray Solid {pop []} if 0 setdash} ifelse} def
/BL {stroke userlinewidth 2 mul setlinewidth
	Rounded {1 setlinejoin 1 setlinecap} if} def
/AL {stroke userlinewidth 2 div setlinewidth
	Rounded {1 setlinejoin 1 setlinecap} if} def
/UL {dup gnulinewidth mul /userlinewidth exch def
	dup 1 lt {pop 1} if 10 mul /udl exch def} def
/PL {stroke userlinewidth setlinewidth
	Rounded {1 setlinejoin 1 setlinecap} if} def
3.8 setmiterlimit
% Classic Line colors (version 5.0)
/LCw {1 1 1} def
/LCb {0 0 0} def
/LCa {0 0 0} def
/LC0 {1 0 0} def
/LC1 {0 1 0} def
/LC2 {0 0 1} def
/LC3 {1 0 1} def
/LC4 {0 1 1} def
/LC5 {1 1 0} def
/LC6 {0 0 0} def
/LC7 {1 0.3 0} def
/LC8 {0.5 0.5 0.5} def
% Default dash patterns (version 5.0)
/LTB {BL [] LCb DL} def
/LTw {PL [] 1 setgray} def
/LTb {PL [] LCb DL} def
/LTa {AL [1 udl mul 2 udl mul] 0 setdash LCa setrgbcolor} def
/LT0 {PL [] LC0 DL} def
/LT1 {PL [2 dl1 3 dl2] LC1 DL} def
/LT2 {PL [1 dl1 1.5 dl2] LC2 DL} def
/LT3 {PL [6 dl1 2 dl2 1 dl1 2 dl2] LC3 DL} def
/LT4 {PL [1 dl1 2 dl2 6 dl1 2 dl2 1 dl1 2 dl2] LC4 DL} def
/LT5 {PL [4 dl1 2 dl2] LC5 DL} def
/LT6 {PL [1.5 dl1 1.5 dl2 1.5 dl1 1.5 dl2 1.5 dl1 6 dl2] LC6 DL} def
/LT7 {PL [3 dl1 3 dl2 1 dl1 3 dl2] LC7 DL} def
/LT8 {PL [2 dl1 2 dl2 2 dl1 6 dl2] LC8 DL} def
/SL {[] 0 setdash} def
/Pnt {stroke [] 0 setdash gsave 1 setlinecap M 0 0 V stroke grestore} def
/Dia {stroke [] 0 setdash 2 copy vpt add M
  hpt neg vpt neg V hpt vpt neg V
  hpt vpt V hpt neg vpt V closepath stroke
  Pnt} def
/Pls {stroke [] 0 setdash vpt sub M 0 vpt2 V
  currentpoint stroke M
  hpt neg vpt neg R hpt2 0 V stroke
 } def
/Box {stroke [] 0 setdash 2 copy exch hpt sub exch vpt add M
  0 vpt2 neg V hpt2 0 V 0 vpt2 V
  hpt2 neg 0 V closepath stroke
  Pnt} def
/Crs {stroke [] 0 setdash exch hpt sub exch vpt add M
  hpt2 vpt2 neg V currentpoint stroke M
  hpt2 neg 0 R hpt2 vpt2 V stroke} def
/TriU {stroke [] 0 setdash 2 copy vpt 1.12 mul add M
  hpt neg vpt -1.62 mul V
  hpt 2 mul 0 V
  hpt neg vpt 1.62 mul V closepath stroke
  Pnt} def
/Star {2 copy Pls Crs} def
/BoxF {stroke [] 0 setdash exch hpt sub exch vpt add M
  0 vpt2 neg V hpt2 0 V 0 vpt2 V
  hpt2 neg 0 V closepath fill} def
/TriUF {stroke [] 0 setdash vpt 1.12 mul add M
  hpt neg vpt -1.62 mul V
  hpt 2 mul 0 V
  hpt neg vpt 1.62 mul V closepath fill} def
/TriD {stroke [] 0 setdash 2 copy vpt 1.12 mul sub M
  hpt neg vpt 1.62 mul V
  hpt 2 mul 0 V
  hpt neg vpt -1.62 mul V closepath stroke
  Pnt} def
/TriDF {stroke [] 0 setdash vpt 1.12 mul sub M
  hpt neg vpt 1.62 mul V
  hpt 2 mul 0 V
  hpt neg vpt -1.62 mul V closepath fill} def
/DiaF {stroke [] 0 setdash vpt add M
  hpt neg vpt neg V hpt vpt neg V
  hpt vpt V hpt neg vpt V closepath fill} def
/Pent {stroke [] 0 setdash 2 copy gsave
  translate 0 hpt M 4 {72 rotate 0 hpt L} repeat
  closepath stroke grestore Pnt} def
/PentF {stroke [] 0 setdash gsave
  translate 0 hpt M 4 {72 rotate 0 hpt L} repeat
  closepath fill grestore} def
/Circle {stroke [] 0 setdash 2 copy
  hpt 0 360 arc stroke Pnt} def
/CircleF {stroke [] 0 setdash hpt 0 360 arc fill} def
/C0 {BL [] 0 setdash 2 copy moveto vpt 90 450 arc} bind def
/C1 {BL [] 0 setdash 2 copy moveto
	2 copy vpt 0 90 arc closepath fill
	vpt 0 360 arc closepath} bind def
/C2 {BL [] 0 setdash 2 copy moveto
	2 copy vpt 90 180 arc closepath fill
	vpt 0 360 arc closepath} bind def
/C3 {BL [] 0 setdash 2 copy moveto
	2 copy vpt 0 180 arc closepath fill
	vpt 0 360 arc closepath} bind def
/C4 {BL [] 0 setdash 2 copy moveto
	2 copy vpt 180 270 arc closepath fill
	vpt 0 360 arc closepath} bind def
/C5 {BL [] 0 setdash 2 copy moveto
	2 copy vpt 0 90 arc
	2 copy moveto
	2 copy vpt 180 270 arc closepath fill
	vpt 0 360 arc} bind def
/C6 {BL [] 0 setdash 2 copy moveto
	2 copy vpt 90 270 arc closepath fill
	vpt 0 360 arc closepath} bind def
/C7 {BL [] 0 setdash 2 copy moveto
	2 copy vpt 0 270 arc closepath fill
	vpt 0 360 arc closepath} bind def
/C8 {BL [] 0 setdash 2 copy moveto
	2 copy vpt 270 360 arc closepath fill
	vpt 0 360 arc closepath} bind def
/C9 {BL [] 0 setdash 2 copy moveto
	2 copy vpt 270 450 arc closepath fill
	vpt 0 360 arc closepath} bind def
/C10 {BL [] 0 setdash 2 copy 2 copy moveto vpt 270 360 arc closepath fill
	2 copy moveto
	2 copy vpt 90 180 arc closepath fill
	vpt 0 360 arc closepath} bind def
/C11 {BL [] 0 setdash 2 copy moveto
	2 copy vpt 0 180 arc closepath fill
	2 copy moveto
	2 copy vpt 270 360 arc closepath fill
	vpt 0 360 arc closepath} bind def
/C12 {BL [] 0 setdash 2 copy moveto
	2 copy vpt 180 360 arc closepath fill
	vpt 0 360 arc closepath} bind def
/C13 {BL [] 0 setdash 2 copy moveto
	2 copy vpt 0 90 arc closepath fill
	2 copy moveto
	2 copy vpt 180 360 arc closepath fill
	vpt 0 360 arc closepath} bind def
/C14 {BL [] 0 setdash 2 copy moveto
	2 copy vpt 90 360 arc closepath fill
	vpt 0 360 arc} bind def
/C15 {BL [] 0 setdash 2 copy vpt 0 360 arc closepath fill
	vpt 0 360 arc closepath} bind def
/Rec {newpath 4 2 roll moveto 1 index 0 rlineto 0 exch rlineto
	neg 0 rlineto closepath} bind def
/Square {dup Rec} bind def
/Bsquare {vpt sub exch vpt sub exch vpt2 Square} bind def
/S0 {BL [] 0 setdash 2 copy moveto 0 vpt rlineto BL Bsquare} bind def
/S1 {BL [] 0 setdash 2 copy vpt Square fill Bsquare} bind def
/S2 {BL [] 0 setdash 2 copy exch vpt sub exch vpt Square fill Bsquare} bind def
/S3 {BL [] 0 setdash 2 copy exch vpt sub exch vpt2 vpt Rec fill Bsquare} bind def
/S4 {BL [] 0 setdash 2 copy exch vpt sub exch vpt sub vpt Square fill Bsquare} bind def
/S5 {BL [] 0 setdash 2 copy 2 copy vpt Square fill
	exch vpt sub exch vpt sub vpt Square fill Bsquare} bind def
/S6 {BL [] 0 setdash 2 copy exch vpt sub exch vpt sub vpt vpt2 Rec fill Bsquare} bind def
/S7 {BL [] 0 setdash 2 copy exch vpt sub exch vpt sub vpt vpt2 Rec fill
	2 copy vpt Square fill Bsquare} bind def
/S8 {BL [] 0 setdash 2 copy vpt sub vpt Square fill Bsquare} bind def
/S9 {BL [] 0 setdash 2 copy vpt sub vpt vpt2 Rec fill Bsquare} bind def
/S10 {BL [] 0 setdash 2 copy vpt sub vpt Square fill 2 copy exch vpt sub exch vpt Square fill
	Bsquare} bind def
/S11 {BL [] 0 setdash 2 copy vpt sub vpt Square fill 2 copy exch vpt sub exch vpt2 vpt Rec fill
	Bsquare} bind def
/S12 {BL [] 0 setdash 2 copy exch vpt sub exch vpt sub vpt2 vpt Rec fill Bsquare} bind def
/S13 {BL [] 0 setdash 2 copy exch vpt sub exch vpt sub vpt2 vpt Rec fill
	2 copy vpt Square fill Bsquare} bind def
/S14 {BL [] 0 setdash 2 copy exch vpt sub exch vpt sub vpt2 vpt Rec fill
	2 copy exch vpt sub exch vpt Square fill Bsquare} bind def
/S15 {BL [] 0 setdash 2 copy Bsquare fill Bsquare} bind def
/D0 {gsave translate 45 rotate 0 0 S0 stroke grestore} bind def
/D1 {gsave translate 45 rotate 0 0 S1 stroke grestore} bind def
/D2 {gsave translate 45 rotate 0 0 S2 stroke grestore} bind def
/D3 {gsave translate 45 rotate 0 0 S3 stroke grestore} bind def
/D4 {gsave translate 45 rotate 0 0 S4 stroke grestore} bind def
/D5 {gsave translate 45 rotate 0 0 S5 stroke grestore} bind def
/D6 {gsave translate 45 rotate 0 0 S6 stroke grestore} bind def
/D7 {gsave translate 45 rotate 0 0 S7 stroke grestore} bind def
/D8 {gsave translate 45 rotate 0 0 S8 stroke grestore} bind def
/D9 {gsave translate 45 rotate 0 0 S9 stroke grestore} bind def
/D10 {gsave translate 45 rotate 0 0 S10 stroke grestore} bind def
/D11 {gsave translate 45 rotate 0 0 S11 stroke grestore} bind def
/D12 {gsave translate 45 rotate 0 0 S12 stroke grestore} bind def
/D13 {gsave translate 45 rotate 0 0 S13 stroke grestore} bind def
/D14 {gsave translate 45 rotate 0 0 S14 stroke grestore} bind def
/D15 {gsave translate 45 rotate 0 0 S15 stroke grestore} bind def
/DiaE {stroke [] 0 setdash vpt add M
  hpt neg vpt neg V hpt vpt neg V
  hpt vpt V hpt neg vpt V closepath stroke} def
/BoxE {stroke [] 0 setdash exch hpt sub exch vpt add M
  0 vpt2 neg V hpt2 0 V 0 vpt2 V
  hpt2 neg 0 V closepath stroke} def
/TriUE {stroke [] 0 setdash vpt 1.12 mul add M
  hpt neg vpt -1.62 mul V
  hpt 2 mul 0 V
  hpt neg vpt 1.62 mul V closepath stroke} def
/TriDE {stroke [] 0 setdash vpt 1.12 mul sub M
  hpt neg vpt 1.62 mul V
  hpt 2 mul 0 V
  hpt neg vpt -1.62 mul V closepath stroke} def
/PentE {stroke [] 0 setdash gsave
  translate 0 hpt M 4 {72 rotate 0 hpt L} repeat
  closepath stroke grestore} def
/CircE {stroke [] 0 setdash 
  hpt 0 360 arc stroke} def
/Opaque {gsave closepath 1 setgray fill grestore 0 setgray closepath} def
/DiaW {stroke [] 0 setdash vpt add M
  hpt neg vpt neg V hpt vpt neg V
  hpt vpt V hpt neg vpt V Opaque stroke} def
/BoxW {stroke [] 0 setdash exch hpt sub exch vpt add M
  0 vpt2 neg V hpt2 0 V 0 vpt2 V
  hpt2 neg 0 V Opaque stroke} def
/TriUW {stroke [] 0 setdash vpt 1.12 mul add M
  hpt neg vpt -1.62 mul V
  hpt 2 mul 0 V
  hpt neg vpt 1.62 mul V Opaque stroke} def
/TriDW {stroke [] 0 setdash vpt 1.12 mul sub M
  hpt neg vpt 1.62 mul V
  hpt 2 mul 0 V
  hpt neg vpt -1.62 mul V Opaque stroke} def
/PentW {stroke [] 0 setdash gsave
  translate 0 hpt M 4 {72 rotate 0 hpt L} repeat
  Opaque stroke grestore} def
/CircW {stroke [] 0 setdash 
  hpt 0 360 arc Opaque stroke} def
/BoxFill {gsave Rec 1 setgray fill grestore} def
/Density {
  /Fillden exch def
  currentrgbcolor
  /ColB exch def /ColG exch def /ColR exch def
  /ColR ColR Fillden mul Fillden sub 1 add def
  /ColG ColG Fillden mul Fillden sub 1 add def
  /ColB ColB Fillden mul Fillden sub 1 add def
  ColR ColG ColB setrgbcolor} def
/BoxColFill {gsave Rec PolyFill} def
/PolyFill {gsave Density fill grestore grestore} def
/h {rlineto rlineto rlineto gsave closepath fill grestore} bind def
%
% PostScript Level 1 Pattern Fill routine for rectangles
% Usage: x y w h s a XX PatternFill
%	x,y = lower left corner of box to be filled
%	w,h = width and height of box
%	  a = angle in degrees between lines and x-axis
%	 XX = 0/1 for no/yes cross-hatch
%
/PatternFill {gsave /PFa [ 9 2 roll ] def
  PFa 0 get PFa 2 get 2 div add PFa 1 get PFa 3 get 2 div add translate
  PFa 2 get -2 div PFa 3 get -2 div PFa 2 get PFa 3 get Rec
  TransparentPatterns {} {gsave 1 setgray fill grestore} ifelse
  clip
  currentlinewidth 0.5 mul setlinewidth
  /PFs PFa 2 get dup mul PFa 3 get dup mul add sqrt def
  0 0 M PFa 5 get rotate PFs -2 div dup translate
  0 1 PFs PFa 4 get div 1 add floor cvi
	{PFa 4 get mul 0 M 0 PFs V} for
  0 PFa 6 get ne {
	0 1 PFs PFa 4 get div 1 add floor cvi
	{PFa 4 get mul 0 2 1 roll M PFs 0 V} for
 } if
  stroke grestore} def
%
/languagelevel where
 {pop languagelevel} {1} ifelse
dup 2 lt
	{/InterpretLevel1 true def
	 /InterpretLevel3 false def}
	{/InterpretLevel1 Level1 def
	 2 gt
	    {/InterpretLevel3 Level3 def}
	    {/InterpretLevel3 false def}
	 ifelse }
 ifelse
%
% PostScript level 2 pattern fill definitions
%
/Level2PatternFill {
/Tile8x8 {/PaintType 2 /PatternType 1 /TilingType 1 /BBox [0 0 8 8] /XStep 8 /YStep 8}
	bind def
/KeepColor {currentrgbcolor [/Pattern /DeviceRGB] setcolorspace} bind def
<< Tile8x8
 /PaintProc {0.5 setlinewidth pop 0 0 M 8 8 L 0 8 M 8 0 L stroke} 
>> matrix makepattern
/Pat1 exch def
<< Tile8x8
 /PaintProc {0.5 setlinewidth pop 0 0 M 8 8 L 0 8 M 8 0 L stroke
	0 4 M 4 8 L 8 4 L 4 0 L 0 4 L stroke}
>> matrix makepattern
/Pat2 exch def
<< Tile8x8
 /PaintProc {0.5 setlinewidth pop 0 0 M 0 8 L
	8 8 L 8 0 L 0 0 L fill}
>> matrix makepattern
/Pat3 exch def
<< Tile8x8
 /PaintProc {0.5 setlinewidth pop -4 8 M 8 -4 L
	0 12 M 12 0 L stroke}
>> matrix makepattern
/Pat4 exch def
<< Tile8x8
 /PaintProc {0.5 setlinewidth pop -4 0 M 8 12 L
	0 -4 M 12 8 L stroke}
>> matrix makepattern
/Pat5 exch def
<< Tile8x8
 /PaintProc {0.5 setlinewidth pop -2 8 M 4 -4 L
	0 12 M 8 -4 L 4 12 M 10 0 L stroke}
>> matrix makepattern
/Pat6 exch def
<< Tile8x8
 /PaintProc {0.5 setlinewidth pop -2 0 M 4 12 L
	0 -4 M 8 12 L 4 -4 M 10 8 L stroke}
>> matrix makepattern
/Pat7 exch def
<< Tile8x8
 /PaintProc {0.5 setlinewidth pop 8 -2 M -4 4 L
	12 0 M -4 8 L 12 4 M 0 10 L stroke}
>> matrix makepattern
/Pat8 exch def
<< Tile8x8
 /PaintProc {0.5 setlinewidth pop 0 -2 M 12 4 L
	-4 0 M 12 8 L -4 4 M 8 10 L stroke}
>> matrix makepattern
/Pat9 exch def
/Pattern1 {PatternBgnd KeepColor Pat1 setpattern} bind def
/Pattern2 {PatternBgnd KeepColor Pat2 setpattern} bind def
/Pattern3 {PatternBgnd KeepColor Pat3 setpattern} bind def
/Pattern4 {PatternBgnd KeepColor Landscape {Pat5} {Pat4} ifelse setpattern} bind def
/Pattern5 {PatternBgnd KeepColor Landscape {Pat4} {Pat5} ifelse setpattern} bind def
/Pattern6 {PatternBgnd KeepColor Landscape {Pat9} {Pat6} ifelse setpattern} bind def
/Pattern7 {PatternBgnd KeepColor Landscape {Pat8} {Pat7} ifelse setpattern} bind def
} def
%
%
%End of PostScript Level 2 code
%
/PatternBgnd {
  TransparentPatterns {} {gsave 1 setgray fill grestore} ifelse
} def
%
% Substitute for Level 2 pattern fill codes with
% grayscale if Level 2 support is not selected.
%
/Level1PatternFill {
/Pattern1 {0.250 Density} bind def
/Pattern2 {0.500 Density} bind def
/Pattern3 {0.750 Density} bind def
/Pattern4 {0.125 Density} bind def
/Pattern5 {0.375 Density} bind def
/Pattern6 {0.625 Density} bind def
/Pattern7 {0.875 Density} bind def
} def
%
% Now test for support of Level 2 code
%
Level1 {Level1PatternFill} {Level2PatternFill} ifelse
%
/Symbol-Oblique /Symbol findfont [1 0 .167 1 0 0] makefont
dup length dict begin {1 index /FID eq {pop pop} {def} ifelse} forall
currentdict end definefont pop
%
/MFshow {
   { dup 5 get 3 ge
     { 5 get 3 eq {gsave} {grestore} ifelse }
     {dup dup 0 get findfont exch 1 get scalefont setfont
     [ currentpoint ] exch dup 2 get 0 exch R dup 5 get 2 ne {dup dup 6
     get exch 4 get {textshow} {stringwidth pop 0 R} ifelse }if dup 5 get 0 eq
     {dup 3 get {2 get neg 0 exch R pop} {pop aload pop M} ifelse} {dup 5
     get 1 eq {dup 2 get exch dup 3 get exch 6 get stringwidth pop -2 div
     dup 0 R} {dup 6 get stringwidth pop -2 div 0 R 6 get
     textshow 2 index {aload pop M neg 3 -1 roll neg R pop pop} {pop pop pop
     pop aload pop M} ifelse }ifelse }ifelse }
     ifelse }
   forall} def
/Gswidth {dup type /stringtype eq {stringwidth} {pop (n) stringwidth} ifelse} def
/MFwidth {0 exch { dup 5 get 3 ge { 5 get 3 eq { 0 } { pop } ifelse }
 {dup 3 get{dup dup 0 get findfont exch 1 get scalefont setfont
     6 get Gswidth pop add} {pop} ifelse} ifelse} forall} def
/MLshow { currentpoint stroke M
  0 exch R
  Blacktext {gsave 0 setgray MFshow grestore} {MFshow} ifelse } bind def
/MRshow { currentpoint stroke M
  exch dup MFwidth neg 3 -1 roll R
  Blacktext {gsave 0 setgray MFshow grestore} {MFshow} ifelse } bind def
/MCshow { currentpoint stroke M
  exch dup MFwidth -2 div 3 -1 roll R
  Blacktext {gsave 0 setgray MFshow grestore} {MFshow} ifelse } bind def
/XYsave    { [( ) 1 2 true false 3 ()] } bind def
/XYrestore { [( ) 1 2 true false 4 ()] } bind def
Level1 SuppressPDFMark or 
{} {
/SDict 10 dict def
systemdict /pdfmark known not {
  userdict /pdfmark systemdict /cleartomark get put
} if
SDict begin [
  /Title (TcpVegas-2M-ss-800Mbps-UE-increase.eps)
  /Subject (gnuplot plot)
  /Creator (gnuplot 5.0 patchlevel 3)
  /Author (nat)
%  /Producer (gnuplot)
%  /Keywords ()
  /CreationDate (Fri Jul 15 15:45:05 2016)
  /DOCINFO pdfmark
end
} ifelse
%
% Support for boxed text - Ethan A Merritt May 2005
%
/InitTextBox { userdict /TBy2 3 -1 roll put userdict /TBx2 3 -1 roll put
           userdict /TBy1 3 -1 roll put userdict /TBx1 3 -1 roll put
	   /Boxing true def } def
/ExtendTextBox { Boxing
    { gsave dup false charpath pathbbox
      dup TBy2 gt {userdict /TBy2 3 -1 roll put} {pop} ifelse
      dup TBx2 gt {userdict /TBx2 3 -1 roll put} {pop} ifelse
      dup TBy1 lt {userdict /TBy1 3 -1 roll put} {pop} ifelse
      dup TBx1 lt {userdict /TBx1 3 -1 roll put} {pop} ifelse
      grestore } if } def
/PopTextBox { newpath TBx1 TBxmargin sub TBy1 TBymargin sub M
               TBx1 TBxmargin sub TBy2 TBymargin add L
	       TBx2 TBxmargin add TBy2 TBymargin add L
	       TBx2 TBxmargin add TBy1 TBymargin sub L closepath } def
/DrawTextBox { PopTextBox stroke /Boxing false def} def
/FillTextBox { gsave PopTextBox 1 1 1 setrgbcolor fill grestore /Boxing false def} def
0 0 0 0 InitTextBox
/TBxmargin 20 def
/TBymargin 20 def
/Boxing false def
/textshow { ExtendTextBox Gshow } def
%
% redundant definitions for compatibility with prologue.ps older than 5.0.2
/LTB {BL [] LCb DL} def
/LTb {PL [] LCb DL} def
end
%%EndProlog
%%Page: 1 1
gnudict begin
gsave
doclip
50 50 translate
0.050 0.050 scale
0 setgray
newpath
(Arial) findfont 200 scalefont setfont
BackgroundColor 0 lt 3 1 roll 0 lt exch 0 lt or or not {BackgroundColor C 1.000 0 0 14400.00 5040.00 BoxColFill} if
1.000 UL
LTb
0.00 0.00 0.00 C 0.500 UL
LTa
0.50 0.50 0.50 C 1100 820 M
5739 0 V
stroke
1.000 UL
LTb
0.00 0.00 0.00 C 1100 820 M
63 0 V
5676 0 R
-63 0 V
stroke
980 820 M
[ [(Arial) 200.0 0.0 true true 0 ( 700)]
] -66.7 MRshow
1.000 UL
LTb
0.00 0.00 0.00 C 0.500 UL
LTa
0.50 0.50 0.50 C 1100 1423 M
5739 0 V
stroke
1.000 UL
LTb
0.00 0.00 0.00 C 1100 1423 M
63 0 V
5676 0 R
-63 0 V
stroke
980 1423 M
[ [(Arial) 200.0 0.0 true true 0 ( 750)]
] -66.7 MRshow
1.000 UL
LTb
0.00 0.00 0.00 C 0.500 UL
LTa
0.50 0.50 0.50 C 1100 2026 M
5739 0 V
stroke
1.000 UL
LTb
0.00 0.00 0.00 C 1100 2026 M
63 0 V
5676 0 R
-63 0 V
stroke
980 2026 M
[ [(Arial) 200.0 0.0 true true 0 ( 800)]
] -66.7 MRshow
1.000 UL
LTb
0.00 0.00 0.00 C 0.500 UL
LTa
0.50 0.50 0.50 C 1100 2630 M
5739 0 V
stroke
1.000 UL
LTb
0.00 0.00 0.00 C 1100 2630 M
63 0 V
5676 0 R
-63 0 V
stroke
980 2630 M
[ [(Arial) 200.0 0.0 true true 0 ( 850)]
] -66.7 MRshow
1.000 UL
LTb
0.00 0.00 0.00 C 0.500 UL
LTa
0.50 0.50 0.50 C 1100 3233 M
5739 0 V
stroke
1.000 UL
LTb
0.00 0.00 0.00 C 1100 3233 M
63 0 V
5676 0 R
-63 0 V
stroke
980 3233 M
[ [(Arial) 200.0 0.0 true true 0 ( 900)]
] -66.7 MRshow
1.000 UL
LTb
0.00 0.00 0.00 C 0.500 UL
LTa
0.50 0.50 0.50 C 1100 3836 M
5739 0 V
stroke
1.000 UL
LTb
0.00 0.00 0.00 C 1100 3836 M
63 0 V
5676 0 R
-63 0 V
stroke
980 3836 M
[ [(Arial) 200.0 0.0 true true 0 ( 950)]
] -66.7 MRshow
1.000 UL
LTb
0.00 0.00 0.00 C 0.500 UL
LTa
0.50 0.50 0.50 C 1100 4439 M
5739 0 V
stroke
1.000 UL
LTb
0.00 0.00 0.00 C 1100 4439 M
63 0 V
5676 0 R
-63 0 V
stroke
980 4439 M
[ [(Arial) 200.0 0.0 true true 0 ( 1000)]
] -66.7 MRshow
1.000 UL
LTb
0.00 0.00 0.00 C 0.500 UL
LTa
0.50 0.50 0.50 C 1674 820 M
0 3619 V
stroke
1.000 UL
LTb
0.00 0.00 0.00 C 1674 820 M
0 63 V
0 3556 R
0 -63 V
stroke
1674 620 M
[ [(Arial) 200.0 0.0 true true 0 (1)]
] -66.7 MCshow
1.000 UL
LTb
0.00 0.00 0.00 C 0.500 UL
LTa
0.50 0.50 0.50 C 2822 820 M
0 3619 V
stroke
1.000 UL
LTb
0.00 0.00 0.00 C 2822 820 M
0 63 V
0 3556 R
0 -63 V
stroke
2822 620 M
[ [(Arial) 200.0 0.0 true true 0 (2)]
] -66.7 MCshow
1.000 UL
LTb
0.00 0.00 0.00 C 0.500 UL
LTa
0.50 0.50 0.50 C 3970 820 M
0 3619 V
stroke
1.000 UL
LTb
0.00 0.00 0.00 C 3970 820 M
0 63 V
0 3556 R
0 -63 V
stroke
3970 620 M
[ [(Arial) 200.0 0.0 true true 0 (4)]
] -66.7 MCshow
1.000 UL
LTb
0.00 0.00 0.00 C 0.500 UL
LTa
0.50 0.50 0.50 C 5117 820 M
0 3619 V
stroke
1.000 UL
LTb
0.00 0.00 0.00 C 5117 820 M
0 63 V
0 3556 R
0 -63 V
stroke
5117 620 M
[ [(Arial) 200.0 0.0 true true 0 (8)]
] -66.7 MCshow
1.000 UL
LTb
0.00 0.00 0.00 C 0.500 UL
LTa
0.50 0.50 0.50 C 6265 820 M
0 3619 V
stroke
1.000 UL
LTb
0.00 0.00 0.00 C 6265 820 M
0 63 V
0 3556 R
0 -63 V
stroke
6265 620 M
[ [(Arial) 200.0 0.0 true true 0 (16)]
] -66.7 MCshow
1.000 UL
LTb
0.00 0.00 0.00 C 1.000 UL
LTB
0.00 0.00 0.00 C 1100 4439 M
0 -3619 V
5739 0 V
0 3619 R
-5739 0 R
1.000 UP
stroke
LTb
0.00 0.00 0.00 C LCb setrgbcolor
160 2629 M
currentpoint gsave translate -270 rotate 0 0 moveto
[ [(Arial) 200.0 0.0 true true 0 (RTT \(ms\))]
] -66.7 MCshow
grestore
LTb
LCb setrgbcolor
3969 320 M
[ [(Arial) 200.0 0.0 true true 0 (Flows #)]
] -66.7 MCshow
LTb
LCb setrgbcolor
3969 4739 M
[ [(Arial) 200.0 0.0 true true 0 (a\) RTT)]
] -66.7 MCshow
% Begin plot #1
1.000 UL
LTb
0.60 0.60 0.00 C LCb setrgbcolor
2714 153 M
[ [(Arial) 180.0 0.0 true true 0 (olsr)]
] -60.0 MRshow
1.000 UL
LTb
0.60 0.60 0.00 C 2822 108 333 90 80 -45 0 PatternFill
2822 108 N
333 0 V
0 90 V
-333 0 V
0 -90 V
Z stroke
1.000 UL
LTb
0.60 0.60 0.00 C 1215 1580 230 0 80 -45 0 PatternFill
1330 1580 M
stroke
1215 1580 N
230 0 V
-230 0 V
Z stroke
1215 1580 M
230 0 V
-230 0 R
230 0 V
stroke
2363 1483 230 0 80 -45 0 PatternFill
2478 1483 M
stroke
2363 1483 N
230 0 V
-230 0 V
Z stroke
2363 1483 M
230 0 V
-230 0 R
230 0 V
stroke
3510 1381 230 0 80 -45 0 PatternFill
3625 1381 M
stroke
3510 1381 N
230 0 V
-230 0 V
Z stroke
3510 1381 M
230 0 V
-230 0 R
230 0 V
stroke
4658 1389 230 22 80 -45 0 PatternFill
4773 1387 M
0 2 V
0 22 R
0 51 V
stroke
4658 1389 N
230 0 V
0 22 V
-230 0 V
0 -22 V
Z stroke
4658 1462 M
230 0 V
-230 -75 R
230 0 V
stroke
5806 1399 230 52 80 -45 0 PatternFill
5921 1389 M
0 10 V
0 52 R
0 1485 V
stroke
5806 1399 N
230 0 V
0 52 V
-230 0 V
0 -52 V
Z stroke
5806 2936 M
230 0 V
5806 1389 M
230 0 V
% End plot #1
% Begin plot #2
stroke
LTb
LCb setrgbcolor

 /TransparentPatterns true def
1215 1580 230 0 40 30 0 PatternFill
1330 1580 M
stroke
1215 1580 N
230 0 V
-230 0 V
Z stroke
1215 1580 M
230 0 V
-230 0 R
230 0 V
stroke

 /TransparentPatterns true def
2363 1483 230 0 40 30 0 PatternFill
2478 1483 M
stroke
2363 1483 N
230 0 V
-230 0 V
Z stroke
2363 1483 M
230 0 V
-230 0 R
230 0 V
stroke

 /TransparentPatterns true def
3510 1381 230 0 40 30 0 PatternFill
3625 1381 M
stroke
3510 1381 N
230 0 V
-230 0 V
Z stroke
3510 1381 M
230 0 V
-230 0 R
230 0 V
stroke

 /TransparentPatterns true def
4658 1401 230 0 40 30 0 PatternFill
4773 1401 M
stroke
4658 1401 N
230 0 V
-230 0 V
Z stroke
4658 1401 M
230 0 V
-230 0 R
230 0 V
stroke

 /TransparentPatterns true def
5806 1470 230 0 40 30 0 PatternFill
5921 1470 M
stroke
5806 1470 N
230 0 V
-230 0 V
Z stroke
5806 1470 M
230 0 V
-230 0 R
230 0 V
% End plot #2
% Begin plot #3
stroke
LTb
0.00 0.00 0.63 C LCb setrgbcolor
4127 153 M
[ [(Arial) 180.0 0.0 true true 0 (per-packet)]
] -60.0 MRshow
1.000 UL
LTb
0.00 0.00 0.63 C 4235 108 333 90 80 45 0 PatternFill
4235 108 N
333 0 V
0 90 V
-333 0 V
0 -90 V
Z stroke
1.000 UL
LTb
0.00 0.00 0.63 C 1559 2948 230 548 80 45 0 PatternFill
1674 2379 M
0 569 V
0 548 R
0 591 V
stroke
1559 2948 N
230 0 V
0 548 V
-230 0 V
0 -548 V
Z stroke
1559 4087 M
230 0 V
1559 2379 M
230 0 V
stroke
2707 2765 230 607 80 45 0 PatternFill
2822 2403 M
0 362 V
0 607 R
0 548 V
stroke
2707 2765 N
230 0 V
0 607 V
-230 0 V
0 -607 V
Z stroke
2707 3920 M
230 0 V
2707 2403 M
230 0 V
stroke
3855 2634 230 547 80 45 0 PatternFill
3970 2237 M
0 397 V
0 547 R
0 502 V
stroke
3855 2634 N
230 0 V
0 547 V
-230 0 V
0 -547 V
Z stroke
3855 3683 M
230 0 V
3855 2237 M
230 0 V
stroke
5003 2525 230 590 80 45 0 PatternFill
5118 2142 M
0 383 V
0 590 R
0 475 V
stroke
5003 2525 N
230 0 V
0 590 V
-230 0 V
0 -590 V
Z stroke
5003 3590 M
230 0 V
5003 2142 M
230 0 V
stroke
6150 2517 230 595 80 45 0 PatternFill
6265 2124 M
0 393 V
0 595 R
0 522 V
stroke
6150 2517 N
230 0 V
0 595 V
-230 0 V
0 -595 V
Z stroke
6150 3634 M
230 0 V
6150 2124 M
230 0 V
% End plot #3
% Begin plot #4
stroke
LTb
LCb setrgbcolor

 /TransparentPatterns true def
1559 3209 230 0 80 -45 0 PatternFill
1674 3209 M
stroke
1559 3209 N
230 0 V
-230 0 V
Z stroke
1559 3209 M
230 0 V
-230 0 R
230 0 V
stroke

 /TransparentPatterns true def
2707 3079 230 0 80 -45 0 PatternFill
2822 3079 M
stroke
2707 3079 N
230 0 V
-230 0 V
Z stroke
2707 3079 M
230 0 V
-230 0 R
230 0 V
stroke

 /TransparentPatterns true def
3855 2908 230 0 80 -45 0 PatternFill
3970 2908 M
stroke
3855 2908 N
230 0 V
-230 0 V
Z stroke
3855 2908 M
230 0 V
-230 0 R
230 0 V
stroke

 /TransparentPatterns true def
5003 2827 230 0 80 -45 0 PatternFill
5118 2827 M
stroke
5003 2827 N
230 0 V
-230 0 V
Z stroke
5003 2827 M
230 0 V
-230 0 R
230 0 V
stroke

 /TransparentPatterns true def
6150 2817 230 0 80 -45 0 PatternFill
6265 2817 M
stroke
6150 2817 N
230 0 V
-230 0 V
Z stroke
6150 2817 M
230 0 V
-230 0 R
230 0 V
% End plot #4
% Begin plot #5
stroke
LTb
0.00 0.38 0.82 C LCb setrgbcolor
5540 153 M
[ [(Arial) 180.0 0.0 true true 0 (per-flow)]
] -60.0 MRshow
1.000 UL
LTb
0.00 0.38 0.82 C 5648 108 333 90 40 30 0 PatternFill
5648 108 N
333 0 V
0 90 V
-333 0 V
0 -90 V
Z stroke
1.000 UL
LTb
0.00 0.38 0.82 C 1903 3115 230 458 40 30 0 PatternFill
2018 1686 M
0 1429 V
0 458 R
0 189 V
stroke
1903 3115 N
230 0 V
0 458 V
-230 0 V
0 -458 V
Z stroke
1903 3762 M
230 0 V
1903 1686 M
230 0 V
stroke
3051 2728 230 500 40 30 0 PatternFill
3166 1700 M
0 1028 V
0 500 R
0 309 V
stroke
3051 2728 N
230 0 V
0 500 V
-230 0 V
0 -500 V
Z stroke
3051 3537 M
230 0 V
3051 1700 M
230 0 V
stroke
4199 2724 230 611 40 30 0 PatternFill
4314 1517 M
0 1207 V
0 611 R
0 257 V
stroke
4199 2724 N
230 0 V
0 611 V
-230 0 V
0 -611 V
Z stroke
4199 3592 M
230 0 V
4199 1517 M
230 0 V
stroke
5347 2100 230 433 40 30 0 PatternFill
5462 1510 M
0 590 V
0 433 R
0 497 V
stroke
5347 2100 N
230 0 V
0 433 V
-230 0 V
0 -433 V
Z stroke
5347 3030 M
230 0 V
5347 1510 M
230 0 V
stroke
6495 2111 230 480 40 30 0 PatternFill
6610 1487 M
0 624 V
0 480 R
0 393 V
stroke
6495 2111 N
230 0 V
0 480 V
-230 0 V
0 -480 V
Z stroke
6495 2984 M
230 0 V
6495 1487 M
230 0 V
% End plot #5
% Begin plot #6
stroke
LTb
LCb setrgbcolor

 /TransparentPatterns true def
1903 3299 230 0 40 -30 0 PatternFill
2018 3299 M
stroke
1903 3299 N
230 0 V
-230 0 V
Z stroke
1903 3299 M
230 0 V
-230 0 R
230 0 V
stroke

 /TransparentPatterns true def
3051 2942 230 0 40 -30 0 PatternFill
3166 2942 M
stroke
3051 2942 N
230 0 V
-230 0 V
Z stroke
3051 2942 M
230 0 V
-230 0 R
230 0 V
stroke

 /TransparentPatterns true def
4199 2950 230 0 40 -30 0 PatternFill
4314 2950 M
stroke
4199 2950 N
230 0 V
-230 0 V
Z stroke
4199 2950 M
230 0 V
-230 0 R
230 0 V
stroke

 /TransparentPatterns true def
5347 2303 230 0 40 -30 0 PatternFill
5462 2303 M
stroke
5347 2303 N
230 0 V
-230 0 V
Z stroke
5347 2303 M
230 0 V
-230 0 R
230 0 V
stroke

 /TransparentPatterns true def
6495 2333 230 0 40 -30 0 PatternFill
6610 2333 M
stroke
6495 2333 N
230 0 V
-230 0 V
Z stroke
6495 2333 M
230 0 V
-230 0 R
230 0 V
% End plot #6
stroke
2.000 UL
LTb
LCb setrgbcolor
1.000 UP
1.000 UL
LTb
0.00 0.00 0.00 C 1.000 UL
LTb
0.00 0.00 0.00 C 0.500 UL
LTa
0.50 0.50 0.50 C 8300 820 M
5739 0 V
stroke
1.000 UL
LTb
0.00 0.00 0.00 C 8300 820 M
63 0 V
5676 0 R
-63 0 V
stroke
8180 820 M
[ [(Arial) 200.0 0.0 true true 0 ( 0)]
] -66.7 MRshow
1.000 UL
LTb
0.00 0.00 0.00 C 0.500 UL
LTa
0.50 0.50 0.50 C 8300 1182 M
5739 0 V
stroke
1.000 UL
LTb
0.00 0.00 0.00 C 8300 1182 M
63 0 V
5676 0 R
-63 0 V
stroke
8180 1182 M
[ [(Arial) 200.0 0.0 true true 0 ( 100)]
] -66.7 MRshow
1.000 UL
LTb
0.00 0.00 0.00 C 0.500 UL
LTa
0.50 0.50 0.50 C 8300 1544 M
5739 0 V
stroke
1.000 UL
LTb
0.00 0.00 0.00 C 8300 1544 M
63 0 V
5676 0 R
-63 0 V
stroke
8180 1544 M
[ [(Arial) 200.0 0.0 true true 0 ( 200)]
] -66.7 MRshow
1.000 UL
LTb
0.00 0.00 0.00 C 0.500 UL
LTa
0.50 0.50 0.50 C 8300 1906 M
5739 0 V
stroke
1.000 UL
LTb
0.00 0.00 0.00 C 8300 1906 M
63 0 V
5676 0 R
-63 0 V
stroke
8180 1906 M
[ [(Arial) 200.0 0.0 true true 0 ( 300)]
] -66.7 MRshow
1.000 UL
LTb
0.00 0.00 0.00 C 0.500 UL
LTa
0.50 0.50 0.50 C 8300 2268 M
5739 0 V
stroke
1.000 UL
LTb
0.00 0.00 0.00 C 8300 2268 M
63 0 V
5676 0 R
-63 0 V
stroke
8180 2268 M
[ [(Arial) 200.0 0.0 true true 0 ( 400)]
] -66.7 MRshow
1.000 UL
LTb
0.00 0.00 0.00 C 0.500 UL
LTa
0.50 0.50 0.50 C 8300 2630 M
5739 0 V
stroke
1.000 UL
LTb
0.00 0.00 0.00 C 8300 2630 M
63 0 V
5676 0 R
-63 0 V
stroke
8180 2630 M
[ [(Arial) 200.0 0.0 true true 0 ( 500)]
] -66.7 MRshow
1.000 UL
LTb
0.00 0.00 0.00 C 0.500 UL
LTa
0.50 0.50 0.50 C 8300 2991 M
5739 0 V
stroke
1.000 UL
LTb
0.00 0.00 0.00 C 8300 2991 M
63 0 V
5676 0 R
-63 0 V
stroke
8180 2991 M
[ [(Arial) 200.0 0.0 true true 0 ( 600)]
] -66.7 MRshow
1.000 UL
LTb
0.00 0.00 0.00 C 0.500 UL
LTa
0.50 0.50 0.50 C 8300 3353 M
5739 0 V
stroke
1.000 UL
LTb
0.00 0.00 0.00 C 8300 3353 M
63 0 V
5676 0 R
-63 0 V
stroke
8180 3353 M
[ [(Arial) 200.0 0.0 true true 0 ( 700)]
] -66.7 MRshow
1.000 UL
LTb
0.00 0.00 0.00 C 0.500 UL
LTa
0.50 0.50 0.50 C 8300 3715 M
5739 0 V
stroke
1.000 UL
LTb
0.00 0.00 0.00 C 8300 3715 M
63 0 V
5676 0 R
-63 0 V
stroke
8180 3715 M
[ [(Arial) 200.0 0.0 true true 0 ( 800)]
] -66.7 MRshow
1.000 UL
LTb
0.00 0.00 0.00 C 0.500 UL
LTa
0.50 0.50 0.50 C 8300 4077 M
5739 0 V
stroke
1.000 UL
LTb
0.00 0.00 0.00 C 8300 4077 M
63 0 V
5676 0 R
-63 0 V
stroke
8180 4077 M
[ [(Arial) 200.0 0.0 true true 0 ( 900)]
] -66.7 MRshow
1.000 UL
LTb
0.00 0.00 0.00 C 0.500 UL
LTa
0.50 0.50 0.50 C 8300 4439 M
5739 0 V
stroke
1.000 UL
LTb
0.00 0.00 0.00 C 8300 4439 M
63 0 V
5676 0 R
-63 0 V
stroke
8180 4439 M
[ [(Arial) 200.0 0.0 true true 0 ( 1000)]
] -66.7 MRshow
1.000 UL
LTb
0.00 0.00 0.00 C 0.500 UL
LTa
0.50 0.50 0.50 C 8874 820 M
0 3619 V
stroke
1.000 UL
LTb
0.00 0.00 0.00 C 8874 820 M
0 63 V
0 3556 R
0 -63 V
stroke
8874 620 M
[ [(Arial) 200.0 0.0 true true 0 (1)]
] -66.7 MCshow
1.000 UL
LTb
0.00 0.00 0.00 C 0.500 UL
LTa
0.50 0.50 0.50 C 10022 820 M
0 3619 V
stroke
1.000 UL
LTb
0.00 0.00 0.00 C 10022 820 M
0 63 V
0 3556 R
0 -63 V
stroke
10022 620 M
[ [(Arial) 200.0 0.0 true true 0 (2)]
] -66.7 MCshow
1.000 UL
LTb
0.00 0.00 0.00 C 0.500 UL
LTa
0.50 0.50 0.50 C 11170 820 M
0 3619 V
stroke
1.000 UL
LTb
0.00 0.00 0.00 C 11170 820 M
0 63 V
0 3556 R
0 -63 V
stroke
11170 620 M
[ [(Arial) 200.0 0.0 true true 0 (4)]
] -66.7 MCshow
1.000 UL
LTb
0.00 0.00 0.00 C 0.500 UL
LTa
0.50 0.50 0.50 C 12317 820 M
0 3619 V
stroke
1.000 UL
LTb
0.00 0.00 0.00 C 12317 820 M
0 63 V
0 3556 R
0 -63 V
stroke
12317 620 M
[ [(Arial) 200.0 0.0 true true 0 (8)]
] -66.7 MCshow
1.000 UL
LTb
0.00 0.00 0.00 C 0.500 UL
LTa
0.50 0.50 0.50 C 13465 820 M
0 3619 V
stroke
1.000 UL
LTb
0.00 0.00 0.00 C 13465 820 M
0 63 V
0 3556 R
0 -63 V
stroke
13465 620 M
[ [(Arial) 200.0 0.0 true true 0 (16)]
] -66.7 MCshow
1.000 UL
LTb
0.00 0.00 0.00 C 1.000 UL
LTB
0.00 0.00 0.00 C 8300 4439 M
0 -3619 V
5739 0 V
0 3619 R
-5739 0 R
1.000 UP
stroke
LTb
0.00 0.00 0.00 C LCb setrgbcolor
7360 2629 M
currentpoint gsave translate -270 rotate 0 0 moveto
[ [(Arial) 200.0 0.0 true true 0 (File download time \(s\))]
] -66.7 MCshow
grestore
LTb
LCb setrgbcolor
11169 320 M
[ [(Arial) 200.0 0.0 true true 0 (Flows #)]
] -66.7 MCshow
LTb
LCb setrgbcolor
11169 4739 M
[ [(Arial) 200.0 0.0 true true 0 (b\) File download time)]
] -66.7 MCshow
% Begin plot #1
1.000 UL
LTb
0.60 0.60 0.00 C LCb setrgbcolor
9914 153 M
[ [(Arial) 180.0 0.0 true true 0 (olsr)]
] -60.0 MRshow
1.000 UL
LTb
0.60 0.60 0.00 C 10022 108 333 90 80 -45 0 PatternFill
10022 108 N
333 0 V
0 90 V
-333 0 V
0 -90 V
Z stroke
1.000 UL
LTb
0.60 0.60 0.00 C 8415 3313 230 0 80 -45 0 PatternFill
8530 3313 M
stroke
8415 3313 N
230 0 V
-230 0 V
Z stroke
8415 3313 M
230 0 V
-230 0 R
230 0 V
stroke
9563 1289 230 1030 80 -45 0 PatternFill
9678 946 M
0 343 V
0 1030 R
0 343 V
stroke
9563 1289 N
230 0 V
0 1030 V
-230 0 V
0 -1030 V
Z stroke
9563 2662 M
230 0 V
9563 946 M
230 0 V
stroke
10710 972 230 865 80 -45 0 PatternFill
10825 946 M
0 26 V
0 865 R
0 157 V
stroke
10710 972 N
230 0 V
0 865 V
-230 0 V
0 -865 V
Z stroke
10710 1994 M
230 0 V
10710 946 M
230 0 V
stroke
11858 931 230 506 80 -45 0 PatternFill
11973 863 M
0 68 V
0 506 R
0 106 V
stroke
11858 931 N
230 0 V
0 506 V
-230 0 V
0 -506 V
Z stroke
11858 1543 M
230 0 V
11858 863 M
230 0 V
stroke
13006 892 230 1128 80 -45 0 PatternFill
13121 860 M
0 32 V
0 1128 R
0 943 V
stroke
13006 892 N
230 0 V
0 1128 V
-230 0 V
0 -1128 V
Z stroke
13006 2963 M
230 0 V
13006 860 M
230 0 V
% End plot #1
% Begin plot #2
stroke
LTb
LCb setrgbcolor

 /TransparentPatterns true def
8415 3313 230 0 40 30 0 PatternFill
8530 3313 M
stroke
8415 3313 N
230 0 V
-230 0 V
Z stroke
8415 3313 M
230 0 V
-230 0 R
230 0 V
stroke

 /TransparentPatterns true def
9563 1804 230 0 40 30 0 PatternFill
9678 1804 M
stroke
9563 1804 N
230 0 V
-230 0 V
Z stroke
9563 1804 M
230 0 V
-230 0 R
230 0 V
stroke

 /TransparentPatterns true def
10710 1415 230 0 40 30 0 PatternFill
10825 1415 M
stroke
10710 1415 N
230 0 V
-230 0 V
Z stroke
10710 1415 M
230 0 V
-230 0 R
230 0 V
stroke

 /TransparentPatterns true def
11858 1174 230 0 40 30 0 PatternFill
11973 1174 M
stroke
11858 1174 N
230 0 V
-230 0 V
Z stroke
11858 1174 M
230 0 V
-230 0 R
230 0 V
stroke

 /TransparentPatterns true def
13006 1470 230 0 40 30 0 PatternFill
13121 1470 M
stroke
13006 1470 N
230 0 V
-230 0 V
Z stroke
13006 1470 M
230 0 V
-230 0 R
230 0 V
% End plot #2
% Begin plot #3
stroke
LTb
0.00 0.00 0.63 C LCb setrgbcolor
11327 153 M
[ [(Arial) 180.0 0.0 true true 0 (per-packet)]
] -60.0 MRshow
1.000 UL
LTb
0.00 0.00 0.63 C 11435 108 333 90 80 45 0 PatternFill
11435 108 N
333 0 V
0 90 V
-333 0 V
0 -90 V
Z stroke
1.000 UL
LTb
0.00 0.00 0.63 C 8759 4370 230 0 80 45 0 PatternFill
8874 4370 M
stroke
8759 4370 N
230 0 V
-230 0 V
Z stroke
8759 4370 M
230 0 V
-230 0 R
230 0 V
stroke
9907 2530 230 776 80 45 0 PatternFill
10022 2271 M
0 259 V
0 776 R
0 259 V
stroke
9907 2530 N
230 0 V
0 776 V
-230 0 V
0 -776 V
Z stroke
9907 3565 M
230 0 V
9907 2271 M
230 0 V
stroke
11055 2197 230 593 80 45 0 PatternFill
11170 1975 M
0 222 V
0 593 R
0 339 V
stroke
11055 2197 N
230 0 V
0 593 V
-230 0 V
0 -593 V
Z stroke
11055 3129 M
230 0 V
11055 1975 M
230 0 V
stroke
12203 2209 230 1122 80 45 0 PatternFill
12318 1969 M
0 240 V
0 1122 R
0 838 V
stroke
12203 2209 N
230 0 V
0 1122 V
-230 0 V
0 -1122 V
Z stroke
12203 4169 M
230 0 V
12203 1969 M
230 0 V
stroke
13350 2107 230 1093 80 45 0 PatternFill
13465 1037 M
0 1070 V
0 1093 R
0 1221 V
stroke
13350 2107 N
230 0 V
0 1093 V
-230 0 V
0 -1093 V
Z stroke
13350 4421 M
230 0 V
13350 1037 M
230 0 V
% End plot #3
% Begin plot #4
stroke
LTb
LCb setrgbcolor

 /TransparentPatterns true def
8759 4370 230 0 80 -45 0 PatternFill
8874 4370 M
stroke
8759 4370 N
230 0 V
-230 0 V
Z stroke
8759 4370 M
230 0 V
-230 0 R
230 0 V
stroke

 /TransparentPatterns true def
9907 2918 230 0 80 -45 0 PatternFill
10022 2918 M
stroke
9907 2918 N
230 0 V
-230 0 V
Z stroke
9907 2918 M
230 0 V
-230 0 R
230 0 V
stroke

 /TransparentPatterns true def
11055 2504 230 0 80 -45 0 PatternFill
11170 2504 M
stroke
11055 2504 N
230 0 V
-230 0 V
Z stroke
11055 2504 M
230 0 V
-230 0 R
230 0 V
stroke

 /TransparentPatterns true def
12203 2719 230 0 80 -45 0 PatternFill
12318 2719 M
stroke
12203 2719 N
230 0 V
-230 0 V
Z stroke
12203 2719 M
230 0 V
-230 0 R
230 0 V
stroke

 /TransparentPatterns true def
13350 2635 230 0 80 -45 0 PatternFill
13465 2635 M
stroke
13350 2635 N
230 0 V
-230 0 V
Z stroke
13350 2635 M
230 0 V
-230 0 R
230 0 V
% End plot #4
% Begin plot #5
stroke
LTb
0.00 0.38 0.82 C LCb setrgbcolor
12740 153 M
[ [(Arial) 180.0 0.0 true true 0 (per-flow)]
] -60.0 MRshow
1.000 UL
LTb
0.00 0.38 0.82 C 12848 108 333 90 40 30 0 PatternFill
12848 108 N
333 0 V
0 90 V
-333 0 V
0 -90 V
Z stroke
1.000 UL
LTb
0.00 0.38 0.82 C 9103 4418 230 0 40 30 0 PatternFill
9218 4418 M
stroke
9103 4418 N
230 0 V
-230 0 V
Z stroke
9103 4418 M
230 0 V
-230 0 R
230 0 V
stroke
10251 4420 230 3 40 30 0 PatternFill
10366 4419 M
0 1 V
0 3 R
0 1 V
stroke
10251 4420 N
230 0 V
0 3 V
-230 0 V
0 -3 V
Z stroke
10251 4424 M
230 0 V
-230 -5 R
230 0 V
stroke
11399 3822 230 577 40 30 0 PatternFill
11514 3005 M
0 817 V
0 577 R
0 23 V
stroke
11399 3822 N
230 0 V
0 577 V
-230 0 V
0 -577 V
Z stroke
11399 4422 M
230 0 V
11399 3005 M
230 0 V
stroke
12547 878 230 3537 40 30 0 PatternFill
12662 864 M
0 14 V
0 3537 R
0 8 V
stroke
12547 878 N
230 0 V
0 3537 V
-230 0 V
0 -3537 V
Z stroke
12547 4423 M
230 0 V
12547 864 M
230 0 V
stroke
13695 894 230 3524 40 30 0 PatternFill
13810 879 M
0 15 V
0 3524 R
0 4 V
stroke
13695 894 N
230 0 V
0 3524 V
-230 0 V
0 -3524 V
Z stroke
13695 4422 M
230 0 V
13695 879 M
230 0 V
% End plot #5
% Begin plot #6
stroke
LTb
LCb setrgbcolor

 /TransparentPatterns true def
9103 4418 230 0 40 -30 0 PatternFill
9218 4418 M
stroke
9103 4418 N
230 0 V
-230 0 V
Z stroke
9103 4418 M
230 0 V
-230 0 R
230 0 V
stroke

 /TransparentPatterns true def
10251 4421 230 0 40 -30 0 PatternFill
10366 4421 M
stroke
10251 4421 N
230 0 V
-230 0 V
Z stroke
10251 4421 M
230 0 V
-230 0 R
230 0 V
stroke

 /TransparentPatterns true def
11399 4045 230 0 40 -30 0 PatternFill
11514 4045 M
stroke
11399 4045 N
230 0 V
-230 0 V
Z stroke
11399 4045 M
230 0 V
-230 0 R
230 0 V
stroke

 /TransparentPatterns true def
12547 2695 230 0 40 -30 0 PatternFill
12662 2695 M
stroke
12547 2695 N
230 0 V
-230 0 V
Z stroke
12547 2695 M
230 0 V
-230 0 R
230 0 V
stroke

 /TransparentPatterns true def
13695 2567 230 0 40 -30 0 PatternFill
13810 2567 M
stroke
13695 2567 N
230 0 V
-230 0 V
Z stroke
13695 2567 M
230 0 V
-230 0 R
230 0 V
% End plot #6
stroke
2.000 UL
LTb
LCb setrgbcolor
1.000 UP
1.000 UL
LTb
0.00 0.00 0.00 C stroke
grestore
end
showpage
%%Trailer
%%DocumentFonts: Arial
